nmr/data/tek0026.csv

Model,MDO4054-3
Firmware Version,2.20

Waveform Type,ANALOG,
Point Format,Y,
Horizontal Units,s,
Horizontal Scale,0.01,
Horizontal Delay,0.03977,
Sample Interval,1e-05,
Record Length,10000,
Gating,0.0% to 100.0%,
Probe Attenuation,1,
Vertical Units,V,
Vertical Offset,0,
Vertical Scale,1,
Vertical Position,0.02,
,,
,,
,,
Label,,
TIME,CH1,CH2
-1.0230e-02,-0.063125,0.00054125
-1.0220e-02,-0.0515625,-0.0004325
-1.0210e-02,-0.0571875,-0.000829063
-1.0200e-02,-0.0620312,-0.00054375
-1.0190e-02,-0.0582813,-0.000402188
-1.0180e-02,-0.0546875,-0.000341563
-1.0170e-02,-0.055,6.15625e-05
-1.0160e-02,-0.056875,-0.000491563
-1.0150e-02,-0.053125,-0.000282813
-1.0140e-02,-0.0525,-5.0625e-05
-1.0130e-02,-0.0514063,-0.0006625
-1.0120e-02,-0.055625,-0.0004325
-1.0110e-02,-0.04375,0.000176563
-1.0100e-02,-0.05875,0.00023875
-1.0090e-02,-0.054375,0.0003025
-1.0080e-02,-0.053125,0.000233438
-1.0070e-02,-0.0610938,-0.0002175
-1.0060e-02,-0.0714063,-0.0001225
-1.0050e-02,-0.0598438,-0.00056
-1.0040e-02,-0.0485938,-0.000809688
-1.0030e-02,-0.0565625,-0.000552813
-1.0020e-02,-0.0557813,-4.34375e-05
-1.0010e-02,-0.0660938,-9.71875e-05
-1.0000e-02,-0.0535937,0.00016125
-9.9900e-03,-0.0470312,-2.78125e-05
-9.9800e-03,-0.0767188,-0.000143125
-9.9700e-03,-0.0545313,7.9375e-05
-9.9600e-03,-0.0595313,-0.000223438
-9.9500e-03,-0.0554687,-0.000430313
-9.9400e-03,-0.05375,0.000711875
-9.9300e-03,-0.0409375,-0.000409375
-9.9200e-03,-0.0485938,-0.000505313
-9.9100e-03,-0.05375,-3.65625e-05
-9.9000e-03,-0.0564063,4.25e-05
-9.8900e-03,-0.0617188,-0.000368125
-9.8800e-03,-0.0535937,-0.000233438
-9.8700e-03,-0.0535937,3.75e-06
-9.8600e-03,-0.0573437,-0.000313125
-9.8500e-03,-0.0545313,-0.0002325
-9.8400e-03,-0.0378125,6.25e-05
-9.8300e-03,-0.05375,-0.000215938
-9.8200e-03,-0.0585938,-0.000129375
-9.8100e-03,-0.054375,-0.000418438
-9.8000e-03,-0.0501562,-0.000355625
-9.7900e-03,-0.060625,-0.00051
-9.7800e-03,-0.06125,-0.00040625
-9.7700e-03,-0.0582813,-0.000305938
-9.7600e-03,-0.0665625,8.03125e-05
-9.7500e-03,-0.0473438,-0.000363438
-9.7400e-03,-0.051875,3.4375e-06
-9.7300e-03,-0.0521875,0.000259063
-9.7200e-03,-0.0615625,-0.000145938
-9.7100e-03,-0.0496875,1.1875e-05
-9.7000e-03,-0.0551563,-0.000199375
-9.6900e-03,-0.0428125,0.00035625
-9.6800e-03,-0.0570313,2.1875e-05
-9.6700e-03,-0.051875,2.75e-05
-9.6600e-03,-0.0573437,-0.000325313
-9.6500e-03,-0.04875,-0.000514063
-9.6400e-03,-0.0659375,-0.000240313
-9.6300e-03,-0.0576563,-0.000256563
-9.6200e-03,-0.048125,-0.000609375
-9.6100e-03,-0.0514063,-0.000788125
-9.6000e-03,-0.04875,-0.000384688
-9.5900e-03,-0.0495312,-0.000471875
-9.5800e-03,-0.066875,-0.000591875
-9.5700e-03,-0.0628125,-0.000452813
-9.5600e-03,-0.0607812,-0.00010125
-9.5500e-03,-0.0648438,-0.000181875
-9.5400e-03,-0.0609375,-0.00041
-9.5300e-03,-0.0489062,-0.000592813
-9.5200e-03,-0.061875,8.375e-05
-9.5100e-03,-0.0575,0.000298125
-9.5000e-03,-0.0560937,-0.000414375
-9.4900e-03,-0.0535937,-0.000175313
-9.4800e-03,-0.05625,0.000109688
-9.4700e-03,-0.0498438,0.000205938
-9.4600e-03,-0.0592188,-0.000229688
-9.4500e-03,-0.0514063,-0.000549375
-9.4400e-03,-0.0410937,-0.000485625
-9.4300e-03,-0.060625,-9.75e-05
-9.4200e-03,-0.0504687,-0.00109969
-9.4100e-03,-0.055625,1.375e-05
-9.4000e-03,-0.0657812,-0.00013125
-9.3900e-03,-0.06,-0.000828438
-9.3800e-03,-0.0554687,-0.000402813
-9.3700e-03,-0.0475,-0.000830625
-9.3600e-03,-0.0540625,-0.000190625
-9.3500e-03,-0.0578125,0.000365
-9.3400e-03,-0.0564063,-9.09375e-05
-9.3300e-03,-0.0490625,7.71875e-05
-9.3200e-03,-0.0596875,9.4375e-05
-9.3100e-03,-0.0432813,-0.000824688
-9.3000e-03,-0.050625,0.000332188
-9.2900e-03,-0.0609375,-0.00077625
-9.2800e-03,-0.0564063,-0.000314375
-9.2700e-03,-0.053125,0.000263125
-9.2600e-03,-0.0498438,0.000265938
-9.2500e-03,-0.053125,8.375e-05
-9.2400e-03,-0.045,6.875e-05
-9.2300e-03,-0.0532813,0.000148438
-9.2200e-03,-0.0479688,-0.0003
-9.2100e-03,-0.0479688,0.000149375
-9.2000e-03,-0.0515625,0.000270938
-9.1900e-03,-0.0482812,-0.000408125
-9.1800e-03,-0.0553125,-0.000470938
-9.1700e-03,-0.0596875,-0.00065375
-9.1600e-03,-0.05625,-0.000580625
-9.1500e-03,-0.0625,-0.00032625
-9.1400e-03,-0.0503125,0.000499063
-9.1300e-03,-0.0525,0.00022625
-9.1200e-03,-0.0476562,-1.34375e-05
-9.1100e-03,-0.0460938,-0.000725313
-9.1000e-03,-0.05375,-0.000529375
-9.0900e-03,-0.05375,-0.000130938
-9.0800e-03,-0.0578125,-0.00066625
-9.0700e-03,-0.0478125,1.21875e-05
-9.0600e-03,-0.0453125,-5.53125e-05
-9.0500e-03,-0.0403125,0.000209688
-9.0400e-03,-0.0578125,-0.000333438
-9.0300e-03,-0.05875,-0.000206563
-9.0200e-03,-0.0509375,0.000160625
-9.0100e-03,-0.0621875,0.000492188
-9.0000e-03,-0.05875,-0.000464063
-8.9900e-03,-0.0470312,-0.000536875
-8.9800e-03,-0.0620312,-0.000327813
-8.9700e-03,-0.0640625,-0.000304063
-8.9600e-03,-0.0476562,-0.000394063
-8.9500e-03,-0.058125,2.09375e-05
-8.9400e-03,-0.0617188,-1.75e-05
-8.9300e-03,-0.0532813,-7.71875e-05
-8.9200e-03,-0.054375,3.59375e-05
-8.9100e-03,-0.0515625,0.0001625
-8.9000e-03,-0.0485938,0.000624375
-8.8900e-03,-0.06,0.000480625
-8.8800e-03,-0.0473438,0.000501875
-8.8700e-03,-0.059375,0.00056
-8.8600e-03,-0.0432813,7.46875e-05
-8.8500e-03,-0.065625,0.00034375
-8.8400e-03,-0.0440625,-6.28125e-05
-8.8300e-03,-0.0532813,8.4375e-05
-8.8200e-03,-0.0565625,-0.000484375
-8.8100e-03,-0.0551563,-0.00124219
-8.8000e-03,-0.05875,-0.000229063
-8.7900e-03,-0.0546875,-0.000755313
-8.7800e-03,-0.0584375,-3.75e-05
-8.7700e-03,-0.0526563,2.28125e-05
-8.7600e-03,-0.0542187,-0.000359688
-8.7500e-03,-0.053125,-0.0003975
-8.7400e-03,-0.0610938,-1.03125e-05
-8.7300e-03,-0.0589063,0.000229375
-8.7200e-03,-0.0585938,0.00036125
-8.7100e-03,-0.050625,-0.00013125
-8.7000e-03,-0.0573437,-0.000276563
-8.6900e-03,-0.0610938,0.000148125
-8.6800e-03,-0.044375,-0.000273125
-8.6700e-03,-0.0501562,-8.03125e-05
-8.6600e-03,-0.0528125,-0.000729063
-8.6500e-03,-0.0614062,-0.000597188
-8.6400e-03,-0.06125,-0.0005475
-8.6300e-03,-0.0595313,5.65625e-05
-8.6200e-03,-0.0448438,-0.000460313
-8.6100e-03,-0.0525,-0.000486875
-8.6000e-03,-0.0557813,-0.000362813
-8.5900e-03,-0.0471875,-0.000262813
-8.5800e-03,-0.0501562,-0.000320313
-8.5700e-03,-0.0482812,5.28125e-05
-8.5600e-03,-0.0614062,-0.000479688
-8.5500e-03,-0.0575,-0.00027125
-8.5400e-03,-0.05125,0.000324375
-8.5300e-03,-0.0523437,-0.000531875
-8.5200e-03,-0.053125,8.8125e-05
-8.5100e-03,-0.058125,-0.000549063
-8.5000e-03,-0.04875,2.09375e-05
-8.4900e-03,-0.051875,-0.000684688
-8.4800e-03,-0.0576563,-0.000705938
-8.4700e-03,-0.0517188,-0.000203438
-8.4600e-03,-0.0507812,-0.0003625
-8.4500e-03,-0.05625,-0.00063125
-8.4400e-03,-0.049375,-0.000424375
-8.4300e-03,-0.0485938,0.000115
-8.4200e-03,-0.0540625,-0.000773125
-8.4100e-03,-0.05,-0.000295
-8.4000e-03,-0.0640625,0.00014
-8.3900e-03,-0.0540625,3.46875e-05
-8.3800e-03,-0.0559375,0.000375
-8.3700e-03,-0.0565625,0.0003875
-8.3600e-03,-0.0559375,-0.000116563
-8.3500e-03,-0.0567187,-0.000435625
-8.3400e-03,-0.0378125,-0.000653438
-8.3300e-03,-0.06,0.000410938
-8.3200e-03,-0.0625,-0.000360313
-8.3100e-03,-0.049375,-0.000141875
-8.3000e-03,-0.05125,-0.000469688
-8.2900e-03,-0.0615625,0.000574375
-8.2800e-03,-0.0570313,-0.000156563
-8.2700e-03,-0.0546875,-0.000500625
-8.2600e-03,-0.053125,-0.000342813
-8.2500e-03,-0.0525,-0.000308125
-8.2400e-03,-0.06375,-0.000564063
-8.2300e-03,-0.0596875,-0.000207813
-8.2200e-03,-0.0548437,-0.00023375
-8.2100e-03,-0.0507812,-0.000203438
-8.2000e-03,-0.0579687,0.000354063
-8.1900e-03,-0.0476562,-0.000184063
-8.1800e-03,-0.0573437,-0.000555313
-8.1700e-03,-0.0640625,-0.000203438
-8.1600e-03,-0.0609375,-0.000164063
-8.1500e-03,-0.0479688,-0.000407188
-8.1400e-03,-0.0545313,-0.000495938
-8.1300e-03,-0.045625,-0.00023625
-8.1200e-03,-0.0526563,0.000524375
-8.1100e-03,-0.0551563,0.000233438
-8.1000e-03,-0.053125,-0.00103344
-8.0900e-03,-0.0573437,3.6875e-05
-8.0800e-03,-0.0553125,4.46875e-05
-8.0700e-03,-0.0578125,-0.000442813
-8.0600e-03,-0.0575,-0.000385313
-8.0500e-03,-0.0565625,-0.000360625
-8.0400e-03,-0.0753125,-0.000429375
-8.0300e-03,-0.0595313,-0.00024375
-8.0200e-03,-0.0596875,0.0006525
-8.0100e-03,-0.0620312,0.0002375
-8.0000e-03,-0.0623438,0.000207813
-7.9900e-03,-0.0623438,1.875e-06
-7.9800e-03,-0.0545313,-3.4375e-06
-7.9700e-03,-0.0498438,-3.09375e-05
-7.9600e-03,-0.0503125,0.00036
-7.9500e-03,-0.0539063,-0.000347813
-7.9400e-03,-0.0470312,-0.0005425
-7.9300e-03,-0.05875,-8.5e-05
-7.9200e-03,-0.0692187,-0.00034875
-7.9100e-03,-0.0523437,8.5e-05
-7.9000e-03,-0.0429688,0.000534688
-7.8900e-03,-0.0503125,-4.375e-06
-7.8800e-03,-0.0417187,0.000374375
-7.8700e-03,-0.0446875,-0.000203438
-7.8600e-03,-0.040625,-0.000446875
-7.8500e-03,-0.0540625,0.000138438
-7.8400e-03,-0.069375,0.000302813
-7.8300e-03,-0.0653125,0.000186875
-7.8200e-03,-0.0470312,-0.00070125
-7.8100e-03,-0.0404687,-0.000582812
-7.8000e-03,-0.0542187,-0.000635
-7.7900e-03,-0.0557813,-0.000429375
-7.7800e-03,-0.0507812,-0.00013125
-7.7700e-03,-0.055625,-0.000304687
-7.7600e-03,-0.06125,0.000167188
-7.7500e-03,-0.063125,0.000115
-7.7400e-03,-0.0535937,2.15625e-05
-7.7300e-03,-0.0571875,-0.00024
-7.7200e-03,-0.0501562,0.000132813
-7.7100e-03,-0.0454688,0.000297188
-7.7000e-03,-0.0607812,0.00018
-7.6900e-03,-0.0554687,-0.000160938
-7.6800e-03,-0.0532813,-0.00017875
-7.6700e-03,-0.063125,-0.000463125
-7.6600e-03,-0.0595313,-0.000510313
-7.6500e-03,-0.0495312,-5.96875e-05
-7.6400e-03,-0.05875,0.00036875
-7.6300e-03,-0.0501562,-0.000113125
-7.6200e-03,-0.0496875,-0.000801875
-7.6100e-03,-0.0584375,-0.000120938
-7.6000e-03,-0.059375,-0.000135
-7.5900e-03,-0.0403125,-2.09375e-05
-7.5800e-03,-0.0510938,0.000214063
-7.5700e-03,-0.0609375,-0.000194063
-7.5600e-03,-0.0604688,-0.000319063
-7.5500e-03,-0.06375,-0.00040625
-7.5400e-03,-0.0614062,-0.00065625
-7.5300e-03,-0.0571875,0.000373438
-7.5200e-03,-0.0439063,-0.0008325
-7.5100e-03,-0.0542187,-4.40625e-05
-7.5000e-03,-0.0503125,0.000571563
-7.4900e-03,-0.0564063,0.000596563
-7.4800e-03,-0.0626562,0.000395625
-7.4700e-03,-0.0535937,0.000207188
-7.4600e-03,-0.0529687,2.625e-05
-7.4500e-03,-0.0445313,0.000217188
-7.4400e-03,-0.0534375,-0.000515938
-7.4300e-03,-0.0596875,-0.000178125
-7.4200e-03,-0.0575,-0.000138125
-7.4100e-03,-0.0479688,-9.125e-05
-7.4000e-03,-0.0564063,-0.000230313
-7.3900e-03,-0.0585938,-0.000338125
-7.3800e-03,-0.0639062,-0.000325625
-7.3700e-03,-0.06125,-0.000225313
-7.3600e-03,-0.0582813,-3.09375e-05
-7.3500e-03,-0.0498438,-0.000304063
-7.3400e-03,-0.064375,-0.00022375
-7.3300e-03,-0.0521875,-0.00062125
-7.3200e-03,-0.0540625,-0.000357813
-7.3100e-03,-0.0553125,-0.000553125
-7.3000e-03,-0.0607812,-0.000328438
-7.2900e-03,-0.0523437,-0.000340625
-7.2800e-03,-0.0570313,1.125e-05
-7.2700e-03,-0.0509375,-0.000736875
-7.2600e-03,-0.055,7.1875e-06
-7.2500e-03,-0.0421875,1e-05
-7.2400e-03,-0.0675,4.78125e-05
-7.2300e-03,-0.0620312,-0.00013125
-7.2200e-03,-0.05375,-0.000215938
-7.2100e-03,-0.05,-0.000515938
-7.2000e-03,-0.053125,-5.375e-05
-7.1900e-03,-0.0523437,-0.000224688
-7.1800e-03,-0.0615625,-0.00101563
-7.1700e-03,-0.0567187,-6.4375e-05
-7.1600e-03,-0.0570313,-0.000160625
-7.1500e-03,-0.0565625,-0.00037625
-7.1400e-03,-0.0575,-0.000202188
-7.1300e-03,-0.0560937,0.000152813
-7.1200e-03,-0.0623438,0.000238125
-7.1100e-03,-0.045,-0.000355313
-7.1000e-03,-0.0559375,-0.000579375
-7.0900e-03,-0.0623438,0.000518125
-7.0800e-03,-0.0392187,0.000150625
-7.0700e-03,-0.0451563,0.000296875
-7.0600e-03,-0.0559375,-0.00012125
-7.0500e-03,-0.0675,0.00024125
-7.0400e-03,-0.0532813,0.000110313
-7.0300e-03,-0.0548437,0.000441563
-7.0200e-03,-0.0485938,-0.000270313
-7.0100e-03,-0.05625,-6.0625e-05
-7.0000e-03,-0.06125,-0.000388125
-6.9900e-03,-0.060625,-0.000120313
-6.9800e-03,-0.0464062,-0.00063125
-6.9700e-03,-0.0617188,-0.000138125
-6.9600e-03,-0.0517188,0.000274063
-6.9500e-03,-0.0567187,-0.000670625
-6.9400e-03,-0.0601562,-0.000551563
-6.9300e-03,-0.055625,0.000275313
-6.9200e-03,-0.0585938,-0.000304375
-6.9100e-03,-0.0534375,5.8125e-05
-6.9000e-03,-0.0479688,-0.000538438
-6.8900e-03,-0.0528125,-0.00106594
-6.8800e-03,-0.0570313,-0.000908438
-6.8700e-03,-0.0501562,-0.00057
-6.8600e-03,-0.0542187,-0.000425
-6.8500e-03,-0.0540625,-0.00046375
-6.8400e-03,-0.0485938,0.000250938
-6.8300e-03,-0.0640625,-0.0002025
-6.8200e-03,-0.0507812,-4.9375e-05
-6.8100e-03,-0.05875,-0.000672813
-6.8000e-03,-0.0584375,-0.000402188
-6.7900e-03,-0.0498438,-0.000295
-6.7800e-03,-0.055,-0.0004425
-6.7700e-03,-0.05875,-0.000268438
-6.7600e-03,-0.0534375,-0.000245938
-6.7500e-03,-0.0603125,-0.000440938
-6.7400e-03,-0.0553125,-0.000120938
-6.7300e-03,-0.05625,0.000332813
-6.7200e-03,-0.0470312,-0.000209063
-6.7100e-03,-0.059375,-0.000815313
-6.7000e-03,-0.05375,-0.000205
-6.6900e-03,-0.0432813,-2.6875e-05
-6.6800e-03,-0.0592188,6.6875e-05
-6.6700e-03,-0.0503125,0.000359688
-6.6600e-03,-0.0615625,4.15625e-05
-6.6500e-03,-0.0660938,5.875e-05
-6.6400e-03,-0.0582813,-0.00016875
-6.6300e-03,-0.0523437,-0.000240625
-6.6200e-03,-0.0553125,0.000351563
-6.6100e-03,-0.0578125,0.000176875
-6.6000e-03,-0.0578125,-9.21875e-05
-6.5900e-03,-0.0548437,-0.000125
-6.5800e-03,-0.0504687,-0.000370313
-6.5700e-03,-0.0564063,-0.000815625
-6.5600e-03,-0.0464062,-0.000204063
-6.5500e-03,-0.0492188,-0.000437813
-6.5400e-03,-0.04875,-0.000331875
-6.5300e-03,-0.059375,-0.00012625
-6.5200e-03,-0.064375,0.000288438
-6.5100e-03,-0.0567187,-3.4375e-05
-6.5000e-03,-0.0479688,-1.5e-05
-6.4900e-03,-0.060625,-9.03125e-05
-6.4800e-03,-0.049375,0.00011625
-6.4700e-03,-0.0467188,-0.000277813
-6.4600e-03,-0.0604688,-0.00059375
-6.4500e-03,-0.0521875,-0.000269375
-6.4400e-03,-0.0607812,8.09375e-05
-6.4300e-03,-0.0679688,-0.000205
-6.4200e-03,-0.0557813,-4.9375e-05
-6.4100e-03,-0.0560937,0.000144375
-6.4000e-03,-0.0590625,0.000446563
-6.3900e-03,-0.0559375,0.000102813
-6.3800e-03,-0.046875,0.000504688
-6.3700e-03,-0.0510938,-8.53125e-05
-6.3600e-03,-0.0503125,-0.000214688
-6.3500e-03,-0.0589063,-0.00031375
-6.3400e-03,-0.0596875,-0.000698125
-6.3300e-03,-0.0609375,0.000213125
-6.3200e-03,-0.0532813,-0.000591563
-6.3100e-03,-0.05625,-0.000397188
-6.3000e-03,-0.0495312,-0.000124063
-6.2900e-03,-0.0509375,-5.28125e-05
-6.2800e-03,-0.0610938,-0.000372188
-6.2700e-03,-0.049375,-0.000529063
-6.2600e-03,-0.049375,4.1875e-05
-6.2500e-03,-0.056875,0.000297813
-6.2400e-03,-0.0559375,-0.000339063
-6.2300e-03,-0.0578125,-0.000619375
-6.2200e-03,-0.060625,5.96875e-05
-6.2100e-03,-0.05,-7.0625e-05
-6.2000e-03,-0.0573437,-0.000343125
-6.1900e-03,-0.06125,-0.00051125
-6.1800e-03,-0.0528125,-0.000201563
-6.1700e-03,-0.0548437,-0.000539375
-6.1600e-03,-0.0478125,-0.000531875
-6.1500e-03,-0.045625,-0.00034875
-6.1400e-03,-0.0553125,5.1875e-05
-6.1300e-03,-0.06,-1.0625e-05
-6.1200e-03,-0.0503125,-6.9375e-05
-6.1100e-03,-0.0607812,-0.00119563
-6.1000e-03,-0.0579687,-0.00051125
-6.0900e-03,-0.0579687,-0.000335625
-6.0800e-03,-0.0515625,-0.000424375
-6.0700e-03,-0.0589063,-0.00026375
-6.0600e-03,-0.0614062,-0.0001775
-6.0500e-03,-0.058125,-0.000639688
-6.0400e-03,-0.051875,-0.000375938
-6.0300e-03,-0.0510938,-0.000271563
-6.0200e-03,-0.0567187,-0.000182188
-6.0100e-03,-0.0546875,0.000145
-6.0000e-03,-0.0578125,-0.000348125
-5.9900e-03,-0.0654688,4.375e-05
-5.9800e-03,-0.0439063,0.00080375
-5.9700e-03,-0.0654688,-5.46875e-05
-5.9600e-03,-0.0707813,-0.000149063
-5.9500e-03,-0.0710937,-4.65625e-05
-5.9400e-03,-0.060625,-0.000325313
-5.9300e-03,-0.0445313,-0.000388438
-5.9200e-03,-0.0546875,-2.375e-05
-5.9100e-03,-0.0470312,-0.000585938
-5.9000e-03,-0.0432813,8.875e-05
-5.8900e-03,-0.0507812,0.000174063
-5.8800e-03,-0.0575,6.875e-05
-5.8700e-03,-0.0546875,-0.000345625
-5.8600e-03,-0.04125,-0.000140625
-5.8500e-03,-0.0564063,-7.28125e-05
-5.8400e-03,-0.06625,-0.000444375
-5.8300e-03,-0.055625,-0.0002725
-5.8200e-03,-0.0528125,1.90625e-05
-5.8100e-03,-0.0448438,-0.000181875
-5.8000e-03,-0.0540625,-0.00012
-5.7900e-03,-0.0471875,0.000420313
-5.7800e-03,-0.0539063,5.5e-05
-5.7700e-03,-0.0595313,0.00044125
-5.7600e-03,-0.0565625,-3.96875e-05
-5.7500e-03,-0.0542187,-1e-05
-5.7400e-03,-0.05125,-0.000161875
-5.7300e-03,-0.0701563,-0.0002425
-5.7200e-03,-0.0578125,-0.000309063
-5.7100e-03,-0.0570313,-0.000183125
-5.7000e-03,-0.0453125,0.000108125
-5.6900e-03,-0.0560937,-0.000245625
-5.6800e-03,-0.05,-0.000374688
-5.6700e-03,-0.0557813,0.000527188
-5.6600e-03,-0.0545313,-0.00013625
-5.6500e-03,-0.0539063,-0.000282188
-5.6400e-03,-0.0578125,0.000129375
-5.6300e-03,-0.0592188,-0.000438438
-5.6200e-03,-0.055,0.0001375
-5.6100e-03,-0.0571875,0.000244063
-5.6000e-03,-0.044375,-0.000231875
-5.5900e-03,-0.0570313,-0.000944688
-5.5800e-03,-0.0465625,-0.000164688
-5.5700e-03,-0.0532813,-0.000164063
-5.5600e-03,-0.0635938,-0.00010125
-5.5500e-03,-0.0534375,-0.000509688
-5.5400e-03,-0.0539063,-0.000289688
-5.5300e-03,-0.0467188,-0.00042875
-5.5200e-03,-0.0603125,-0.000639688
-5.5100e-03,-0.0665625,0.000327188
-5.5000e-03,-0.059375,8.40625e-05
-5.4900e-03,-0.0479688,0.000426563
-5.4800e-03,-0.0495312,-0.000265625
-5.4700e-03,-0.0482812,-0.00020875
-5.4600e-03,-0.0509375,-0.000405938
-5.4500e-03,-0.0457813,-0.000380938
-5.4400e-03,-0.0421875,-0.000179688
-5.4300e-03,-0.0526563,-3.15625e-05
-5.4200e-03,-0.0545313,-0.000247188
-5.4100e-03,-0.0548437,-1.1875e-05
-5.4000e-03,-0.05375,8.84375e-05
-5.3900e-03,-0.068125,-0.000185625
-5.3800e-03,-0.0526563,-0.000314688
-5.3700e-03,-0.0523437,-0.00063125
-5.3600e-03,-0.0445313,6.65625e-05
-5.3500e-03,-0.050625,0.000125313
-5.3400e-03,-0.0692187,-0.0001575
-5.3300e-03,-0.0557813,0.00047125
-5.3200e-03,-0.061875,-0.00038875
-5.3100e-03,-0.0479688,-0.000484063
-5.3000e-03,-0.0578125,0.000245938
-5.2900e-03,-0.0548437,0.000578438
-5.2800e-03,-0.0582813,-0.000178438
-5.2700e-03,-0.0507812,-0.000588438
-5.2600e-03,-0.059375,-6.5e-05
-5.2500e-03,-0.0621875,-0.000465625
-5.2400e-03,-0.0567187,0.000455313
-5.2300e-03,-0.0492188,0.000158125
-5.2200e-03,-0.0460938,-0.00012
-5.2100e-03,-0.0567187,0.0003025
-5.2000e-03,-0.0510938,-7.375e-05
-5.1900e-03,-0.0598438,-5.96875e-05
-5.1800e-03,-0.0601562,-8.65625e-05
-5.1700e-03,-0.0575,-0.000374063
-5.1600e-03,-0.0595313,0.0001325
-5.1500e-03,-0.0509375,2.59375e-05
-5.1400e-03,-0.0567187,0.000197188
-5.1300e-03,-0.05875,-0.0005975
-5.1200e-03,-0.0526563,-0.000477188
-5.1100e-03,-0.0648438,-0.000790625
-5.1000e-03,-0.0670313,-0.00062125
-5.0900e-03,-0.0526563,-0.000520938
-5.0800e-03,-0.050625,-3.125e-05
-5.0700e-03,-0.0476562,-0.000379688
-5.0600e-03,-0.0592188,3.125e-07
-5.0500e-03,-0.0567187,-6.78125e-05
-5.0400e-03,-0.0521875,-2.09375e-05
-5.0300e-03,-0.0598438,-0.000230625
-5.0200e-03,-0.0520313,-0.00053625
-5.0100e-03,-0.060625,0.00024
-5.0000e-03,-0.04625,-0.00015625
-4.9900e-03,-0.0553125,-0.000403438
-4.9800e-03,-0.0528125,-0.000354375
-4.9700e-03,-0.0548437,-0.00109594
-4.9600e-03,-0.0539063,-0.00112188
-4.9500e-03,-0.0521875,-0.000618125
-4.9400e-03,-0.053125,-2.84375e-05
-4.9300e-03,-0.0490625,-8e-05
-4.9200e-03,-0.0470312,-0.000253125
-4.9100e-03,-0.06125,-0.000256875
-4.9000e-03,-0.0610938,0.000136875
-4.8900e-03,-0.051875,-9e-05
-4.8800e-03,-0.0589063,-0.000474688
-4.8700e-03,-0.0565625,-0.000301875
-4.8600e-03,-0.0525,-0.000361875
-4.8500e-03,-0.0546875,0.000185313
-4.8400e-03,-0.0504687,3.34375e-05
-4.8300e-03,-0.0576563,0.000339063
-4.8200e-03,-0.0440625,-0.000134063
-4.8100e-03,-0.0585938,-0.00040625
-4.8000e-03,-0.0498438,0.0002625
-4.7900e-03,-0.0542187,-6.96875e-05
-4.7800e-03,-0.0439063,-0.000272188
-4.7700e-03,-0.0565625,7.84375e-05
-4.7600e-03,-0.0601562,-0.0008375
-4.7500e-03,-0.063125,-0.000144688
-4.7400e-03,-0.0553125,-0.000410938
-4.7300e-03,-0.0523437,0.000209375
-4.7200e-03,-0.0523437,-0.000259063
-4.7100e-03,-0.0595313,0.000560938
-4.7000e-03,-0.055625,-0.000110313
-4.6900e-03,-0.0570313,0.00032375
-4.6800e-03,-0.0560937,7.1875e-05
-4.6700e-03,-0.0578125,-0.0001725
-4.6600e-03,-0.0554687,-0.000222188
-4.6500e-03,-0.0392187,6.25e-05
-4.6400e-03,-0.0432813,-8.03125e-05
-4.6300e-03,-0.05375,0.000188125
-4.6200e-03,-0.056875,-3.625e-05
-4.6100e-03,-0.059375,-0.000320625
-4.6000e-03,-0.0545313,-0.000600313
-4.5900e-03,-0.0628125,-0.000164063
-4.5800e-03,-0.0420312,-0.00053875
-4.5700e-03,-0.0582813,9.90625e-05
-4.5600e-03,-0.0551563,-0.00027
