nmr/data/tek0042.csv

Model,MDO4054-3
Firmware Version,2.20

Waveform Type,ANALOG,,
Point Format,Y,,
Horizontal Units,s,,
Horizontal Scale,0.01,,
Horizontal Delay,0.05012,,
Sample Interval,1e-06,,
Record Length,100000,,
Gating,0.0% to 100.0%,,
Probe Attenuation,1,,
Vertical Units,V,,
Vertical Offset,0,,
Vertical Scale,1,,
Vertical Position,0.02,,
,,,
,,,
,,,
Label,,,
TIME,CH1,CH2,CH3
1.200000e-04,-0.0601562,-0.00103469,4.95115
1.210000e-04,-0.0345312,-0.0013225,4.9124
1.220000e-04,-0.0565625,-0.00112094,4.90677
1.230000e-04,-0.0560937,-0.00120813,4.90834
1.240000e-04,-0.0576563,-0.00148594,4.90302
1.250000e-04,-0.0496875,-0.00109375,4.90302
1.260000e-04,-0.0654688,-0.000965,4.90521
1.270000e-04,-0.0471875,-0.00102,4.93115
1.280000e-04,-0.0560937,-0.00148281,4.91178
1.290000e-04,-0.06125,-0.00113531,4.94021
1.300000e-04,-0.0435938,-0.00106875,4.89302
1.310000e-04,-0.04625,-0.000901563,4.92553
1.320000e-04,-0.0479688,-0.00165219,4.88803
1.330000e-04,-0.0504687,-0.000954063,4.9224
1.340000e-04,-0.05125,-0.000727813,4.90646
1.350000e-04,-0.0532813,-0.000775,4.93021
1.360000e-04,-0.0471875,-0.00127906,4.88396
1.370000e-04,-0.0525,-0.00129656,4.9049
1.380000e-04,-0.056875,-0.000918438,4.91928
1.390000e-04,-0.05,-0.000937188,4.92178
1.400000e-04,-0.0545313,-0.00123656,4.91771
1.410000e-04,-0.058125,-0.00100063,4.91209
1.420000e-04,-0.0621875,-0.00105125,4.93209
1.430000e-04,-0.0473438,-0.000895313,4.92521
1.440000e-04,-0.0476562,-0.00156719,4.92646
1.450000e-04,-0.0470312,-0.0012925,4.92115
1.460000e-04,-0.056875,-0.00115563,4.90146
1.470000e-04,-0.0476562,-0.000939063,4.91646
1.480000e-04,-0.0589063,-0.00112875,4.91584
1.490000e-04,-0.0515625,-0.00159438,4.90053
1.500000e-04,-0.0567187,-0.000883125,4.92021
1.510000e-04,-0.0459375,-0.00138188,4.91521
1.520000e-04,-0.0529687,-0.001135,4.90428
1.530000e-04,-0.045,-0.00117625,4.89677
1.540000e-04,-0.0542187,-0.00124281,4.91084
1.550000e-04,-0.0504687,-0.000689688,4.91865
1.560000e-04,-0.0595313,-0.001405,4.9174
1.570000e-04,-0.0496875,-0.00116906,4.90053
1.580000e-04,-0.0623438,-0.00096875,4.9224
1.590000e-04,-0.0526563,-0.00084375,4.90053
1.600000e-04,-0.0495312,-0.00101,4.88396
1.610000e-04,-0.0579687,-0.00125188,4.89677
1.620000e-04,-0.0489062,-0.00145125,4.89302
1.630000e-04,-0.048125,-0.000954375,4.89302
1.640000e-04,-0.0542187,-0.00108844,4.89771
1.650000e-04,-0.0495312,-0.00168781,4.91146
1.660000e-04,-0.0528125,-0.00133875,4.89896
1.670000e-04,-0.0545313,-0.00112656,4.8949
1.680000e-04,-0.04875,-0.000891563,4.88365
1.690000e-04,-0.0523437,-0.00118313,4.90115
1.700000e-04,-0.0601562,-0.00142188,4.89521
1.710000e-04,-0.0582813,-0.00121906,4.92178
1.720000e-04,-0.0532813,-0.00120313,4.91271
1.730000e-04,-0.0539063,-0.0010775,4.90271
1.740000e-04,-0.0592188,-0.00131344,4.86115
1.750000e-04,-0.0603125,-0.00111563,4.91459
1.760000e-04,-0.0525,-0.00108938,4.90209
1.770000e-04,-0.055,-0.00121281,4.88209
1.780000e-04,-0.056875,-0.00126563,4.89021
1.790000e-04,-0.0540625,-0.00107031,4.88709
1.800000e-04,-0.05625,-0.000939063,4.90053
1.810000e-04,-0.058125,-0.00139625,4.90115
1.820000e-04,-0.055625,-0.0012125,4.92896
1.830000e-04,-0.0492188,-0.000970625,4.87615
1.840000e-04,-0.0582813,-0.00103,4.91427
1.850000e-04,-0.0517188,-0.00116125,4.89365
1.860000e-04,-0.0517188,-0.00117719,4.91427
1.870000e-04,-0.0614062,-0.00121344,4.93146
1.880000e-04,-0.0554687,-0.000899063,4.94615
1.890000e-04,-0.0509375,-0.00118438,4.8999
1.900000e-04,-0.0603125,-0.00128344,4.91459
1.910000e-04,-0.0567187,-0.00101281,4.9099
1.920000e-04,-0.0495312,-0.000975938,4.91677
1.930000e-04,-0.0471875,-0.00119969,4.93459
1.940000e-04,-0.0626562,-0.00132781,4.92521
1.950000e-04,-0.0621875,-0.00138563,4.9224
1.960000e-04,-0.0610938,-0.00121219,4.92959
1.970000e-04,-0.0548437,-0.000980625,4.89896
1.980000e-04,-0.0521875,-0.00119406,4.91803
1.990000e-04,-0.0585938,-0.00132938,4.90053
2.000000e-04,-0.058125,-0.00118313,4.89803
2.010000e-04,-0.0546875,-0.000990938,4.88959
2.020000e-04,-0.0523437,-0.00117781,4.9299
2.030000e-04,-0.0421875,-0.00122906,4.92615
2.040000e-04,-0.0528125,-0.00130625,4.92709
2.050000e-04,-0.05375,-0.00113938,4.92178
2.060000e-04,-0.0517188,-0.00101688,4.94928
2.070000e-04,-0.05375,-0.00164406,4.90959
2.080000e-04,-0.0429688,-0.00122656,4.91771
2.090000e-04,-0.0598438,-0.00147313,4.89834
2.100000e-04,-0.060625,-0.000965313,4.89428
2.110000e-04,-0.05875,-0.00110906,4.92084
2.120000e-04,-0.0495312,-0.00161156,4.90209
2.130000e-04,-0.05625,-0.000949688,4.91115
2.140000e-04,-0.0526563,-0.00108906,4.94303
2.150000e-04,-0.0623438,-0.00145094,4.89053
2.160000e-04,-0.0629688,-0.00120281,4.8999
2.170000e-04,-0.0509375,-0.0011425,4.92771
2.180000e-04,-0.0517188,-0.000669063,4.90646
2.190000e-04,-0.054375,-0.00129063,4.93584
2.200000e-04,-0.04375,-0.00127438,4.92115
2.210000e-04,-0.0609375,-0.00113594,4.94303
2.220000e-04,-0.051875,-0.000955625,4.9349
2.230000e-04,-0.0423437,-0.0011775,4.94303
2.240000e-04,-0.0525,-0.00136875,4.92427
2.250000e-04,-0.0617188,-0.0011125,4.91115
2.260000e-04,-0.0551563,-0.00114625,4.90865
2.270000e-04,-0.0492188,-0.00094125,4.92334
2.280000e-04,-0.0503125,-0.00155406,4.92427
2.290000e-04,-0.05375,-0.0014375,4.91521
2.300000e-04,-0.0559375,-0.00105125,4.91021
2.310000e-04,-0.0489062,-0.00121656,4.91146
2.320000e-04,-0.0601562,-0.00132156,4.91521
2.330000e-04,-0.0546875,-0.00130094,4.88678
2.340000e-04,-0.0526563,-0.00124563,4.90709
2.350000e-04,-0.0467188,-0.000725,4.91334
2.360000e-04,-0.0479688,-0.00149063,4.89209
2.370000e-04,-0.045625,-0.00140563,4.88959
2.380000e-04,-0.0521875,-0.0009425,4.91115
2.390000e-04,-0.0610938,-0.00112344,4.88709
2.400000e-04,-0.0634375,-0.00137719,4.88927
2.410000e-04,-0.05125,-0.00139438,4.87615
2.420000e-04,-0.0503125,-0.001225,4.89115
2.430000e-04,-0.05875,-0.000980625,4.90178
2.440000e-04,-0.0475,-0.00124,4.92771
2.450000e-04,-0.0489062,-0.00113969,4.88552
2.460000e-04,-0.0584375,-0.00107594,4.89271
2.470000e-04,-0.0507812,-0.00106719,4.88834
2.480000e-04,-0.0498438,-0.00128906,4.88209
2.490000e-04,-0.0523437,-0.00152813,4.90084
2.500000e-04,-0.0434375,-0.00140656,4.89927
2.510000e-04,-0.0654688,-0.00100875,4.90209
2.520000e-04,-0.055,-0.00101031,4.89646
2.530000e-04,-0.0489062,-0.00129188,4.91021
2.540000e-04,-0.0475,-0.00127531,4.89396
2.550000e-04,-0.0554687,-0.000827188,4.92646
2.560000e-04,-0.0592188,-0.00117438,4.89927
2.570000e-04,-0.0509375,-0.00109938,4.92271
2.580000e-04,-0.0520313,-0.001435,4.92365
2.590000e-04,-0.0575,-0.00126375,4.90209
2.600000e-04,-0.0607812,-0.00108063,4.87053
2.610000e-04,-0.0534375,-0.00136625,4.91646
2.620000e-04,-0.035625,-0.00119844,4.94146
2.630000e-04,-0.0421875,-0.00104125,4.93365
2.640000e-04,-0.0529687,-0.00125,4.91553
2.650000e-04,-0.0615625,-0.00135594,4.90584
2.660000e-04,-0.0509375,-0.0015,4.93365
2.670000e-04,-0.0660938,-0.00140281,4.92427
2.680000e-04,-0.0657812,-0.000839375,4.94521
2.690000e-04,-0.0473438,-0.00136469,4.92615
2.700000e-04,-0.0479688,-0.00141781,4.91959
2.710000e-04,-0.03375,-0.00116125,4.93271
2.720000e-04,-0.0540625,-0.00129125,4.91615
2.730000e-04,-0.0639062,-0.00109938,4.90615
2.740000e-04,-0.0535937,-0.00168469,4.94646
2.750000e-04,-0.0454688,-0.00104281,4.94303
2.760000e-04,-0.0478125,-0.00103719,4.91178
2.770000e-04,-0.05375,-0.00124031,4.90803
2.780000e-04,-0.0573437,-0.00112938,4.91178
2.790000e-04,-0.0526563,-0.00139406,4.91427
2.800000e-04,-0.053125,-0.000756875,4.91584
2.810000e-04,-0.0615625,-0.0010225,4.8924
2.820000e-04,-0.0590625,-0.00123188,4.88615
2.830000e-04,-0.05875,-0.0013525,4.91115
2.840000e-04,-0.0503125,-0.00116625,4.89927
2.850000e-04,-0.055625,-0.000948125,4.91803
2.860000e-04,-0.05,-0.00133875,4.92677
2.870000e-04,-0.0340625,-0.00109375,4.91865
2.880000e-04,-0.05,-0.001275,4.92365
2.890000e-04,-0.0567187,-0.00111188,4.85802
2.900000e-04,-0.0545313,-0.00118906,4.91521
2.910000e-04,-0.056875,-0.000850313,4.94177
2.920000e-04,-0.0420312,-0.000970313,4.89209
2.930000e-04,-0.0564063,-0.00102,4.91146
2.940000e-04,-0.0598438,-0.00110906,4.93334
2.950000e-04,-0.045625,-0.00127656,4.93021
2.960000e-04,-0.0517188,-0.00118531,4.90271
2.970000e-04,-0.0553125,-0.000840625,4.91334
2.980000e-04,-0.040625,-0.00120844,4.90365
2.990000e-04,-0.0589063,-0.00133031,4.91677
3.000000e-04,-0.0598438,-0.000947813,4.88615
3.010000e-04,-0.0559375,-0.00126063,4.89271
3.020000e-04,-0.0570313,-0.00116438,4.92584
3.030000e-04,-0.058125,-0.00149094,4.91209
3.040000e-04,-0.055,-0.00144594,4.92584
3.050000e-04,-0.0484375,-0.0010475,4.92303
3.060000e-04,-0.0457813,-0.00112688,4.91209
3.070000e-04,-0.0464062,-0.00129156,4.92615
3.080000e-04,-0.0509375,-0.00148625,4.89865
3.090000e-04,-0.0453125,-0.00110625,4.89615
3.100000e-04,-0.056875,-0.000899063,4.91803
3.110000e-04,-0.0426562,-0.00130094,4.89927
3.120000e-04,-0.0490625,-0.000978438,4.90709
3.130000e-04,-0.0465625,-0.00129344,4.88021
3.140000e-04,-0.0603125,-0.00131438,4.91521
3.150000e-04,-0.0559375,-0.00126125,4.88678
3.160000e-04,-0.0634375,-0.00143,4.88177
3.170000e-04,-0.055625,-0.00096125,4.89646
3.180000e-04,-0.049375,-0.00102594,4.88803
3.190000e-04,-0.0648438,-0.00100625,4.89053
3.200000e-04,-0.0540625,-0.00142813,4.89771
3.210000e-04,-0.0570313,-0.00123719,4.89896
3.220000e-04,-0.0514063,-0.000961563,4.89803
3.230000e-04,-0.0642188,-0.00111844,4.88021
3.240000e-04,-0.0548437,-0.00125031,4.88021
3.250000e-04,-0.046875,-0.00124688,4.90178
3.260000e-04,-0.059375,-0.00121938,4.86709
3.270000e-04,-0.0590625,-0.000884375,4.88396
3.280000e-04,-0.0490625,-0.000957813,4.89959
3.290000e-04,-0.0484375,-0.00150438,4.90302
3.300000e-04,-0.0535937,-0.0012275,4.90553
3.310000e-04,-0.0564063,-0.00103406,4.90209
3.320000e-04,-0.0614062,-0.00108094,4.89927
3.330000e-04,-0.0435938,-0.00119625,4.91365
3.340000e-04,-0.0592188,-0.0012975,4.88552
3.350000e-04,-0.0575,-0.000868125,4.92959
3.360000e-04,-0.046875,-0.00120969,4.89865
3.370000e-04,-0.0571875,-0.00121281,4.93646
3.380000e-04,-0.0589063,-0.00108781,4.92709
3.390000e-04,-0.0548437,-0.0010625,4.91584
3.400000e-04,-0.0564063,-0.00111938,4.90396
3.410000e-04,-0.0484375,-0.00121906,4.92584
3.420000e-04,-0.0539063,-0.00124125,4.92615
3.430000e-04,-0.0515625,-0.00109781,4.91584
3.440000e-04,-0.0596875,-0.000936875,4.92834
3.450000e-04,-0.0423437,-0.00146031,4.92427
3.460000e-04,-0.0495312,-0.00138594,4.9074
3.470000e-04,-0.0571875,-0.00108531,4.9074
3.480000e-04,-0.046875,-0.00123906,4.93584
3.490000e-04,-0.0573437,-0.000816875,4.90615
3.500000e-04,-0.0585938,-0.00124375,4.91959
3.510000e-04,-0.0592188,-0.00156063,4.89803
3.520000e-04,-0.0517188,-0.0011575,4.9024
3.530000e-04,-0.0484375,-0.00122344,4.90365
3.540000e-04,-0.0451563,-0.00111469,4.9224
3.550000e-04,-0.0529687,-0.00118844,4.91365
3.560000e-04,-0.0507812,-0.00138125,4.92365
3.570000e-04,-0.0545313,-0.00137188,4.90834
3.580000e-04,-0.0515625,-0.00141375,4.8824
3.590000e-04,-0.0507812,-0.00105656,4.89053
3.600000e-04,-0.0673438,-0.00120469,4.9324
3.610000e-04,-0.0509375,-0.00118375,4.89803
3.620000e-04,-0.060625,-0.00134406,4.90646
3.630000e-04,-0.0501562,-0.00146969,4.89271
3.640000e-04,-0.0403125,-0.00112656,4.89552
3.650000e-04,-0.0579687,-0.00117,4.90115
3.660000e-04,-0.053125,-0.00102594,4.9499
3.670000e-04,-0.0603125,-0.00128906,4.91896
3.680000e-04,-0.0539063,-0.00142938,4.92396
3.690000e-04,-0.0414063,-0.00106781,4.90553
3.700000e-04,-0.0645312,-0.00142344,4.91052
3.710000e-04,-0.0559375,-0.000765313,4.90053
3.720000e-04,-0.0590625,-0.00118281,4.93052
3.730000e-04,-0.0542187,-0.0014375,4.92396
3.740000e-04,-0.0598438,-0.00115813,4.92365
3.750000e-04,-0.05375,-0.00154594,4.93865
3.760000e-04,-0.0534375,-0.00118906,4.92084
3.770000e-04,-0.0526563,-0.000904688,4.9149
3.780000e-04,-0.0590625,-0.0012725,4.89927
3.790000e-04,-0.0628125,-0.000871875,4.92303
3.800000e-04,-0.0554687,-0.0012675,4.91521
3.810000e-04,-0.0473438,-0.00112875,4.89959
3.820000e-04,-0.0498438,-0.00118094,4.88459
3.830000e-04,-0.0521875,-0.0012675,4.91615
3.840000e-04,-0.0596875,-0.00120094,4.90834
3.850000e-04,-0.0548437,-0.00121656,4.88865
3.860000e-04,-0.05,-0.00132844,4.91084
3.870000e-04,-0.0664062,-0.00119781,4.89896
3.880000e-04,-0.0621875,-0.00104438,4.89677
3.890000e-04,-0.0575,-0.00103875,4.88803
3.900000e-04,-0.0440625,-0.00128188,4.87959
3.910000e-04,-0.0565625,-0.00128344,4.91584
3.920000e-04,-0.04875,-0.00123656,4.8949
3.930000e-04,-0.0617188,-0.00112406,4.87552
3.940000e-04,-0.0620312,-0.00121938,4.90053
3.950000e-04,-0.0645312,-0.00131313,4.88646
3.960000e-04,-0.05375,-0.00109125,4.92052
3.970000e-04,-0.0615625,-0.00104781,4.8999
3.980000e-04,-0.0517188,-0.00118813,4.87865
3.990000e-04,-0.0529687,-0.0012075,4.91896
4.000000e-04,-0.0457813,-0.00111656,4.90178
4.010000e-04,-0.0479688,-0.00122469,4.88678
4.020000e-04,-0.0598438,-0.00111344,4.88021
4.030000e-04,-0.0496875,-0.001335,4.89959
4.040000e-04,-0.0503125,-0.00098375,4.90865
4.050000e-04,-0.0554687,-0.00129594,4.89677
4.060000e-04,-0.0554687,-0.00115094,4.8999
4.070000e-04,-0.0460938,-0.00120344,4.91615
4.080000e-04,-0.05625,-0.00136688,4.90709
4.090000e-04,-0.0523437,-0.001015,4.91521
4.100000e-04,-0.0489062,-0.00101219,4.93365
4.110000e-04,-0.04625,-0.00125281,4.91834
4.120000e-04,-0.044375,-0.00126063,4.90928
4.130000e-04,-0.0517188,-0.00139031,4.8924
4.140000e-04,-0.0571875,-0.00111438,4.90615
4.150000e-04,-0.0659375,-0.00116438,4.93084
4.160000e-04,-0.0528125,-0.00113094,4.88177
4.170000e-04,-0.0509375,-0.00102125,4.90553
4.180000e-04,-0.0345312,-0.0013475,4.91709
4.190000e-04,-0.0489062,-0.0011875,4.91459
4.200000e-04,-0.0615625,-0.00105906,4.87959
4.210000e-04,-0.0528125,-0.00099625,4.89834
4.220000e-04,-0.0559375,-0.00100469,4.91084
4.230000e-04,-0.063125,-0.000982188,4.89084
4.240000e-04,-0.05,-0.00131094,4.89834
4.250000e-04,-0.0460938,-0.00108219,4.90803
4.260000e-04,-0.0660938,-0.00113531,4.91302
4.270000e-04,-0.0479688,-0.00111625,4.89865
4.280000e-04,-0.0476562,-0.00107344,4.90428
4.290000e-04,-0.0465625,-0.00118,4.91084
4.300000e-04,-0.0478125,-0.00112031,4.9074
4.310000e-04,-0.0584375,-0.00111875,4.9174
4.320000e-04,-0.0535937,-0.0008625,4.8949
4.330000e-04,-0.053125,-0.000937813,4.91396
4.340000e-04,-0.0609375,-0.00105625,4.88896
4.350000e-04,-0.0501562,-0.001075,4.89927
4.360000e-04,-0.0614062,-0.00112688,4.92115
4.370000e-04,-0.0496875,-0.000968125,4.92928
4.380000e-04,-0.0564063,-0.00102344,4.9124
4.390000e-04,-0.0485938,-0.00115281,4.91021
4.400000e-04,-0.050625,-0.000852188,4.91427
4.410000e-04,-0.05375,-0.00116938,4.93115
4.420000e-04,-0.050625,-0.00090875,4.90021
4.430000e-04,-0.0540625,-0.000862813,4.90396
4.440000e-04,-0.0554687,-0.00117188,4.92052
4.450000e-04,-0.0645312,-0.000780938,4.90302
4.460000e-04,-0.0604688,-0.00092,4.93802
4.470000e-04,-0.0592188,-0.000922188,4.9049
4.480000e-04,-0.06625,-0.000745313,4.88615
4.490000e-04,-0.04625,-0.0009925,4.91646
4.500000e-04,-0.0532813,-0.000842188,4.92615
4.510000e-04,-0.0651562,-0.000928438,4.92521
4.520000e-04,-0.054375,-0.00105906,4.91584
4.530000e-04,-0.0571875,-0.000854688,4.90959
4.540000e-04,-0.0576563,-0.00068,4.90615
4.550000e-04,-0.05875,-0.000882813,4.90896
4.560000e-04,-0.0632812,-0.00085625,4.91709
4.570000e-04,-0.0573437,-0.000945625,4.88678
4.580000e-04,-0.0504687,-0.000881875,4.90178
4.590000e-04,-0.0576563,-0.000998125,4.88927
4.600000e-04,-0.05,-0.000901563,4.90365
4.610000e-04,-0.0529687,-0.000730625,4.90021
4.620000e-04,-0.0523437,-0.0010375,4.88959
4.630000e-04,-0.0542187,-0.000950625,4.89115
4.640000e-04,-0.0592188,-0.000956563,4.88053
4.650000e-04,-0.0570313,-0.00120469,4.90396
4.660000e-04,-0.0467188,-0.000800313,4.89302
4.670000e-04,-0.045,-0.00101094,4.88271
4.680000e-04,-0.055,-0.00101156,4.88053
4.690000e-04,-0.0596875,-0.000948438,4.88709
4.700000e-04,-0.0465625,-0.00116563,4.90084
4.710000e-04,-0.0471875,-0.00109875,4.89865
4.720000e-04,-0.048125,-0.00109813,4.88177
4.730000e-04,-0.0521875,-0.000926563,4.87521
4.740000e-04,-0.0603125,-0.00114156,4.89521
4.750000e-04,-0.05125,-0.00116813,4.89084
4.760000e-04,1.37125,0.00137625,4.9149
4.770000e-04,-1.615,0.00747531,4.90865
4.780000e-04,2.18156,-0.008635,4.87771
4.790000e-04,-2.58328,-0.0126013,4.90084
4.800000e-04,2.20797,-0.0126013,4.89959
4.810000e-04,-2.10641,-0.0126013,4.87428
4.820000e-04,2.13906,-0.0126013,4.89834
4.830000e-04,-2.31,-0.0126013,4.89896
4.840000e-04,2.35141,-0.0126013,4.9074
4.850000e-04,-2.44172,-0.0126013,4.87771
4.860000e-04,2.40578,-0.0126013,4.90146
4.870000e-04,-2.49172,-0.0126013,4.89646
4.880000e-04,2.51297,-0.0126013,4.90709
4.890000e-04,-2.48062,-0.0126013,4.90771
4.900000e-04,2.49734,-0.0126013,4.91146
4.910000e-04,-2.54656,-0.0125978,4.9024
4.920000e-04,2.51625,-0.0124569,4.90396
4.930000e-04,-2.51438,-0.0121784,4.91427
4.940000e-04,2.36922,-0.0120378,4.91084
4.950000e-04,-2.25828,-0.0117291,4.87896
4.960000e-04,2.09234,-0.0115406,4.91115
4.970000e-04,-1.37922,-0.01216,4.88584
4.980000e-04,0.424531,-0.0113581,4.90521
4.990000e-04,-0.0440625,-0.011195,4.90459
5.000000e-04,-0.0053125,-0.011195,4.90615
5.010000e-04,0.0328125,-0.011195,4.91021
5.020000e-04,0.0271875,-0.0111947,4.93771
5.030000e-04,0.0628125,-0.0111947,4.89615
5.040000e-04,0.0671875,-0.0111953,4.92021
5.050000e-04,0.0748438,-0.0114541,4.9224
5.060000e-04,0.0848437,-0.011195,4.91928
5.070000e-04,0.08375,-0.0111253,4.90178
5.080000e-04,0.075625,-0.0109938,4.91896
5.090000e-04,0.0726562,-0.00671563,4.9049
5.100000e-04,0.096875,0.0076075,4.93459
5.110000e-04,0.0895312,0.00321406,4.89615
5.120000e-04,0.0946875,-0.0118563,4.89365
5.130000e-04,0.0885937,-0.0112884,4.89896
5.140000e-04,0.105625,-0.0111238,4.92084
5.150000e-04,0.0935938,-0.0109938,4.91771
5.160000e-04,0.0990625,-0.0109944,4.90771
5.170000e-04,0.108125,-0.0109947,4.91021
5.180000e-04,0.09,-0.0109938,4.8999
5.190000e-04,0.0810937,-0.0109941,4.91271
5.200000e-04,0.0948438,-0.0109944,4.91365
5.210000e-04,0.081875,-0.0109934,4.90677
5.220000e-04,0.0929688,-0.0109938,4.89646
5.230000e-04,0.0753125,-0.0109938,4.8924
5.240000e-04,0.0892187,-0.0109788,4.89709
5.250000e-04,0.0921875,-0.0109344,4.90959
5.260000e-04,0.0885937,-0.0108806,4.92459
5.270000e-04,0.0767188,-0.0107916,4.92521
5.280000e-04,0.0734375,-0.0105628,4.88896
5.290000e-04,0.0657812,-0.009255,4.9024
5.300000e-04,0.0895312,-0.00781094,4.89959
5.310000e-04,0.07875,-0.00579531,4.90271
5.320000e-04,0.0639062,-0.00359156,4.90459
5.330000e-04,0.075625,-0.00148469,4.9099
5.340000e-04,0.0729687,0.000701562,4.89146
5.350000e-04,0.0632812,0.0017225,4.89709
5.360000e-04,0.0742188,0.00280875,4.88177
5.370000e-04,0.0707813,0.00370688,4.90115
5.380000e-04,0.068125,0.00417406,4.88709
5.390000e-04,0.0767188,0.00450906,4.88803
5.400000e-04,0.07875,0.00492688,4.89865
5.410000e-04,0.07125,0.00480938,4.87896
5.420000e-04,0.0726562,0.00479094,4.8799
5.430000e-04,0.0535937,0.00463313,4.88521
5.440000e-04,0.0571875,0.004415,4.87209
5.450000e-04,0.0789062,0.00394844,4.88334
5.460000e-04,0.0615625,0.00293812,4.88771
5.470000e-04,0.0771875,0.00149563,4.88927
5.480000e-04,0.0642187,-6.1875e-05,4.89365
5.490000e-04,0.0809375,-0.00140313,4.87959
5.500000e-04,0.0628125,-0.0030325,4.90709
5.510000e-04,0.0492187,-0.00521531,4.88865
5.520000e-04,0.0564062,-0.00702781,4.89803
5.530000e-04,0.0615625,-0.00905062,4.88146
5.540000e-04,0.0654687,-0.0106525,4.89896
5.550000e-04,0.0698437,-0.0110937,4.89771
5.560000e-04,0.069375,-0.0111334,4.88302
5.570000e-04,0.061875,-0.0111737,4.87865
5.580000e-04,0.0553125,-0.0112172,4.9149
5.590000e-04,0.0557813,-0.0112397,4.90896
5.600000e-04,0.0490625,-0.0112997,4.92178
5.610000e-04,0.0682813,-0.0113203,4.90834
5.620000e-04,0.0585938,-0.0113378,4.89896
5.630000e-04,0.049375,-0.0113609,4.92584
5.640000e-04,0.0396875,-0.0113747,4.91615
5.650000e-04,0.0589062,-0.011405,4.90959
5.660000e-04,0.0445312,-0.0114281,4.91646
5.670000e-04,0.0454688,-0.0114484,4.92928
5.680000e-04,0.0535937,-0.0114572,4.90271
5.690000e-04,0.0421875,-0.0114597,4.90896
5.700000e-04,0.034375,-0.0114869,4.90271
5.710000e-04,0.0407813,-0.0114953,4.90959
5.720000e-04,0.0528125,-0.0115047,4.90928
5.730000e-04,0.0420313,-0.0115137,4.9249
5.740000e-04,0.05625,-0.0115347,4.89459
5.750000e-04,0.0457812,-0.0115547,4.89834
5.760000e-04,0.0459375,-0.011555,4.90896
