nmr/data/tek0016.csv

Model,MDO4054-3
Firmware Version,2.20

Waveform Type,ANALOG,
Point Format,Y,
Horizontal Units,s,
Horizontal Scale,0.01,
Horizontal Delay,0.03977,
Sample Interval,1e-05,
Record Length,10000,
Gating,0.0% to 100.0%,
Probe Attenuation,1,
Vertical Units,V,
Vertical Offset,0,
Vertical Scale,1,
Vertical Position,0.02,
,,
,,
,,
Label,,
TIME,CH1,CH2
-1.0230e-02,-0.0579687,0.000160938
-1.0220e-02,-0.0528125,4.0625e-06
-1.0210e-02,-0.0548437,-0.0001975
-1.0200e-02,-0.0685937,-0.00040125
-1.0190e-02,-0.0670313,0.000163438
-1.0180e-02,-0.055,1.5e-05
-1.0170e-02,-0.0615625,-0.000310313
-1.0160e-02,-0.0509375,-2.5e-05
-1.0150e-02,-0.063125,0.000116563
-1.0140e-02,-0.0484375,-0.000500625
-1.0130e-02,-0.055,-0.000920625
-1.0120e-02,-0.0554687,0.000418438
-1.0110e-02,-0.0523437,-0.000415938
-1.0100e-02,-0.0639062,0.000529063
-1.0090e-02,-0.0470312,9.84375e-05
-1.0080e-02,-0.0535937,2e-05
-1.0070e-02,-0.049375,0.000373125
-1.0060e-02,-0.0526563,0.000549375
-1.0050e-02,-0.0465625,-0.00047375
-1.0040e-02,-0.0565625,4e-05
-1.0030e-02,-0.0517188,0.000379063
-1.0020e-02,-0.0576563,0.0002125
-1.0010e-02,-0.0534375,-0.000805625
-1.0000e-02,-0.0435938,-0.000255
-9.9900e-03,-0.0529687,-0.000121563
-9.9800e-03,-0.0517188,-0.000231875
-9.9700e-03,-0.0589063,0.000467188
-9.9600e-03,-0.0465625,0.000226875
-9.9500e-03,-0.056875,7.03125e-05
-9.9400e-03,-0.0598438,-0.000321875
-9.9300e-03,-0.0521875,0.000215938
-9.9200e-03,-0.0553125,0.000118125
-9.9100e-03,-0.04875,-0.0002325
-9.9000e-03,-0.046875,0.000122188
-9.8900e-03,-0.0525,-0.000643438
-9.8800e-03,-0.06125,-0.00038
-9.8700e-03,-0.049375,-0.000652813
-9.8600e-03,-0.0545313,-0.000265625
-9.8500e-03,-0.0490625,-0.000279375
-9.8400e-03,-0.0525,-0.000278125
-9.8300e-03,-0.0476562,-0.000318438
-9.8200e-03,-0.046875,5.1875e-05
-9.8100e-03,-0.061875,-0.000620313
-9.8000e-03,-0.050625,-0.000194688
-9.7900e-03,-0.0465625,-7.03125e-05
-9.7800e-03,-0.055625,-0.0004425
-9.7700e-03,-0.0465625,0.000170313
-9.7600e-03,-0.0460938,-0.0005775
-9.7500e-03,-0.0570313,0.000130625
-9.7400e-03,-0.0617188,0.000399063
-9.7300e-03,-0.0610938,0.000579063
-9.7200e-03,-0.0526563,0.0002975
-9.7100e-03,-0.0545313,0.000424375
-9.7000e-03,-0.0410937,2.34375e-05
-9.6900e-03,-0.0515625,-0.000246875
-9.6800e-03,-0.0545313,0.000222813
-9.6700e-03,-0.0576563,-0.0005475
-9.6600e-03,-0.0501562,-0.000109063
-9.6500e-03,-0.055,-0.000126563
-9.6400e-03,-0.0571875,-0.00029875
-9.6300e-03,-0.05625,-0.0002675
-9.6200e-03,-0.0479688,0.00042
-9.6100e-03,-0.053125,0.000480625
-9.6000e-03,-0.0489062,0.00051875
-9.5900e-03,-0.0576563,-0.000796563
-9.5800e-03,-0.0628125,-0.000296563
-9.5700e-03,-0.0554687,-0.000738438
-9.5600e-03,-0.0564063,-0.00080375
-9.5500e-03,-0.073125,-0.0005675
-9.5400e-03,-0.0523437,-0.000140938
-9.5300e-03,-0.04,-0.00011875
-9.5200e-03,-0.0398437,0.000374063
-9.5100e-03,-0.0635938,0.0003525
-9.5000e-03,-0.0529687,0.000159375
-9.4900e-03,-0.0540625,-0.00038
-9.4800e-03,-0.0425,-9.875e-05
-9.4700e-03,-0.0579687,-2.1875e-05
-9.4600e-03,-0.0567187,-0.000253125
-9.4500e-03,-0.0584375,2.5e-06
-9.4400e-03,-0.05375,-0.000189063
-9.4300e-03,-0.0539063,-0.000114063
-9.4200e-03,-0.0682813,-0.00020375
-9.4100e-03,-0.0517188,-0.000314688
-9.4000e-03,-0.051875,-0.000167813
-9.3900e-03,-0.0514063,-0.000256563
-9.3800e-03,-0.0564063,0.00033125
-9.3700e-03,-0.064375,0.000147188
-9.3600e-03,-0.0576563,-0.000345625
-9.3500e-03,-0.0510938,-0.000124688
-9.3400e-03,-0.05125,-0.000149375
-9.3300e-03,-0.0576563,-0.000463125
-9.3200e-03,-0.06,0.000129688
-9.3100e-03,-0.0582813,0.000375625
-9.3000e-03,-0.0673438,3.125e-05
-9.2900e-03,-0.0596875,-0.000119688
-9.2800e-03,-0.053125,-0.000155
-9.2700e-03,-0.0603125,-0.000145938
-9.2600e-03,-0.0578125,0.0002
-9.2500e-03,-0.05375,0.000146875
-9.2400e-03,-0.059375,0.00031375
-9.2300e-03,-0.0548437,-0.000403438
-9.2200e-03,-0.051875,0.00032625
-9.2100e-03,-0.0634375,-0.000208125
-9.2000e-03,-0.0590625,8.3125e-05
-9.1900e-03,-0.0473438,0.000352813
-9.1800e-03,-0.0473438,3.3125e-05
-9.1700e-03,-0.055625,-0.0001875
-9.1600e-03,-0.0582813,0.00011125
-9.1500e-03,-0.05625,-0.00018375
-9.1400e-03,-0.0592188,-0.000122188
-9.1300e-03,-0.059375,0.000425625
-9.1200e-03,-0.045,0.000374375
-9.1100e-03,-0.0751563,-0.000112813
-9.1000e-03,-0.059375,-2.8125e-06
-9.0900e-03,-0.05625,0.00024875
-9.0800e-03,-0.044375,0.00046875
-9.0700e-03,-0.0559375,0.000280313
-9.0600e-03,-0.0648438,-7.3125e-05
-9.0500e-03,-0.0535937,-0.000310625
-9.0400e-03,-0.0671875,0.000134688
-9.0300e-03,-0.06,-4.71875e-05
-9.0200e-03,-0.0635938,-0.000737188
-9.0100e-03,-0.0425,-4.96875e-05
-9.0000e-03,-0.06875,-4.5625e-05
-8.9900e-03,-0.0646875,0.000217188
-8.9800e-03,-0.0534375,-0.000987812
-8.9700e-03,-0.0470312,-9.46875e-05
-8.9600e-03,-0.0535937,-0.00037375
-8.9500e-03,-0.0520313,-0.000162813
-8.9400e-03,-0.0528125,-0.00030125
-8.9300e-03,-0.0553125,-0.000155938
-8.9200e-03,-0.0578125,-0.000525313
-8.9100e-03,-0.054375,-0.00047875
-8.9000e-03,-0.0523437,-0.000461875
-8.8900e-03,-0.049375,-0.000113125
-8.8800e-03,-0.0607812,-9.125e-05
-8.8700e-03,-0.053125,-0.000525
-8.8600e-03,-0.05125,-0.000312813
-8.8500e-03,-0.053125,-0.000582812
-8.8400e-03,-0.0446875,-0.000512188
-8.8300e-03,-0.050625,-0.000386563
-8.8200e-03,-0.054375,0.0002775
-8.8100e-03,-0.0479688,0.000289688
-8.8000e-03,-0.0578125,0.000210313
-8.7900e-03,-0.06,-0.000235313
-8.7800e-03,-0.0503125,-2.25e-05
-8.7700e-03,-0.065625,-8.34375e-05
-8.7600e-03,-0.060625,0.000184688
-8.7500e-03,-0.0523437,6.9375e-05
-8.7400e-03,-0.0542187,4.6875e-05
-8.7300e-03,-0.05125,-2.5625e-05
-8.7200e-03,-0.0521875,0.000240313
-8.7100e-03,-0.0617188,-1.875e-05
-8.7000e-03,-0.0640625,-6.59375e-05
-8.6900e-03,-0.0598438,0.000681875
-8.6800e-03,-0.035625,0.000372188
-8.6700e-03,-0.0451563,-9.6875e-06
-8.6600e-03,-0.0554687,0.000412813
-8.6500e-03,-0.0370313,0.00059375
-8.6400e-03,-0.05,-8.375e-05
-8.6300e-03,-0.05625,0.00049375
-8.6200e-03,-0.056875,0.000113438
-8.6100e-03,-0.044375,0.000277813
-8.6000e-03,-0.05125,-0.000435625
-8.5900e-03,-0.0696875,5.3125e-06
-8.5800e-03,-0.05625,0.000582812
-8.5700e-03,-0.066875,0.000134063
-8.5600e-03,-0.0454688,0.00025875
-8.5500e-03,-0.0460938,-0.000112188
-8.5400e-03,-0.0595313,-0.000202813
-8.5300e-03,-0.0473438,-0.0002375
-8.5200e-03,-0.0557813,0.000109063
-8.5100e-03,-0.0459375,0.000669375
-8.5000e-03,-0.0582813,0.000132813
-8.4900e-03,-0.0490625,-0.000210625
-8.4800e-03,-0.0485938,3.3125e-05
-8.4700e-03,-0.0564063,-0.000316875
-8.4600e-03,-0.06375,-0.000258438
-8.4500e-03,-0.0542187,0.000122188
-8.4400e-03,-0.0545313,-0.000119063
-8.4300e-03,-0.0540625,-0.00036625
-8.4200e-03,-0.051875,-0.000155625
-8.4100e-03,-0.049375,-0.000581875
-8.4000e-03,-0.050625,3.34375e-05
-8.3900e-03,-0.0579687,-0.000100625
-8.3800e-03,-0.055625,-0.000158125
-8.3700e-03,-0.05375,0.000455313
-8.3600e-03,-0.0575,-0.000422188
-8.3500e-03,-0.0534375,0.000320625
-8.3400e-03,-0.0545313,-0.000109063
-8.3300e-03,-0.0539063,0.00010375
-8.3200e-03,-0.0517188,-0.000475
-8.3100e-03,-0.0635938,0.000505
-8.3000e-03,-0.049375,-7.5625e-05
-8.2900e-03,-0.0496875,3.15625e-05
-8.2800e-03,-0.0659375,-0.000955625
-8.2700e-03,-0.0626562,-0.000289688
-8.2600e-03,-0.06125,-0.000303438
-8.2500e-03,-0.0379688,-6.875e-05
-8.2400e-03,-0.0570313,-0.000266563
-8.2300e-03,-0.055,-0.000110313
-8.2200e-03,-0.0554687,0.000111875
-8.2100e-03,-0.0503125,0.00048625
-8.2000e-03,-0.0467188,0.00062375
-8.1900e-03,-0.0546875,0.000184688
-8.1800e-03,-0.0489062,0.000274688
-8.1700e-03,-0.0651562,-0.000264688
-8.1600e-03,-0.0539063,-0.0002875
-8.1500e-03,-0.05375,-0.000129062
-8.1400e-03,-0.0475,-8.96875e-05
-8.1300e-03,-0.0596875,0.000296563
-8.1200e-03,-0.0454688,-4.375e-06
-8.1100e-03,-0.05,0.000693125
-8.1000e-03,-0.05,-0.000289375
-8.0900e-03,-0.04625,0.000145313
-8.0800e-03,-0.0559375,0.000139062
-8.0700e-03,-0.053125,0.000493438
-8.0600e-03,-0.04875,0.00050625
-8.0500e-03,-0.0584375,0.000436563
-8.0400e-03,-0.05625,5.15625e-05
-8.0300e-03,-0.059375,0.000373438
-8.0200e-03,-0.0579687,0.000175313
-8.0100e-03,-0.0653125,-5.625e-06
-8.0000e-03,-0.0621875,0.000503125
-7.9900e-03,-0.0442188,-0.000248438
-7.9800e-03,-0.0407813,-0.000285938
-7.9700e-03,-0.0596875,-0.000353438
-7.9600e-03,-0.0521875,-0.000283125
-7.9500e-03,-0.0459375,5.34375e-05
-7.9400e-03,-0.058125,-0.000255313
-7.9300e-03,-0.0614062,-0.00040125
-7.9200e-03,-0.0517188,0.000580625
-7.9100e-03,-0.0432813,0.000557813
-7.9000e-03,-0.0507812,-0.000145
-7.8900e-03,-0.0546875,-0.000175938
-7.8800e-03,-0.0509375,0.000252812
-7.8700e-03,-0.05875,-5.5e-05
-7.8600e-03,-0.055625,8.4375e-06
-7.8500e-03,-0.0453125,-0.000466875
-7.8400e-03,-0.0467188,-0.00014625
-7.8300e-03,-0.0507812,-0.000147813
-7.8200e-03,-0.0534375,-0.00047375
-7.8100e-03,-0.053125,0.000210313
-7.8000e-03,-0.0465625,-0.000293125
-7.7900e-03,-0.0620312,-0.000175313
-7.7800e-03,-0.0590625,-4.6875e-06
-7.7700e-03,-0.054375,0.000214063
-7.7600e-03,-0.0439063,0.000303125
-7.7500e-03,-0.0628125,-0.000136563
-7.7400e-03,-0.0473438,0.00030375
-7.7300e-03,-0.0473438,0.000385938
-7.7200e-03,-0.050625,-0.000462813
-7.7100e-03,-0.0501562,-0.00021375
-7.7000e-03,-0.0578125,0.000483125
-7.6900e-03,-0.06,0.000281875
-7.6800e-03,-0.0584375,-0.000113125
-7.6700e-03,-0.0573437,0.0003725
-7.6600e-03,-0.0432813,0.000365
-7.6500e-03,-0.0610938,0.00043875
-7.6400e-03,-0.0575,0.000324688
-7.6300e-03,-0.055625,0.000235
-7.6200e-03,-0.0540625,-7.46875e-05
-7.6100e-03,-0.0564063,-3.03125e-05
-7.6000e-03,-0.0442188,-5.59375e-05
-7.5900e-03,-0.044375,-0.000351563
-7.5800e-03,-0.0528125,-7.625e-05
-7.5700e-03,-0.0617188,-0.000275
-7.5600e-03,-0.0489062,-4.6875e-06
-7.5500e-03,-0.0576563,-7.125e-05
-7.5400e-03,-0.0598438,-0.000384375
-7.5300e-03,-0.0529687,-0.00071125
-7.5200e-03,-0.0575,-0.00024125
-7.5100e-03,-0.0582813,0.0001975
-7.5000e-03,-0.0540625,-3.6875e-05
-7.4900e-03,-0.060625,-0.000327813
-7.4800e-03,-0.0520313,0.000126875
-7.4700e-03,-0.0635938,0.000752813
-7.4600e-03,-0.0534375,1.09375e-05
-7.4500e-03,-0.054375,-7.625e-05
-7.4400e-03,-0.058125,0.00055
-7.4300e-03,-0.0721875,0.000115313
-7.4200e-03,-0.0575,-0.000115625
-7.4100e-03,-0.0590625,0.000123125
-7.4000e-03,-0.0604688,-0.000275938
-7.3900e-03,-0.056875,-0.000149063
-7.3800e-03,-0.0623438,0.00032875
-7.3700e-03,-0.0626562,-0.000504375
-7.3600e-03,-0.0489062,-0.0004325
-7.3500e-03,-0.064375,-0.000630313
-7.3400e-03,-0.0482812,-4.15625e-05
-7.3300e-03,-0.0548437,0.000394375
-7.3200e-03,-0.0459375,0.000227813
-7.3100e-03,-0.0614062,-0.000592813
-7.3000e-03,-0.055,-0.00103531
-7.2900e-03,-0.0475,0.0002825
-7.2800e-03,-0.0504687,0.000235
-7.2700e-03,-0.0520313,0.000567188
-7.2600e-03,-0.0592188,-0.000164688
-7.2500e-03,-0.0564063,0.000174375
-7.2400e-03,-0.0504687,-0.000345
-7.2300e-03,-0.0576563,4.5625e-05
-7.2200e-03,-0.0592188,-0.000394063
-7.2100e-03,-0.0560937,1.53125e-05
-7.2000e-03,-0.061875,0
-7.1900e-03,-0.0610938,-9.75e-05
-7.1800e-03,-0.0548437,5.625e-06
-7.1700e-03,-0.0546875,0.000362813
-7.1600e-03,-0.0625,0.00065375
-7.1500e-03,-0.064375,1.78125e-05
-7.1400e-03,-0.0507812,-4.78125e-05
-7.1300e-03,-0.058125,0.000179063
-7.1200e-03,-0.0492188,-0.0003975
-7.1100e-03,-0.054375,-0.000874375
-7.1000e-03,-0.0542187,0.000169688
-7.0900e-03,-0.0540625,0.000365
-7.0800e-03,-0.0564063,-0.000195625
-7.0700e-03,-0.0678125,-0.000198125
-7.0600e-03,-0.05625,0.000143125
-7.0500e-03,-0.0576563,-1.65625e-05
-7.0400e-03,-0.06,-0.000248125
-7.0300e-03,-0.0592188,0.0002175
-7.0200e-03,-0.0517188,7.65625e-05
-7.0100e-03,-0.045,0.000246875
-7.0000e-03,-0.045625,0.000334375
-6.9900e-03,-0.0426562,0.00017
-6.9800e-03,-0.0465625,-0.00024625
-6.9700e-03,-0.0557813,3.15625e-05
-6.9600e-03,-0.0545313,-0.000135
-6.9500e-03,-0.0484375,0.000147813
-6.9400e-03,-0.0514063,-0.0002625
-6.9300e-03,-0.0517188,-0.000167188
-6.9200e-03,-0.0403125,0.000135313
-6.9100e-03,-0.0485938,-7.5625e-05
-6.9000e-03,-0.0496875,0.000147188
-6.8900e-03,-0.065,-0.000747188
-6.8800e-03,-0.0496875,-0.000394375
-6.8700e-03,-0.0475,-0.000268438
-6.8600e-03,-0.054375,0.000421875
-6.8500e-03,-0.0598438,-0.00017625
-6.8400e-03,-0.0610938,-0.0002425
-6.8300e-03,-0.071875,-5.90625e-05
-6.8200e-03,-0.0514063,-6.375e-05
-6.8100e-03,-0.059375,0.000101563
-6.8000e-03,-0.0535937,0.00042875
-6.7900e-03,-0.0529687,0.000384688
-6.7800e-03,-0.0585938,0.000162188
-6.7700e-03,-0.0596875,-0.0003675
-6.7600e-03,-0.0517188,-0.0001375
-6.7500e-03,-0.0571875,0.00018
-6.7400e-03,-0.0578125,0.000220313
-6.7300e-03,-0.0548437,-0.000376875
-6.7200e-03,-0.0553125,0.000284375
-6.7100e-03,-0.0676563,-0.0005825
-6.7000e-03,-0.0457813,0.0001775
-6.6900e-03,-0.0579687,-0.000124063
-6.6800e-03,-0.0528125,-0.000279063
-6.6700e-03,-0.0551563,-6.25e-06
-6.6600e-03,-0.05625,-5.59375e-05
-6.6500e-03,-0.0539063,-0.000169063
-6.6400e-03,-0.0465625,-0.000684063
-6.6300e-03,-0.04875,-0.000905
-6.6200e-03,-0.0420312,-0.000554688
-6.6100e-03,-0.0507812,-0.000362188
-6.6000e-03,-0.0546875,-0.000863438
-6.5900e-03,-0.0571875,-0.000387188
-6.5800e-03,-0.044375,0.00012375
-6.5700e-03,-0.0540625,0.000126563
-6.5600e-03,-0.0576563,-0.000190313
-6.5500e-03,-0.0579687,-0.000272812
-6.5400e-03,-0.0510938,-0.000410625
-6.5300e-03,-0.0471875,0.000303125
-6.5200e-03,-0.0470312,-0.000161563
-6.5100e-03,-0.0476562,-0.000186563
-6.5000e-03,-0.0565625,-4.5625e-05
-6.4900e-03,-0.0607812,-0.000872813
-6.4800e-03,-0.05125,-0.000550313
-6.4700e-03,-0.0573437,7.90625e-05
-6.4600e-03,-0.0435938,-0.00067875
-6.4500e-03,-0.0559375,9.21875e-05
-6.4400e-03,-0.053125,-0.000323125
-6.4300e-03,-0.0548437,7.5e-05
-6.4200e-03,-0.069375,-0.00057625
-6.4100e-03,-0.054375,-5e-05
-6.4000e-03,-0.0523437,1.09375e-05
-6.3900e-03,-0.0592188,-0.000543438
-6.3800e-03,-0.0573437,-0.0003425
-6.3700e-03,-0.0592188,-0.000494688
-6.3600e-03,-0.0440625,1.65625e-05
-6.3500e-03,-0.0460938,7.96875e-05
-6.3400e-03,-0.0573437,0.000261875
-6.3300e-03,-0.068125,2.34375e-05
-6.3200e-03,-0.06,-0.000487188
-6.3100e-03,-0.0560937,0.000305625
-6.3000e-03,-0.0473438,0.000395625
-6.2900e-03,-0.0446875,-0.000149687
-6.2800e-03,-0.0584375,0.000477188
-6.2700e-03,-0.04875,4.46875e-05
-6.2600e-03,-0.0582813,0.000352188
-6.2500e-03,-0.06125,-0.000304687
-6.2400e-03,-0.0607812,-3.125e-05
-6.2300e-03,-0.0626562,0.000116875
-6.2200e-03,-0.044375,-0.000256563
-6.2100e-03,-0.051875,-0.000112188
-6.2000e-03,-0.0579687,0.000294062
-6.1900e-03,-0.061875,8.15625e-05
-6.1800e-03,-0.0601562,0.000138438
-6.1700e-03,-0.0539063,0.00034375
-6.1600e-03,-0.0590625,-0.000283437
-6.1500e-03,-0.0523437,0.000234063
-6.1400e-03,-0.0570313,0.000338438
-6.1300e-03,-0.05625,0.000345625
-6.1200e-03,-0.0585938,0.00018125
-6.1100e-03,-0.0490625,-0.000311875
-6.1000e-03,-0.0404687,-7.6875e-05
-6.0900e-03,-0.0557813,4.3125e-05
-6.0800e-03,-0.0482812,-0.000324375
-6.0700e-03,-0.0520313,-0.000382813
-6.0600e-03,-0.0589063,-0.00065375
-6.0500e-03,-0.0617188,-0.000781875
-6.0400e-03,-0.0395313,-0.00046
-6.0300e-03,-0.0446875,-0.000716563
-6.0200e-03,-0.0626562,-0.00084625
-6.0100e-03,-0.0596875,-0.0002075
-6.0000e-03,-0.0539063,-0.000399063
-5.9900e-03,-0.0492188,-0.000385
-5.9800e-03,-0.0520313,-0.000544688
-5.9700e-03,-0.0467188,3e-05
-5.9600e-03,-0.0521875,-9.46875e-05
-5.9500e-03,-0.0678125,7.21875e-05
-5.9400e-03,-0.0542187,0.000322813
-5.9300e-03,-0.056875,-0.000146875
-5.9200e-03,-0.0542187,0.000432813
-5.9100e-03,-0.0521875,-9.375e-06
-5.9000e-03,-0.0603125,0.000426875
-5.8900e-03,-0.0579687,-0.000246563
-5.8800e-03,-0.0395313,-0.000190625
-5.8700e-03,-0.053125,0.00040375
-5.8600e-03,-0.0548437,-0.000182813
-5.8500e-03,-0.0515625,-7.0625e-05
-5.8400e-03,-0.048125,0.000509063
-5.8300e-03,-0.066875,-6.25e-06
-5.8200e-03,-0.0501562,-0.000345
-5.8100e-03,-0.0495312,-0.000266563
-5.8000e-03,-0.055625,-0.000127188
-5.7900e-03,-0.0451563,0.000120938
-5.7800e-03,-0.05875,8.4375e-06
-5.7700e-03,-0.0504687,-0.000458125
-5.7600e-03,-0.0598438,0.000455313
-5.7500e-03,-0.056875,-0.000179063
-5.7400e-03,-0.0567187,-0.0002525
-5.7300e-03,-0.0553125,-0.000435313
-5.7200e-03,-0.0607812,-3.96875e-05
-5.7100e-03,-0.0540625,5.5e-05
-5.7000e-03,-0.0514063,0.000190313
-5.6900e-03,-0.0607812,-0.000233125
-5.6800e-03,-0.0484375,-2e-05
-5.6700e-03,-0.0570313,-0.00028625
-5.6600e-03,-0.0595313,-0.000815938
-5.6500e-03,-0.0657812,0.0006675
-5.6400e-03,-0.04375,0.00042625
-5.6300e-03,-0.0584375,0.00040875
-5.6200e-03,-0.0635938,-9.15625e-05
-5.6100e-03,-0.0520313,0.000139688
-5.6000e-03,-0.0542187,0.000330938
-5.5900e-03,-0.0553125,-0.000210313
-5.5800e-03,-0.0570313,7.40625e-05
-5.5700e-03,-0.0553125,-0.000168438
-5.5600e-03,-0.0509375,0.0005
-5.5500e-03,-0.0579687,-3.15625e-05
-5.5400e-03,-0.0573437,0.000260625
-5.5300e-03,-0.0560937,0.000189063
-5.5200e-03,-0.0534375,-0.000166875
-5.5100e-03,-0.0501562,-7.125e-05
-5.5000e-03,-0.0482812,-0.00022375
-5.4900e-03,-0.055,-2.28125e-05
-5.4800e-03,-0.0451563,0.000515
-5.4700e-03,-0.0604688,-0.000424375
-5.4600e-03,-0.0403125,0.00024
-5.4500e-03,-0.0490625,0.000268438
-5.4400e-03,-0.0515625,0.000644688
-5.4300e-03,-0.05125,-0.000290625
-5.4200e-03,-0.054375,0.000165
-5.4100e-03,-0.0575,0.000501875
-5.4000e-03,-0.0554687,-6.59375e-05
-5.3900e-03,-0.0454688,-0.000653125
-5.3800e-03,-0.051875,-0.000112813
-5.3700e-03,-0.0554687,-0.00045625
-5.3600e-03,-0.0484375,-0.000277813
-5.3500e-03,-0.0492188,-0.000143438
-5.3400e-03,-0.05625,-0.000200625
-5.3300e-03,-0.0628125,-0.000130625
-5.3200e-03,-0.0578125,-0.000505625
-5.3100e-03,-0.0573437,-0.000394375
-5.3000e-03,-0.055625,-0.000525625
-5.2900e-03,-0.0517188,-4.9375e-05
-5.2800e-03,-0.0559375,-0.00042
-5.2700e-03,-0.050625,0.000491563
-5.2600e-03,-0.061875,6.25e-05
-5.2500e-03,-0.0560937,-0.00033875
-5.2400e-03,-0.045,-0.000516563
-5.2300e-03,-0.058125,-0.000154375
-5.2200e-03,-0.051875,0.000213125
-5.2100e-03,-0.0642188,-0.000169375
-5.2000e-03,-0.0489062,-0.000524688
-5.1900e-03,-0.0560937,-0.000313438
-5.1800e-03,-0.0495312,-0.000172813
-5.1700e-03,-0.0617188,-0.000329375
-5.1600e-03,-0.04875,-0.000250625
-5.1500e-03,-0.0548437,-0.000165625
-5.1400e-03,-0.0475,-0.000125
-5.1300e-03,-0.05625,0.00023375
-5.1200e-03,-0.0534375,-0.000415313
-5.1100e-03,-0.044375,-8.34375e-05
-5.1000e-03,-0.0514063,9.375e-07
-5.0900e-03,-0.0432813,-0.000255313
-5.0800e-03,-0.053125,0.000106563
-5.0700e-03,-0.0629688,0.00108969
-5.0600e-03,-0.0475,-6.59375e-05
-5.0500e-03,-0.0548437,0.0002675
-5.0400e-03,-0.04875,-7.3125e-05
-5.0300e-03,-0.06125,-0.00026625
-5.0200e-03,-0.053125,-0.000108438
-5.0100e-03,-0.05625,-0.000189063
-5.0000e-03,-0.0507812,-0.00038625
-4.9900e-03,-0.055625,0.000165
-4.9800e-03,-0.0573437,0.0002125
-4.9700e-03,-0.05,3.125e-06
-4.9600e-03,-0.0521875,-0.000406875
-4.9500e-03,-0.0529687,6.3125e-05
-4.9400e-03,-0.05,-0.000259063
-4.9300e-03,-0.0557813,0.000125
-4.9200e-03,-0.054375,-0.000279375
-4.9100e-03,-0.0489062,2.5e-05
-4.9000e-03,-0.0596875,-0.000373438
-4.8900e-03,-0.0375,-0.000124688
-4.8800e-03,-0.0628125,-0.0001125
-4.8700e-03,-0.0492188,-7.03125e-05
-4.8600e-03,-0.0575,-0.000217813
-4.8500e-03,-0.0582813,0.000322188
-4.8400e-03,-0.0479688,0.000124688
-4.8300e-03,-0.0507812,-0.000546875
-4.8200e-03,-0.0507812,5e-06
-4.8100e-03,-0.0559375,2.625e-05
-4.8000e-03,-0.0515625,3.5625e-05
-4.7900e-03,-0.056875,-0.000801563
-4.7800e-03,-0.0575,7.8125e-06
-4.7700e-03,-0.0440625,0.000179688
-4.7600e-03,-0.0596875,0.000136563
-4.7500e-03,-0.0601562,-0.000508437
-4.7400e-03,-0.0559375,-4.71875e-05
-4.7300e-03,-0.0489062,-0.000202813
-4.7200e-03,-0.0514063,-0.000374375
-4.7100e-03,-0.0596875,-0.000827188
-4.7000e-03,-0.053125,-0.00056625
-4.6900e-03,-0.0542187,6.53125e-05
-4.6800e-03,-0.0590625,8.1875e-05
-4.6700e-03,-0.0567187,3.4375e-05
-4.6600e-03,-0.0595313,0.0002925
-4.6500e-03,-0.0576563,0.00054125
-4.6400e-03,-0.0464062,0.000254063
-4.6300e-03,-0.0490625,-2.0625e-05
-4.6200e-03,-0.0464062,0.000611875
-4.6100e-03,-0.0375,-5.3125e-05
-4.6000e-03,-0.0645312,-0.000206563
-4.5900e-03,-0.0589063,-0.000314688
-4.5800e-03,-0.0485938,-0.000289063
-4.5700e-03,-0.05625,0.000563125
-4.5600e-03,-0.0546875,0.000407188
-4.5500e-03,-0.0592188,0.000229375
-4.5400e-03,-0.0467188,-5.875e-05
-4.5300e-03,-0.0520313,7.1875e-06
-4.5200e-03,-0.04875,0.000650313
-4.5100e-03,-0.061875,0.000294688
