nmr/data/tek0021.csv

Model,MDO4054-3
Firmware Version,2.20

Waveform Type,ANALOG,
Point Format,Y,
Horizontal Units,s,
Horizontal Scale,0.01,
Horizontal Delay,0.03977,
Sample Interval,1e-05,
Record Length,10000,
Gating,0.0% to 100.0%,
Probe Attenuation,1,
Vertical Units,V,
Vertical Offset,0,
Vertical Scale,1,
Vertical Position,0.02,
,,
,,
,,
Label,,
TIME,CH1,CH2
-1.0230e-02,-0.0557813,-0.000750625
-1.0220e-02,-0.05125,-0.000151563
-1.0210e-02,-0.0490625,-0.00027875
-1.0200e-02,-0.045625,-0.000479063
-1.0190e-02,-0.060625,-0.00039125
-1.0180e-02,-0.0654688,-0.000994688
-1.0170e-02,-0.0548437,-0.000378125
-1.0160e-02,-0.0578125,-0.000548125
-1.0150e-02,-0.0446875,-0.00036625
-1.0140e-02,-0.0470312,0.000295
-1.0130e-02,-0.0648438,0.000296875
-1.0120e-02,-0.0526563,0.00014125
-1.0110e-02,-0.0501562,-0.000199063
-1.0100e-02,-0.0559375,9.5625e-05
-1.0090e-02,-0.044375,-0.000328125
-1.0080e-02,-0.0645312,-4.625e-05
-1.0070e-02,-0.0501562,-6.625e-05
-1.0060e-02,-0.0446875,-0.000665625
-1.0050e-02,-0.0546875,-0.000458438
-1.0040e-02,-0.056875,-0.000439375
-1.0030e-02,-0.0535937,-0.000405938
-1.0020e-02,-0.0517188,-0.000777813
-1.0010e-02,-0.0557813,-0.000183125
-1.0000e-02,-0.0521875,-2.8125e-05
-9.9900e-03,-0.0396875,-8.65625e-05
-9.9800e-03,-0.0584375,-0.000664375
-9.9700e-03,-0.0521875,-0.00027375
-9.9600e-03,-0.0535937,-0.000425
-9.9500e-03,-0.0557813,-0.00061
-9.9400e-03,-0.0417187,-0.000502813
-9.9300e-03,-0.0553125,-0.000815
-9.9200e-03,-0.0595313,-0.000327188
-9.9100e-03,-0.0595313,-0.000662188
-9.9000e-03,-0.0417187,-0.000379688
-9.8900e-03,-0.0539063,-0.000350625
-9.8800e-03,-0.0532813,0.000146875
-9.8700e-03,-0.0485938,0.000159375
-9.8600e-03,-0.04375,7.9375e-05
-9.8500e-03,-0.0529687,0.000348438
-9.8400e-03,-0.0557813,0.000719063
-9.8300e-03,-0.0509375,9.96875e-05
-9.8200e-03,-0.0457813,0.000120625
-9.8100e-03,-0.0554687,4.375e-06
-9.8000e-03,-0.0510938,-0.000426563
-9.7900e-03,-0.056875,-0.000540312
-9.7800e-03,-0.0485938,-5.9375e-05
-9.7700e-03,-0.065625,-0.000135
-9.7600e-03,-0.059375,-0.00041375
-9.7500e-03,-0.0435938,-0.00019625
-9.7400e-03,-0.0653125,0.000220938
-9.7300e-03,-0.0646875,-0.000395938
-9.7200e-03,-0.0610938,-0.000585313
-9.7100e-03,-0.0517188,-0.000517188
-9.7000e-03,-0.0584375,-0.000346875
-9.6900e-03,-0.059375,-0.000104375
-9.6800e-03,-0.05125,0.000280313
-9.6700e-03,-0.0514063,0.000465938
-9.6600e-03,-0.055,-0.000356875
-9.6500e-03,-0.0570313,-0.000142188
-9.6400e-03,-0.0515625,7.75e-05
-9.6300e-03,-0.0554687,-0.00034875
-9.6200e-03,-0.0423437,-0.000445938
-9.6100e-03,-0.0535937,-0.000740625
-9.6000e-03,-0.053125,-0.000992812
-9.5900e-03,-0.0476562,-0.000518438
-9.5800e-03,-0.0570313,-0.00139625
-9.5700e-03,-0.0526563,3.375e-05
-9.5600e-03,-0.05875,-0.000392813
-9.5500e-03,-0.05375,-0.000449063
-9.5400e-03,-0.0476562,-0.000436875
-9.5300e-03,-0.0554687,-0.000107813
-9.5200e-03,-0.0459375,-0.000356563
-9.5100e-03,-0.048125,-0.00027125
-9.5000e-03,-0.0573437,-0.000380625
-9.4900e-03,-0.0429688,-0.000186875
-9.4800e-03,-0.0534375,-8.3125e-05
-9.4700e-03,-0.0496875,-0.00026625
-9.4600e-03,-0.0573437,-0.00034125
-9.4500e-03,-0.0484375,-0.000644688
-9.4400e-03,-0.045,-0.000894375
-9.4300e-03,-0.0471875,-0.000517188
-9.4200e-03,-0.0489062,-0.000107188
-9.4100e-03,-0.0559375,2.9375e-05
-9.4000e-03,-0.0482812,-6.375e-05
-9.3900e-03,-0.0554687,-0.000530938
-9.3800e-03,-0.0553125,-0.00056875
-9.3700e-03,-0.0515625,-0.000575938
-9.3600e-03,-0.04875,0.000207188
-9.3500e-03,-0.05875,-6.6875e-05
-9.3400e-03,-0.0478125,5.78125e-05
-9.3300e-03,-0.048125,-0.00031
-9.3200e-03,-0.0509375,0.000597188
-9.3100e-03,-0.0460938,-0.00026875
-9.3000e-03,-0.0496875,-0.000407188
-9.2900e-03,-0.0585938,0.000495
-9.2800e-03,-0.0467188,-0.00028875
-9.2700e-03,-0.05,-7.4375e-05
-9.2600e-03,-0.0601562,-0.000270625
-9.2500e-03,-0.0520313,-0.00031375
-9.2400e-03,-0.0709375,-0.00037125
-9.2300e-03,-0.065,-0.000202813
-9.2200e-03,-0.05875,-0.000138438
-9.2100e-03,-0.0617188,-0.000295938
-9.2000e-03,-0.0496875,0.000120313
-9.1900e-03,-0.0364063,-0.00052625
-9.1800e-03,-0.041875,-0.000584063
-9.1700e-03,-0.0557813,0.00022375
-9.1600e-03,-0.0571875,-4.40625e-05
-9.1500e-03,-0.0564063,9.3125e-05
-9.1400e-03,-0.073125,0.000202813
-9.1300e-03,-0.046875,0.00028625
-9.1200e-03,-0.0525,5.0625e-05
-9.1100e-03,-0.0557813,-8.4375e-06
-9.1000e-03,-0.0560937,-0.000389063
-9.0900e-03,-0.050625,-0.000619375
-9.0800e-03,-0.055625,-8.4375e-06
-9.0700e-03,-0.0601562,-0.000429063
-9.0600e-03,-0.0365625,-0.00023625
-9.0500e-03,-0.0503125,0.000582812
-9.0400e-03,-0.0609375,-0.000395625
-9.0300e-03,-0.0567187,-0.000668125
-9.0200e-03,-0.0554687,-0.000309688
-9.0100e-03,-0.0632812,-0.000262187
-9.0000e-03,-0.0496875,-0.00017375
-8.9900e-03,-0.0517188,-0.00012125
-8.9800e-03,-0.0576563,-0.000390313
-8.9700e-03,-0.0489062,-0.000785313
-8.9600e-03,-0.0517188,-0.000405625
-8.9500e-03,-0.0521875,-0.000909375
-8.9400e-03,-0.0509375,-0.000771563
-8.9300e-03,-0.0576563,-0.00038875
-8.9200e-03,-0.0607812,0.000369063
-8.9100e-03,-0.0603125,7.8125e-06
-8.9000e-03,-0.0703125,0.000426875
-8.8900e-03,-0.0548437,-0.000447188
-8.8800e-03,-0.0485938,-0.000585
-8.8700e-03,-0.0535937,8.40625e-05
-8.8600e-03,-0.0485938,-0.000396563
-8.8500e-03,-0.0521875,6.59375e-05
-8.8400e-03,-0.0417187,0.000396563
-8.8300e-03,-0.0534375,1.9375e-05
-8.8200e-03,-0.0553125,-0.000285
-8.8100e-03,-0.0467188,-0.000666875
-8.8000e-03,-0.0575,-0.000322813
-8.7900e-03,-0.0426562,0.000714063
-8.7800e-03,-0.0710937,0.000185313
-8.7700e-03,-0.0596875,-0.00030875
-8.7600e-03,-0.0371875,-0.000727813
-8.7500e-03,-0.059375,-0.000345938
-8.7400e-03,-0.0545313,-0.000425938
-8.7300e-03,-0.0651562,-0.00033375
-8.7200e-03,-0.0520313,0.000154688
-8.7100e-03,-0.0579687,-8.65625e-05
-8.7000e-03,-0.0510938,0.000114375
-8.6900e-03,-0.0567187,-0.000645
-8.6800e-03,-0.0460938,-0.000611875
-8.6700e-03,-0.0503125,-1.71875e-05
-8.6600e-03,-0.0573437,-9.28125e-05
-8.6500e-03,-0.03625,3.75e-06
-8.6400e-03,-0.0592188,-0.000434063
-8.6300e-03,-0.049375,-0.000540938
-8.6200e-03,-0.0623438,-7.25e-05
-8.6100e-03,-0.0454688,-0.000612813
-8.6000e-03,-0.0475,0.000187813
-8.5900e-03,-0.05375,0.000122813
-8.5800e-03,-0.0420312,0.000160313
-8.5700e-03,-0.0598438,9.0625e-06
-8.5600e-03,-0.05,-0.000363125
-8.5500e-03,-0.0442188,-0.000474375
-8.5400e-03,-0.0454688,-0.000346875
-8.5300e-03,-0.0509375,-0.000574375
-8.5200e-03,-0.04875,-0.000231563
-8.5100e-03,-0.0503125,-0.0002575
-8.5000e-03,-0.04375,-0.000226875
-8.4900e-03,-0.0432813,-0.000257188
-8.4800e-03,-0.0553125,0.000237813
-8.4700e-03,-0.0573437,0.000619375
-8.4600e-03,-0.0498438,-0.000216563
-8.4500e-03,-0.053125,7.25e-05
-8.4400e-03,-0.0582813,0.000435313
-8.4300e-03,-0.0523437,-9.6875e-05
-8.4200e-03,-0.0560937,0.000141875
-8.4100e-03,-0.0546875,-0.000509688
-8.4000e-03,-0.0529687,-0.000412188
-8.3900e-03,-0.0507812,-4.1875e-05
-8.3800e-03,-0.049375,-0.000829063
-8.3700e-03,-0.0557813,-0.000416563
-8.3600e-03,-0.06,-0.000398438
-8.3500e-03,-0.0546875,-0.000248438
-8.3400e-03,-0.06375,0.000173438
-8.3300e-03,-0.06125,-0.000488438
-8.3200e-03,-0.0529687,-0.000873125
-8.3100e-03,-0.0415625,-0.00043125
-8.3000e-03,-0.0392187,-0.000134375
-8.2900e-03,-0.0523437,6.15625e-05
-8.2800e-03,-0.0514063,0.000283125
-8.2700e-03,-0.06,-0.000363125
-8.2600e-03,-0.045625,-0.000284688
-8.2500e-03,-0.0382813,-0.000556563
-8.2400e-03,-0.0467188,-0.000320625
-8.2300e-03,-0.0451563,0.000432813
-8.2200e-03,-0.0496875,-8.65625e-05
-8.2100e-03,-0.0485938,0.00039375
-8.2000e-03,-0.055625,7.28125e-05
-8.1900e-03,-0.0476562,-0.000367813
-8.1800e-03,-0.0479688,0.000685938
-8.1700e-03,-0.0485938,-0.000855625
-8.1600e-03,-0.0525,-0.000123125
-8.1500e-03,-0.0498438,0.000161563
-8.1400e-03,-0.055625,-0.000403125
-8.1300e-03,-0.0592188,-0.000825625
-8.1200e-03,-0.0642188,-0.00095125
-8.1100e-03,-0.0425,-0.000156563
-8.1000e-03,-0.0526563,-9.65625e-05
-8.0900e-03,-0.0515625,0.00011125
-8.0800e-03,-0.0464062,-0.000639063
-8.0700e-03,-0.04375,0.000128125
-8.0600e-03,-0.054375,-0.000741875
-8.0500e-03,-0.0565625,-0.000425313
-8.0400e-03,-0.0460938,-4.75e-05
-8.0300e-03,-0.0592188,0.0003425
-8.0200e-03,-0.0564063,-7.09375e-05
-8.0100e-03,-0.0384375,5.9375e-06
-8.0000e-03,-0.0535937,0.000113438
-7.9900e-03,-0.0445313,-0.000148125
-7.9800e-03,-0.0539063,-0.000355313
-7.9700e-03,-0.0523437,1.625e-05
-7.9600e-03,-0.056875,8e-05
-7.9500e-03,-0.0579687,-0.000726563
-7.9400e-03,-0.0517188,-0.000368438
-7.9300e-03,-0.0476562,-0.00018
-7.9200e-03,-0.036875,-0.000332188
-7.9100e-03,-0.0484375,0.000163125
-7.9000e-03,-0.0546875,0.000313438
-7.8900e-03,-0.0498438,-0.000616563
-7.8800e-03,-0.045,-0.000302188
-7.8700e-03,-0.0682813,-0.00028125
-7.8600e-03,-0.06125,-0.000265313
-7.8500e-03,-0.0514063,-0.00046375
-7.8400e-03,-0.056875,-6.8125e-05
-7.8300e-03,-0.0628125,-2.625e-05
-7.8200e-03,-0.058125,-0.000345313
-7.8100e-03,-0.0470312,-0.000570938
-7.8000e-03,-0.0471875,5.15625e-05
-7.7900e-03,-0.0445313,-0.0005575
-7.7800e-03,-0.0535937,-0.000256563
-7.7700e-03,-0.0575,9.875e-05
-7.7600e-03,-0.0571875,0.000330313
-7.7500e-03,-0.055,-0.00052875
-7.7400e-03,-0.0534375,0.000294062
-7.7300e-03,-0.04875,-0.000137813
-7.7200e-03,-0.0410937,4.3125e-05
-7.7100e-03,-0.0529687,0.000108438
-7.7000e-03,-0.0592188,0.000369688
-7.6900e-03,-0.0514063,-0.000207188
-7.6800e-03,-0.0501562,0.0001425
-7.6700e-03,-0.0470312,-0.00018875
-7.6600e-03,-0.0515625,-0.000563125
-7.6500e-03,-0.04375,-0.000461563
-7.6400e-03,-0.0482812,-0.000265625
-7.6300e-03,-0.0617188,-0.000133438
-7.6200e-03,-0.0415625,-0.000475938
-7.6100e-03,-0.0548437,-4.3125e-05
-7.6000e-03,-0.0567187,5.71875e-05
-7.5900e-03,-0.0596875,-9.84375e-05
-7.5800e-03,-0.0639062,-0.000265625
-7.5700e-03,-0.051875,0.000339063
-7.5600e-03,-0.051875,-0.00055
-7.5500e-03,-0.05125,-0.000242813
-7.5400e-03,-0.0440625,-0.00081375
-7.5300e-03,-0.0545313,-0.00057625
-7.5200e-03,-0.055,-0.000574063
-7.5100e-03,-0.0510938,-0.000347188
-7.5000e-03,-0.0575,-0.000531875
-7.4900e-03,-0.0540625,-0.000300938
-7.4800e-03,-0.0554687,-0.00077875
-7.4700e-03,-0.0523437,-8.09375e-05
-7.4600e-03,-0.0464062,-0.000463125
-7.4500e-03,-0.0515625,-0.000201875
-7.4400e-03,-0.0598438,0.00037875
-7.4300e-03,-0.0564063,0.00045
-7.4200e-03,-0.0667188,8.8125e-05
-7.4100e-03,-0.0478125,0.000469688
-7.4000e-03,-0.054375,-0.0004675
-7.3900e-03,-0.0567187,-0.000346563
-7.3800e-03,-0.045625,6.21875e-05
-7.3700e-03,-0.044375,-0.000185938
-7.3600e-03,-0.0459375,-6.90625e-05
-7.3500e-03,-0.055,-0.000264063
-7.3400e-03,-0.0526563,5e-05
-7.3300e-03,-0.0634375,-0.000500625
-7.3200e-03,-0.0646875,-0.000112813
-7.3100e-03,-0.0457813,0.00023
-7.3000e-03,-0.0496875,-0.000517813
-7.2900e-03,-0.0442188,-0.0003125
-7.2800e-03,-0.0525,-0.000702813
-7.2700e-03,-0.04875,-0.000767813
-7.2600e-03,-0.0484375,-0.000789063
-7.2500e-03,-0.064375,-0.000285625
-7.2400e-03,-0.0496875,-0.00103875
-7.2300e-03,-0.049375,-0.0003375
-7.2200e-03,-0.046875,-0.000190625
-7.2100e-03,-0.0514063,-9.34375e-05
-7.2000e-03,-0.0529687,7.5e-06
-7.1900e-03,-0.05125,-0.000300313
-7.1800e-03,-0.0559375,-0.000295938
-7.1700e-03,-0.0489062,-9.40625e-05
-7.1600e-03,-0.048125,-0.000170938
-7.1500e-03,-0.0576563,0.000164688
-7.1400e-03,-0.060625,0.000484688
-7.1300e-03,-0.050625,-0.000295
-7.1200e-03,-0.0503125,-0.000119063
-7.1100e-03,-0.0485938,4.0625e-06
-7.1000e-03,-0.06,-9.03125e-05
-7.0900e-03,-0.0554687,0.000185938
-7.0800e-03,-0.0509375,-2.125e-05
-7.0700e-03,-0.049375,0.000308125
-7.0600e-03,-0.04625,-0.00048625
-7.0500e-03,-0.0471875,-0.00020125
-7.0400e-03,-0.0484375,-5.875e-05
-7.0300e-03,-0.0532813,-0.000258438
-7.0200e-03,-0.05,0.00034
-7.0100e-03,-0.0445313,-0.00034875
-7.0000e-03,-0.0553125,-0.00038625
-6.9900e-03,-0.0520313,-0.000364688
-6.9800e-03,-0.0514063,-0.0003125
-6.9700e-03,-0.0484375,-0.000460938
-6.9600e-03,-0.0545313,-0.000295
-6.9500e-03,-0.0557813,0.000656875
-6.9400e-03,-0.05375,-0.000327188
-6.9300e-03,-0.0551563,-0.000458438
-6.9200e-03,-0.0414063,0.000125938
-6.9100e-03,-0.0659375,6.46875e-05
-6.9000e-03,-0.0523437,0.00060125
-6.8900e-03,-0.0657812,0.00041875
-6.8800e-03,-0.04125,-0.000410313
-6.8700e-03,-0.0557813,2.6875e-05
-6.8600e-03,-0.053125,0.000609688
-6.8500e-03,-0.0365625,-8.21875e-05
-6.8400e-03,-0.0539063,-0.000779375
-6.8300e-03,-0.0421875,0.000411875
-6.8200e-03,-0.0598438,0.000105313
-6.8100e-03,-0.0535937,-0.000645938
-6.8000e-03,-0.0525,-0.0004675
-6.7900e-03,-0.0390625,0.000287188
-6.7800e-03,-0.0578125,-1.34375e-05
-6.7700e-03,-0.0507812,-0.000229063
-6.7600e-03,-0.053125,0.000135
-6.7500e-03,-0.0484375,2.6875e-05
-6.7400e-03,-0.045625,-0.00017875
-6.7300e-03,-0.0504687,-0.000361875
-6.7200e-03,-0.06375,0.000355
-6.7100e-03,-0.0496875,-9.375e-05
-6.7000e-03,-0.0514063,-0.000168438
-6.6900e-03,-0.0453125,9e-05
-6.6800e-03,-0.0603125,0.00016625
-6.6700e-03,-0.0610938,-0.0001225
-6.6600e-03,-0.056875,-3.90625e-05
-6.6500e-03,-0.056875,-0.0002275
-6.6400e-03,-0.0517188,-0.000391875
-6.6300e-03,-0.0520313,-0.00060875
-6.6200e-03,-0.050625,-0.000209688
-6.6100e-03,-0.0607812,-0.00010875
-6.6000e-03,-0.0420312,3.03125e-05
-6.5900e-03,-0.0490625,3.96875e-05
-6.5800e-03,-0.0629688,3.4375e-05
-6.5700e-03,-0.0528125,0.000392188
-6.5600e-03,-0.0490625,-1.46875e-05
-6.5500e-03,-0.06,0.000253125
-6.5400e-03,-0.0573437,-2.71875e-05
-6.5300e-03,-0.0403125,3.125e-05
-6.5200e-03,-0.05,8.4375e-05
-6.5100e-03,-0.0546875,-0.000113438
-6.5000e-03,-0.04875,0.00026
-6.4900e-03,-0.0575,0.00015125
-6.4800e-03,-0.0554687,-0.000572813
-6.4700e-03,-0.0539063,-0.00019625
-6.4600e-03,-0.0571875,-0.000940313
-6.4500e-03,-0.0492188,-0.000645625
-6.4400e-03,-0.0467188,-0.000422188
-6.4300e-03,-0.0542187,0.000134375
-6.4200e-03,-0.06625,-0.000477813
-6.4100e-03,-0.0559375,3.53125e-05
-6.4000e-03,-0.0585938,-0.000104375
-6.3900e-03,-0.0476562,0.000548125
-6.3800e-03,-0.0482812,-0.000131563
-6.3700e-03,-0.0545313,-0.000121563
-6.3600e-03,-0.0534375,-0.0001875
-6.3500e-03,-0.0640625,-0.000606563
-6.3400e-03,-0.0473438,-0.000314063
-6.3300e-03,-0.0503125,-0.000704688
-6.3200e-03,-0.0573437,-0.000596875
-6.3100e-03,-0.060625,-0.00064875
-6.3000e-03,-0.0578125,-0.00109531
-6.2900e-03,-0.06875,-0.000599063
-6.2800e-03,-0.0557813,-0.000446563
-6.2700e-03,-0.0625,-0.0006175
-6.2600e-03,-0.0534375,8.875e-05
-6.2500e-03,-0.0657812,-0.000285625
-6.2400e-03,-0.0584375,-0.00107375
-6.2300e-03,-0.0545313,-0.000429375
-6.2200e-03,-0.0567187,0.0001025
-6.2100e-03,-0.034375,-0.00113719
-6.2000e-03,-0.0560937,-0.000381875
-6.1900e-03,-0.0504687,-0.000937188
-6.1800e-03,-0.0667188,-0.000435
-6.1700e-03,-0.0584375,-9.53125e-05
-6.1600e-03,-0.0507812,0.000455625
-6.1500e-03,-0.0564063,-0.00043125
-6.1400e-03,-0.0570313,0.00017
-6.1300e-03,-0.056875,-4.0625e-06
-6.1200e-03,-0.0575,-0.0002125
-6.1100e-03,-0.0589063,0.000295
-6.1000e-03,-0.05875,0.000252812
-6.0900e-03,-0.0401563,0.000317188
-6.0800e-03,-0.05875,0.0002775
-6.0700e-03,-0.0632812,0.000160625
-6.0600e-03,-0.0570313,-5.75e-05
-6.0500e-03,-0.0539063,0.000152188
-6.0400e-03,-0.0465625,0.000659063
-6.0300e-03,-0.0670313,-7.15625e-05
-6.0200e-03,-0.0504687,-0.000208125
-6.0100e-03,-0.0553125,-5.5e-05
-6.0000e-03,-0.0528125,0.000208125
-5.9900e-03,-0.0484375,-3.0625e-05
-5.9800e-03,-0.0553125,-0.000141875
-5.9700e-03,-0.0639062,-0.000714375
-5.9600e-03,-0.0471875,-0.000179688
-5.9500e-03,-0.0485938,0.000343438
-5.9400e-03,-0.0498438,0.000205938
-5.9300e-03,-0.0514063,-0.000309375
-5.9200e-03,-0.05625,5.75e-05
-5.9100e-03,-0.0548437,-0.000104063
-5.9000e-03,-0.0567187,-3.21875e-05
-5.8900e-03,-0.050625,0.000365313
-5.8800e-03,-0.0571875,-0.000131563
-5.8700e-03,-0.0523437,0.000384375
-5.8600e-03,-0.0592188,-0.000271563
-5.8500e-03,-0.058125,-0.000309063
-5.8400e-03,-0.0545313,0.000543125
-5.8300e-03,-0.0554687,0.000478438
-5.8200e-03,-0.0604688,-7.25e-05
-5.8100e-03,-0.0498438,-5.28125e-05
-5.8000e-03,-0.05375,-3.375e-05
-5.7900e-03,-0.0546875,-1.75e-05
-5.7800e-03,-0.0542187,0.000499375
-5.7700e-03,-0.05125,-0.000229688
-5.7600e-03,-0.0554687,-0.000659375
-5.7500e-03,-0.0565625,-0.00063
-5.7400e-03,-0.0529687,-0.0001525
-5.7300e-03,-0.0582813,-0.000718125
-5.7200e-03,-0.059375,-0.000585625
-5.7100e-03,-0.0525,-0.0002225
-5.7000e-03,-0.0507812,0.000102813
-5.6900e-03,-0.0482812,1.90625e-05
-5.6800e-03,-0.0551563,-0.000833438
-5.6700e-03,-0.0479688,-0.000331875
-5.6600e-03,-0.0464062,-0.00058875
-5.6500e-03,-0.0585938,-9.375e-06
-5.6400e-03,-0.05625,2.5e-06
-5.6300e-03,-0.0464062,0.000414688
-5.6200e-03,-0.0571875,0.000911875
-5.6100e-03,-0.0495312,0.000104688
-5.6000e-03,-0.0507812,0.00027125
-5.5900e-03,-0.0554687,-6.125e-05
-5.5800e-03,-0.0617188,-0.00013875
-5.5700e-03,-0.0589063,-0.0005975
-5.5600e-03,-0.0521875,-0.000526563
-5.5500e-03,-0.0571875,-9e-05
-5.5400e-03,-0.05625,-0.0004725
-5.5300e-03,-0.059375,-8.15625e-05
-5.5200e-03,-0.0496875,-0.0003775
-5.5100e-03,-0.0485938,-0.000398125
-5.5000e-03,-0.0496875,-0.000609063
-5.4900e-03,-0.0545313,-0.000194063
-5.4800e-03,-0.0545313,0.00033625
-5.4700e-03,-0.0460938,-0.000280625
-5.4600e-03,-0.0546875,-0.000254375
-5.4500e-03,-0.05375,3.78125e-05
-5.4400e-03,-0.0610938,-0.000218438
-5.4300e-03,-0.0603125,-0.000233125
-5.4200e-03,-0.0570313,-0.000158125
-5.4100e-03,-0.0523437,-3.125e-05
-5.4000e-03,-0.0507812,-0.000243438
-5.3900e-03,-0.0539063,-0.000358125
-5.3800e-03,-0.0514063,-0.000973125
-5.3700e-03,-0.049375,8.3125e-05
-5.3600e-03,-0.0460938,-0.000386875
-5.3500e-03,-0.0526563,-0.000104375
-5.3400e-03,-0.0564063,6.5625e-06
-5.3300e-03,-0.0485938,-0.00013875
-5.3200e-03,-0.04375,-0.000241563
-5.3100e-03,-0.04875,-0.000448125
-5.3000e-03,-0.0470312,3.78125e-05
-5.2900e-03,-0.0539063,-0.000112188
-5.2800e-03,-0.05375,-0.000125313
-5.2700e-03,-0.060625,-0.0003225
-5.2600e-03,-0.0684375,-0.000417188
-5.2500e-03,-0.0404687,-8.5625e-05
-5.2400e-03,-0.0632812,-0.000373125
-5.2300e-03,-0.0484375,-0.000357813
-5.2200e-03,-0.0578125,1.5e-05
-5.2100e-03,-0.048125,-0.000341875
-5.2000e-03,-0.0528125,6.6875e-05
-5.1900e-03,-0.0489062,-0.000183125
-5.1800e-03,-0.0446875,-0.000689688
-5.1700e-03,-0.0573437,-0.000189375
-5.1600e-03,-0.0567187,0.000269063
-5.1500e-03,-0.0507812,-0.000650938
-5.1400e-03,-0.0582813,-0.000345938
-5.1300e-03,-0.04625,-0.000120313
-5.1200e-03,-0.0403125,-0.000305938
-5.1100e-03,-0.04625,-0.000422188
-5.1000e-03,-0.0589063,-0.000736875
-5.0900e-03,-0.0515625,-0.00045625
-5.0800e-03,-0.02875,-0.0006575
-5.0700e-03,-0.0565625,-0.000364375
-5.0600e-03,-0.0498438,-0.000450938
-5.0500e-03,-0.05,-0.000266875
-5.0400e-03,-0.049375,9.625e-05
-5.0300e-03,-0.0509375,-0.0005625
-5.0200e-03,-0.0525,-0.000772188
-5.0100e-03,-0.05,-0.000498125
-5.0000e-03,-0.0503125,-0.000357188
-4.9900e-03,-0.053125,-8.34375e-05
-4.9800e-03,-0.0571875,-0.00039375
-4.9700e-03,-0.0526563,0.000395313
-4.9600e-03,-0.0534375,5.5625e-05
-4.9500e-03,-0.0601562,7.46875e-05
-4.9400e-03,-0.05625,-0.000148438
-4.9300e-03,-0.0496875,-0.000552188
-4.9200e-03,-0.07,-0.0001275
-4.9100e-03,-0.0482812,9.21875e-05
-4.9000e-03,-0.0584375,-1.8125e-05
-4.8900e-03,-0.0625,-0.000273438
-4.8800e-03,-0.055,-0.000279063
-4.8700e-03,-0.0610938,-0.000309063
-4.8600e-03,-0.0567187,-0.000600625
-4.8500e-03,-0.0582813,-0.00032375
-4.8400e-03,-0.05125,-0.000609063
-4.8300e-03,-0.0325,-4.6875e-06
-4.8200e-03,-0.04875,-0.000415
-4.8100e-03,-0.0559375,-0.000474063
-4.8000e-03,-0.0545313,-0.000175625
-4.7900e-03,-0.0598438,8.75e-05
-4.7800e-03,-0.0545313,0.000208438
-4.7700e-03,-0.0453125,-0.000280938
-4.7600e-03,-0.055,0.000190625
-4.7500e-03,-0.0560937,0.000410313
-4.7400e-03,-0.0490625,-0.000321875
-4.7300e-03,-0.043125,-0.000274063
-4.7200e-03,-0.0448438,-0.000404375
-4.7100e-03,-0.0520313,-0.000314375
-4.7000e-03,-0.0615625,-0.00028375
-4.6900e-03,-0.050625,-0.000255625
-4.6800e-03,-0.0540625,-0.000257188
-4.6700e-03,-0.0546875,-0.000279375
-4.6600e-03,-0.0548437,-0.00022125
-4.6500e-03,-0.0660938,-0.000129062
-4.6400e-03,-0.0440625,8.34375e-05
-4.6300e-03,-0.0498438,0.000296563
-4.6200e-03,-0.0557813,0.000232188
-4.6100e-03,-0.0484375,-0.000480625
-4.6000e-03,-0.0582813,0.000363125
-4.5900e-03,-0.0609375,0.000370625
-4.5800e-03,-0.0490625,-9.5625e-05
-4.5700e-03,-0.0596875,-0.000145625
-4.5600e-03,-0.0478125,-0.000355313
