nmr/data/tek0045.csv

Model,MDO4054-3
Firmware Version,2.20

Waveform Type,ANALOG,,
Point Format,Y,,
Horizontal Units,s,,
Horizontal Scale,0.01,,
Horizontal Delay,0.05012,,
Sample Interval,1e-06,,
Record Length,100000,,
Gating,0.0% to 100.0%,,
Probe Attenuation,1,,
Vertical Units,V,,
Vertical Offset,0,,
Vertical Scale,1,,
Vertical Position,0.02,,
,,,
,,,
,,,
Label,,,
TIME,CH1,CH2,CH3
1.200000e-04,-0.0526563,-0.00187,4.9624
1.210000e-04,-0.0595313,-0.00150281,4.94802
1.220000e-04,-0.05,-0.00174063,4.9449
1.230000e-04,-0.0570313,-0.00184281,4.93146
1.240000e-04,-0.0665625,-0.00147125,4.94834
1.250000e-04,-0.0614062,-0.00211469,4.95552
1.260000e-04,-0.0579687,-0.00150844,4.94959
1.270000e-04,-0.0482812,-0.00158844,4.96021
1.280000e-04,-0.0504687,-0.0016325,4.91271
1.290000e-04,-0.0596875,-0.00156406,4.9224
1.300000e-04,-0.054375,-0.00184906,4.94928
1.310000e-04,-0.053125,-0.00187156,4.92959
1.320000e-04,-0.06125,-0.00170125,4.91365
1.330000e-04,-0.0517188,-0.00187219,4.94959
1.340000e-04,-0.0535937,-0.00161594,4.9474
1.350000e-04,-0.050625,-0.00164625,4.91677
1.360000e-04,-0.0507812,-0.00189656,4.93178
1.370000e-04,-0.0628125,-0.00137375,4.93584
1.380000e-04,-0.0553125,-0.00185031,4.9224
1.390000e-04,-0.060625,-0.00180344,4.93084
1.400000e-04,-0.0582813,-0.00122375,4.97959
1.410000e-04,-0.0579687,-0.00216625,4.9174
1.420000e-04,-0.043125,-0.00132656,4.9549
1.430000e-04,-0.0489062,-0.00194938,4.95709
1.440000e-04,-0.05125,-0.00187219,4.94021
1.450000e-04,-0.0585938,-0.00146688,4.94084
1.460000e-04,-0.0517188,-0.00210531,4.94334
1.470000e-04,-0.060625,-0.00128781,4.95146
1.480000e-04,-0.0435938,-0.00191781,4.96865
1.490000e-04,-0.0684375,-0.00152969,4.9349
1.500000e-04,-0.0585938,-0.00137031,4.93709
1.510000e-04,-0.0546875,-0.00185719,4.95865
1.520000e-04,-0.05375,-0.00114344,4.9574
1.530000e-04,-0.0504687,-0.00223031,4.94303
1.540000e-04,-0.0484375,-0.00105094,4.95646
1.550000e-04,-0.0564063,-0.00166938,4.9199
1.560000e-04,-0.0678125,-0.00216219,4.95927
1.570000e-04,-0.0503125,-0.00112563,4.93396
1.580000e-04,-0.0607812,-0.00231469,4.95365
1.590000e-04,-0.053125,-0.00153563,4.95865
1.600000e-04,-0.0603125,-0.00125781,4.94928
1.610000e-04,-0.0604688,-0.00258469,4.94615
1.620000e-04,-0.0620312,-0.00112219,4.93896
1.630000e-04,-0.0579687,-0.001775,4.95428
1.640000e-04,-0.0578125,-0.00175031,4.94115
1.650000e-04,-0.0525,-0.000921875,4.94396
1.660000e-04,-0.0434375,-0.00243813,4.93521
1.670000e-04,-0.0495312,-0.00165656,4.93334
1.680000e-04,-0.0584375,-0.00153281,4.92052
1.690000e-04,-0.0615625,-0.00193313,4.93865
1.700000e-04,-0.0610938,-0.000942813,4.93146
1.710000e-04,-0.0557813,-0.00246188,4.90959
1.720000e-04,-0.0592188,-0.000928125,4.92959
1.730000e-04,-0.0657812,-0.00167938,4.92021
1.740000e-04,-0.0589063,-0.00225906,4.94584
1.750000e-04,-0.0560937,-0.00063,4.91209
1.760000e-04,-0.0507812,-0.0024025,4.93928
1.770000e-04,-0.04625,-0.000828125,4.93584
1.780000e-04,-0.0657812,-0.002265,4.96334
1.790000e-04,-0.053125,-0.00181031,4.92553
1.800000e-04,-0.0598438,-0.000873438,4.95303
1.810000e-04,-0.0517188,-0.002305,4.93271
1.820000e-04,-0.0585938,-0.000672188,4.9224
1.830000e-04,-0.0534375,-0.00223594,4.9499
1.840000e-04,-0.060625,-0.00194906,4.92365
1.850000e-04,-0.0646875,-0.000926875,4.92584
1.860000e-04,-0.0560937,-0.00216813,4.94678
1.870000e-04,-0.0646875,-0.000885625,4.95584
1.880000e-04,-0.0567187,-0.0021125,4.95834
1.890000e-04,-0.065,-0.00175156,4.95396
1.900000e-04,-0.0609375,-0.00123844,4.93584
1.910000e-04,-0.0596875,-0.00216125,4.95209
1.920000e-04,-0.059375,-0.00146469,4.96959
1.930000e-04,-0.0489062,-0.00167219,4.93521
1.940000e-04,-0.06,-0.00175,4.95396
1.950000e-04,-0.0554687,-0.00149063,4.9499
1.960000e-04,-0.0645312,-0.00143531,4.94334
1.970000e-04,-0.043125,-0.00166188,4.92115
1.980000e-04,-0.0704687,-0.00164281,4.94959
1.990000e-04,-0.0546875,-0.00137063,4.92521
2.000000e-04,-0.0465625,-0.00197469,4.94021
2.010000e-04,-0.056875,-0.00127875,4.91803
2.020000e-04,-0.06,-0.00158969,4.93365
2.030000e-04,-0.0498438,-0.00191313,4.9524
2.040000e-04,-0.0660938,-0.0008875,4.95459
2.050000e-04,-0.0579687,-0.00198375,4.93021
2.060000e-04,-0.0532813,-0.00134469,4.9274
2.070000e-04,-0.05625,-0.00135344,4.91521
2.080000e-04,-0.0526563,-0.00181281,4.9649
2.090000e-04,-0.0598438,-0.00110594,4.93615
2.100000e-04,-0.0526563,-0.00185844,4.90646
2.110000e-04,-0.0496875,-0.00139344,4.96084
2.120000e-04,-0.050625,-0.00169563,4.9299
2.130000e-04,-0.0410937,-0.00151094,4.91146
2.140000e-04,-0.05625,-0.00166094,4.95021
2.150000e-04,-0.0534375,-0.00170125,4.95802
2.160000e-04,-0.0460938,-0.00128844,4.93146
2.170000e-04,-0.0442188,-0.00169438,4.94646
2.180000e-04,-0.048125,-0.0014325,4.93209
2.190000e-04,-0.0596875,-0.00140438,4.90021
2.200000e-04,-0.0471875,-0.00200656,4.95084
2.210000e-04,-0.06125,-0.00133125,4.9424
2.220000e-04,-0.06125,-0.00190438,4.93334
2.230000e-04,-0.0551563,-0.00164125,4.92709
2.240000e-04,-0.0596875,-0.00149375,4.95959
2.250000e-04,-0.0539063,-0.00175906,4.93396
2.260000e-04,-0.0517188,-0.00140469,4.94709
2.270000e-04,-0.0535937,-0.00196094,4.91896
2.280000e-04,-0.0567187,-0.00136938,4.93553
2.290000e-04,-0.05875,-0.00179531,4.94209
2.300000e-04,-0.0534375,-0.00131531,4.95834
2.310000e-04,-0.0457813,-0.00199063,4.97615
2.320000e-04,-0.0482812,-0.00116656,4.95521
2.330000e-04,-0.0554687,-0.00149844,4.96552
2.340000e-04,-0.044375,-0.00186094,4.91928
2.350000e-04,-0.0565625,-0.00119656,4.94771
2.360000e-04,-0.0545313,-0.00196969,4.96303
2.370000e-04,-0.0510938,-0.00134156,4.92709
2.380000e-04,-0.0579687,-0.00174094,4.94584
2.390000e-04,-0.0614062,-0.00160063,4.94177
2.400000e-04,-0.0590625,-0.001665,4.94959
2.410000e-04,-0.0523437,-0.00175406,4.94865
2.420000e-04,-0.0601562,-0.00137625,4.93178
2.430000e-04,-0.0590625,-0.00179313,4.95021
2.440000e-04,-0.0492188,-0.00164156,4.94209
2.450000e-04,-0.0509375,-0.00165094,4.93334
2.460000e-04,-0.0614062,-0.00148938,4.92677
2.470000e-04,-0.0567187,-0.00191813,4.94021
2.480000e-04,-0.0448438,-0.00151406,4.93271
2.490000e-04,-0.0578125,-0.00156438,4.93303
2.500000e-04,-0.0548437,-0.00166063,4.93959
2.510000e-04,-0.0579687,-0.00132219,4.92865
2.520000e-04,-0.0660938,-0.00189781,4.93459
2.530000e-04,-0.0651562,-0.00147563,4.94521
2.540000e-04,-0.0414063,-0.00144063,4.9474
2.550000e-04,-0.0598438,-0.0015975,4.91896
2.560000e-04,-0.061875,-0.00174906,4.9449
2.570000e-04,-0.0554687,-0.0018275,4.94802
2.580000e-04,-0.0609375,-0.00158094,4.94959
2.590000e-04,-0.0514063,-0.00184469,4.95146
2.600000e-04,-0.0620312,-0.0012275,4.9474
2.610000e-04,-0.0626562,-0.00165281,4.92052
2.620000e-04,-0.053125,-0.00187125,4.92928
2.630000e-04,-0.043125,-0.00151219,4.93584
2.640000e-04,-0.065,-0.00179375,4.9149
2.650000e-04,-0.0475,-0.00122688,4.9374
2.660000e-04,-0.0546875,-0.0013125,4.93896
2.670000e-04,-0.0515625,-0.00224625,4.96428
2.680000e-04,-0.0542187,-0.00128344,4.94896
2.690000e-04,-0.0515625,-0.00170594,4.93896
2.700000e-04,-0.0542187,-0.00149344,4.95584
2.710000e-04,-0.0520313,-0.00117469,4.94928
2.720000e-04,-0.0457813,-0.00217438,4.94334
2.730000e-04,-0.0471875,-0.00138375,4.93427
2.740000e-04,-0.0510938,-0.00211781,4.93709
2.750000e-04,-0.05375,-0.00144719,4.95459
2.760000e-04,-0.05875,-0.00126344,4.96927
2.770000e-04,-0.068125,-0.00217781,4.91865
2.780000e-04,-0.0604688,-0.00114125,4.94396
2.790000e-04,-0.0421875,-0.00222656,4.93615
2.800000e-04,-0.0565625,-0.00146281,4.93646
2.810000e-04,-0.0507812,-0.00167125,4.93021
2.820000e-04,-0.0528125,-0.0018025,4.92427
2.830000e-04,-0.0564063,-0.00174875,4.93646
2.840000e-04,-0.0570313,-0.00168969,4.93271
2.850000e-04,-0.0398437,-0.00151156,4.95615
2.860000e-04,-0.055625,-0.00179156,4.94021
2.870000e-04,-0.0607812,-0.00125875,4.96177
2.880000e-04,-0.0501562,-0.00188656,4.92771
2.890000e-04,-0.06,-0.00181656,4.91677
2.900000e-04,-0.05875,-0.00132281,4.95021
2.910000e-04,-0.0521875,-0.00178094,4.95521
2.920000e-04,-0.0509375,-0.00180406,4.97053
2.930000e-04,-0.055625,-0.00165063,4.94521
2.940000e-04,-0.0557813,-0.00140406,4.92115
2.950000e-04,-0.0584375,-0.00182063,4.94521
2.960000e-04,-0.063125,-0.001425,4.93521
2.970000e-04,-0.0582813,-0.00143219,4.95709
2.980000e-04,-0.0607812,-0.00204063,4.92896
2.990000e-04,-0.0467188,-0.00107563,4.95084
3.000000e-04,-0.0578125,-0.00193594,4.9599
3.010000e-04,-0.05375,-0.00148094,4.95459
3.020000e-04,-0.0510938,-0.0015775,4.94834
3.030000e-04,-0.0557813,-0.00202063,4.94865
3.040000e-04,-0.0532813,-0.00141469,4.93084
3.050000e-04,-0.0628125,-0.0020125,4.95896
3.060000e-04,-0.049375,-0.00168094,4.95927
3.070000e-04,-0.0464062,-0.00175313,4.91459
3.080000e-04,-0.0610938,-0.0018775,4.94959
3.090000e-04,-0.049375,-0.0012175,4.94459
3.100000e-04,-0.0604688,-0.00199594,4.9524
3.110000e-04,-0.058125,-0.00140625,4.9274
3.120000e-04,-0.0470312,-0.00194625,4.9474
3.130000e-04,-0.06375,-0.00143219,4.9499
3.140000e-04,-0.0525,-0.00139594,4.9474
3.150000e-04,-0.0551563,-0.00224438,4.96146
3.160000e-04,-0.0485938,-0.00150875,4.94177
3.170000e-04,-0.0582813,-0.00219813,4.95334
3.180000e-04,-0.0482812,-0.00113469,4.93303
3.190000e-04,-0.046875,-0.00177781,4.9424
3.200000e-04,-0.0495312,-0.00210031,4.93928
3.210000e-04,-0.0635938,-0.0008175,4.94928
3.220000e-04,-0.050625,-0.00265531,4.9149
3.230000e-04,-0.0557813,-0.0009025,4.92396
3.240000e-04,-0.0504687,-0.00176375,4.93584
3.250000e-04,-0.0534375,-0.002185,4.93553
3.260000e-04,-0.0546875,-0.000842188,4.92303
3.270000e-04,-0.0521875,-0.0027075,4.9074
3.280000e-04,-0.0507812,-0.00115125,4.94334
3.290000e-04,-0.05375,-0.00168625,4.95084
3.300000e-04,-0.0579687,-0.0019925,4.95459
3.310000e-04,-0.05625,-0.000960938,4.9299
3.320000e-04,-0.0442188,-0.00228625,4.94615
3.330000e-04,-0.056875,-0.00147,4.93365
3.340000e-04,-0.053125,-0.00140656,4.94146
3.350000e-04,-0.0517188,-0.001825,4.94928
3.360000e-04,-0.0484375,-0.00131063,4.95771
3.370000e-04,-0.054375,-0.00200188,4.93709
3.380000e-04,-0.0617188,-0.00158781,4.93959
3.390000e-04,-0.0504687,-0.00172063,4.94646
3.400000e-04,-0.0603125,-0.00191438,4.95177
3.410000e-04,-0.0609375,-0.00108,4.9549
3.420000e-04,-0.0539063,-0.00223719,4.94771
3.430000e-04,-0.0598438,-0.00142594,4.94084
3.440000e-04,-0.0617188,-0.00186531,4.94146
3.450000e-04,-0.0442188,-0.0019425,4.94928
3.460000e-04,-0.0565625,-0.000925,4.93553
3.470000e-04,-0.0540625,-0.00242969,4.93334
3.480000e-04,-0.0567187,-0.00116094,4.96177
3.490000e-04,-0.0532813,-0.00169906,4.93678
3.500000e-04,-0.0453125,-0.00191438,4.95428
3.510000e-04,-0.0521875,-0.00133375,4.93209
3.520000e-04,-0.0507812,-0.00188875,4.94396
3.530000e-04,-0.0642188,-0.00134063,4.96396
3.540000e-04,-0.059375,-0.001355,4.92959
3.550000e-04,-0.0601562,-0.00181375,4.96334
3.560000e-04,-0.0559375,-0.00141406,4.95709
3.570000e-04,-0.0610938,-0.00173969,4.93646
3.580000e-04,-0.0579687,-0.00214438,4.95146
3.590000e-04,-0.05125,-0.00142125,4.94115
3.600000e-04,-0.0540625,-0.00182063,4.94303
3.610000e-04,-0.0595313,-0.00163781,4.92303
3.620000e-04,-0.0557813,-0.00153875,4.94271
3.630000e-04,-0.0551563,-0.0020025,4.94615
3.640000e-04,-0.060625,-0.00127375,4.92959
3.650000e-04,-0.0520313,-0.00201219,4.93928
3.660000e-04,-0.045625,-0.0016125,4.95146
3.670000e-04,-0.059375,-0.00131156,4.96115
3.680000e-04,-0.0514063,-0.00212406,4.92084
3.690000e-04,-0.0504687,-0.00112656,4.96084
3.700000e-04,-0.0540625,-0.00203375,4.93959
3.710000e-04,-0.0579687,-0.00150906,4.9599
3.720000e-04,-0.0525,-0.00104188,4.95053
3.730000e-04,-0.0457813,-0.00199625,4.9199
3.740000e-04,-0.0471875,-0.00165563,4.93865
3.750000e-04,-0.0639062,-0.00173969,4.93584
3.760000e-04,-0.045625,-0.00159313,4.9274
3.770000e-04,-0.0626562,-0.00161969,4.93678
3.780000e-04,-0.0514063,-0.00145938,4.94177
3.790000e-04,-0.0590625,-0.00157656,4.96146
3.800000e-04,-0.0515625,-0.00168094,4.92303
3.810000e-04,-0.058125,-0.00139813,4.95021
3.820000e-04,-0.0448438,-0.00224875,4.94334
3.830000e-04,-0.0529687,-0.00120469,4.96334
3.840000e-04,-0.0464062,-0.00205438,4.97552
3.850000e-04,-0.0495312,-0.00157781,4.95396
3.860000e-04,-0.0490625,-0.00160406,4.92521
3.870000e-04,-0.061875,-0.00230469,4.90709
3.880000e-04,-0.058125,-0.00110688,4.94584
3.890000e-04,-0.059375,-0.00214281,4.94209
3.900000e-04,-0.051875,-0.00129188,4.93678
3.910000e-04,-0.0529687,-0.00202125,4.97709
3.920000e-04,-0.0478125,-0.00144156,4.93834
3.930000e-04,-0.0571875,-0.00199375,4.9474
3.940000e-04,-0.0429688,-0.0014875,4.94771
3.950000e-04,-0.0529687,-0.00179125,4.96053
3.960000e-04,-0.059375,-0.00182281,4.93865
3.970000e-04,-0.0592188,-0.00130625,4.94834
3.980000e-04,-0.0514063,-0.00209187,4.96896
3.990000e-04,-0.0553125,-0.00117344,4.95615
4.000000e-04,-0.0557813,-0.00200031,4.9324
4.010000e-04,-0.0557813,-0.00165125,4.92896
4.020000e-04,-0.0559375,-0.00144,4.94177
4.030000e-04,-0.0557813,-0.00158688,4.94896
4.040000e-04,-0.0570313,-0.00159188,4.93146
4.050000e-04,-0.0526563,-0.00159781,4.94865
4.060000e-04,-0.0510938,-0.00163375,4.94802
4.070000e-04,-0.0467188,-0.00161531,4.93521
4.080000e-04,-0.05375,-0.00175219,4.92646
4.090000e-04,-0.04625,-0.00163313,4.93271
4.100000e-04,-0.0604688,-0.00170344,4.9549
4.110000e-04,-0.046875,-0.00159563,4.9349
4.120000e-04,-0.056875,-0.00146906,4.94584
4.130000e-04,-0.0545313,-0.00151531,4.99271
4.140000e-04,-0.0539063,-0.00165656,4.9424
4.150000e-04,-0.0617188,-0.00158125,4.9074
4.160000e-04,-0.0528125,-0.00173438,4.93646
4.170000e-04,-0.0539063,-0.00159219,4.92459
4.180000e-04,-0.053125,-0.00161844,4.93084
4.190000e-04,-0.0485938,-0.00160969,4.94771
4.200000e-04,-0.0570313,-0.00162781,4.9324
4.210000e-04,-0.0685937,-0.00158688,4.95053
4.220000e-04,-0.0592188,-0.00158094,4.94271
4.230000e-04,-0.0590625,-0.00165594,4.96834
4.240000e-04,-0.0501562,-0.00162281,4.94646
4.250000e-04,-0.044375,-0.00159469,4.94365
4.260000e-04,-0.0532813,-0.00158469,4.95615
4.270000e-04,-0.0485938,-0.00159438,4.93646
4.280000e-04,-0.060625,-0.0016,4.92334
4.290000e-04,-0.049375,-0.00158906,4.92928
4.300000e-04,-0.0429688,-0.00168719,4.93709
4.310000e-04,-0.0420312,-0.00159938,4.95209
4.320000e-04,-0.0542187,-0.00158219,4.92771
4.330000e-04,-0.0521875,-0.00163688,4.92334
4.340000e-04,-0.0585938,-0.00155063,4.90771
4.350000e-04,-0.0621875,-0.00154063,4.92584
4.360000e-04,-0.0571875,-0.00152844,4.94928
4.370000e-04,-0.0553125,-0.00161313,4.94334
4.380000e-04,-0.0553125,-0.00146,4.92709
4.390000e-04,-0.0560937,-0.00167188,4.93709
4.400000e-04,-0.045,-0.00157,4.95271
4.410000e-04,-0.0528125,-0.00165031,4.96146
4.420000e-04,-0.0534375,-0.00157781,4.92553
4.430000e-04,-0.04375,-0.00162688,4.94771
4.440000e-04,-0.06,-0.00171406,4.95615
4.450000e-04,-0.0448438,-0.00162188,4.92802
4.460000e-04,-0.0510938,-0.00172844,4.94896
4.470000e-04,-0.0585938,-0.00162688,4.94021
4.480000e-04,-0.0465625,-0.00164156,4.93396
4.490000e-04,-0.0601562,-0.00149594,4.96678
4.500000e-04,-0.0534375,-0.00158938,4.94271
4.510000e-04,-0.0553125,-0.00151813,4.94459
4.520000e-04,-0.0609375,-0.00154594,4.94334
4.530000e-04,-0.04625,-0.00158,4.92271
4.540000e-04,-0.0634375,-0.00156156,4.9349
4.550000e-04,-0.0570313,-0.00156438,4.93396
4.560000e-04,-0.040625,-0.0015975,4.99302
4.570000e-04,-0.055,-0.00163188,4.93396
4.580000e-04,-0.0504687,-0.00158344,4.97115
4.590000e-04,-0.0632812,-0.00144094,4.94959
4.600000e-04,-0.0579687,-0.00162563,4.92834
4.610000e-04,-0.0579687,-0.00152594,4.93896
4.620000e-04,-0.0670313,-0.00171813,4.9274
4.630000e-04,-0.0592188,-0.00174656,4.99084
4.640000e-04,-0.0564063,-0.001635,4.94459
4.650000e-04,-0.0610938,-0.00159969,4.9499
4.660000e-04,-0.0582813,-0.00162938,4.98178
4.670000e-04,-0.0495312,-0.00154,4.97771
4.680000e-04,-0.056875,-0.00161125,4.92146
4.690000e-04,-0.0510938,-0.00169563,4.93553
4.700000e-04,-0.0520313,-0.00170375,4.93584
4.710000e-04,-0.0590625,-0.00145719,4.93646
4.720000e-04,-0.05625,-0.00166313,4.93896
4.730000e-04,-0.0589063,-0.00167719,4.94584
4.740000e-04,-0.0623438,-0.00153406,4.92865
4.750000e-04,-0.0589063,-0.00171688,4.94303
4.760000e-04,0.289844,-0.00155719,4.94709
4.770000e-04,0.281094,-0.00116219,4.96521
4.780000e-04,-1.10281,-0.00209906,4.92459
4.790000e-04,0.95375,-0.00317594,4.93271
4.800000e-04,-1.30219,-0.00374063,4.92865
4.810000e-04,1.08578,-0.0041625,4.90709
4.820000e-04,-1.37516,-0.00530063,4.94896
4.830000e-04,1.13078,-0.0059075,4.93209
4.840000e-04,-1.31313,-0.00645938,4.94115
4.850000e-04,1.17938,-0.007105,4.92928
4.860000e-04,-1.17844,-0.00795469,4.95459
4.870000e-04,1.17266,-0.00858844,4.96146
4.880000e-04,-1.14219,-0.00873031,4.91709
4.890000e-04,0.982344,-0.009535,4.92896
4.900000e-04,-1.01969,-0.0100009,4.92709
4.910000e-04,0.819688,-0.00966906,4.92928
4.920000e-04,-0.873281,-0.0105138,4.95584
4.930000e-04,0.761406,-0.0104553,4.94084
4.940000e-04,-0.819063,-0.0110516,4.92584
4.950000e-04,0.756875,-0.0112834,4.9549
4.960000e-04,-0.837656,-0.0115066,4.92396
4.970000e-04,0.447969,-0.0115256,4.91709
4.980000e-04,-0.0501562,-0.0109356,4.92521
4.990000e-04,-0.00640625,-0.0108372,4.96459
5.000000e-04,0.0175,-0.0107434,4.96084
5.010000e-04,0.0295312,-0.0107294,4.94084
5.020000e-04,0.0592188,-0.0108197,4.94334
5.030000e-04,0.0635938,-0.0108553,4.93959
5.040000e-04,0.068125,-0.0108444,4.97521
5.050000e-04,0.0878125,-0.0108363,4.97146
5.060000e-04,0.0878125,-0.0108291,4.94896
5.070000e-04,0.105938,-0.0108141,4.93209
5.080000e-04,0.09,-0.0106909,4.96177
5.090000e-04,0.0975,-0.0107219,4.95365
5.100000e-04,0.0885937,-0.0105256,4.97021
5.110000e-04,0.107344,-0.0106287,4.94521
5.120000e-04,0.0990625,-0.0106969,4.9524
5.130000e-04,0.1,-0.0107494,4.9324
5.140000e-04,0.124219,-0.0106175,4.98553
5.150000e-04,0.0928125,-0.0107475,4.95521
5.160000e-04,0.102031,-0.0106181,4.95334
5.170000e-04,0.0785938,-0.010555,4.93584
5.180000e-04,0.0939062,-0.0106688,4.93459
5.190000e-04,0.0945312,-0.0106206,4.90896
5.200000e-04,0.0920312,-0.0105459,4.93771
5.210000e-04,0.09875,-0.0106203,4.9249
5.220000e-04,0.0823437,-0.0106784,4.96584
5.230000e-04,0.085625,-0.0107128,4.95146
5.240000e-04,0.0989063,-0.0107294,4.97959
5.250000e-04,0.0901562,-0.0105969,4.93678
5.260000e-04,0.084375,-0.0106734,4.93365
5.270000e-04,0.0789062,-0.0106359,4.95146
5.280000e-04,0.0745312,-0.0106666,4.94334
5.290000e-04,0.0764062,-0.0105825,4.9499
5.300000e-04,0.08,-0.010575,4.95146
5.310000e-04,0.0759375,-0.0106647,4.96615
5.320000e-04,0.0767188,-0.0108375,4.97927
5.330000e-04,0.0753125,-0.0105088,4.93865
5.340000e-04,0.0629688,-0.0106003,4.94865
5.350000e-04,0.0704687,-0.0106522,4.94084
5.360000e-04,0.0740625,-0.0105528,4.91677
5.370000e-04,0.0710937,-0.0105125,4.95584
5.380000e-04,0.060625,-0.0106172,4.96428
5.390000e-04,0.0603125,-0.0106275,4.95802
5.400000e-04,0.0710937,-0.0106569,4.95334
5.410000e-04,0.0645312,-0.0107325,4.9574
5.420000e-04,0.0770312,-0.0105503,4.93678
5.430000e-04,0.0623438,-0.0105094,4.92646
5.440000e-04,0.0748438,-0.0105775,4.95959
5.450000e-04,0.0704687,-0.0106759,4.91615
5.460000e-04,0.0640625,-0.0107506,4.95271
5.470000e-04,0.059375,-0.0105394,4.96177
5.480000e-04,0.0665625,-0.0106559,4.96271
5.490000e-04,0.076875,-0.0104088,4.94053
5.500000e-04,0.0559375,-0.0105263,4.95365
5.510000e-04,0.0553125,-0.0106503,4.96209
5.520000e-04,0.050625,-0.0107116,4.92615
5.530000e-04,0.0609375,-0.0106016,4.95365
5.540000e-04,0.0528125,-0.0106672,4.94928
5.550000e-04,0.0575,-0.0106303,4.94427
5.560000e-04,0.0704687,-0.0104284,4.94021
5.570000e-04,0.0575,-0.0104691,4.94928
5.580000e-04,0.068125,-0.0105588,4.92709
5.590000e-04,0.0545313,-0.0106419,4.92802
5.600000e-04,0.0578125,-0.0103838,4.94115
5.610000e-04,0.0692187,-0.0107047,4.94771
5.620000e-04,0.0475,-0.0107578,4.94678
5.630000e-04,0.0446875,-0.0105884,4.92802
5.640000e-04,0.0360937,-0.0107294,4.96365
5.650000e-04,0.04375,-0.0106009,4.9524
5.660000e-04,0.0432812,-0.0104869,4.9349
5.670000e-04,0.06,-0.0104828,4.94928
5.680000e-04,0.0634375,-0.0105506,4.96459
5.690000e-04,0.0417187,-0.0105044,4.94427
5.700000e-04,0.0384375,-0.0105306,4.94021
5.710000e-04,0.0315625,-0.0104775,4.95053
5.720000e-04,0.0471875,-0.0104003,4.95927
5.730000e-04,0.055,-0.0104888,4.93365
5.740000e-04,0.0414063,-0.0104794,4.9624
5.750000e-04,0.0354688,-0.0106678,4.97334
5.760000e-04,0.0525,-0.0105353,4.97178
5.770000e-04,0.035625,-0.0105281,4.94771
