nmr/data/tek0031.csv

Model,MDO4054-3
Firmware Version,2.20

Waveform Type,ANALOG,
Point Format,Y,
Horizontal Units,s,
Horizontal Scale,0.01,
Horizontal Delay,0.03977,
Sample Interval,1e-06,
Record Length,100000,
Gating,0.0% to 100.0%,
Probe Attenuation,1,
Vertical Units,V,
Vertical Offset,0,
Vertical Scale,1,
Vertical Position,0.02,
,,
,,
,,
Label,,
TIME,CH1,CH2
-1.02300e-02,-0.07625,-0.00058375
-1.02290e-02,-0.0604688,-0.000646875
-1.02280e-02,-0.06,-0.000279063
-1.02270e-02,-0.0553125,-3.375e-05
-1.02260e-02,-0.0646875,6.6875e-05
-1.02250e-02,-0.063125,-0.000251875
-1.02240e-02,-0.0648438,-0.000215
-1.02230e-02,-0.0475,0.000380313
-1.02220e-02,-0.05625,-0.000116563
-1.02210e-02,-0.0570313,0.000359688
-1.02200e-02,-0.0540625,3.6875e-05
-1.02190e-02,-0.0732813,-2.59375e-05
-1.02180e-02,-0.0578125,0.000365
-1.02170e-02,-0.0670313,-0.0001675
-1.02160e-02,-0.0554687,-0.000354375
-1.02150e-02,-0.0545313,0.0002225
-1.02140e-02,-0.0609375,-1.0625e-05
-1.02130e-02,-0.060625,0.00056125
-1.02120e-02,-0.0623438,-1.84375e-05
-1.02110e-02,-0.0529687,-0.000965625
-1.02100e-02,-0.055625,0.000238438
-1.02090e-02,-0.0557813,-0.00026375
-1.02080e-02,-0.0578125,-0.00021625
-1.02070e-02,-0.0542187,-6.34375e-05
-1.02060e-02,-0.0514063,-0.000569375
-1.02050e-02,-0.0628125,7.15625e-05
-1.02040e-02,-0.0510938,0.000342188
-1.02030e-02,-0.0645312,-0.000194375
-1.02020e-02,-0.0640625,-0.000240625
-1.02010e-02,-0.0579687,-0.000352188
-1.02000e-02,-0.0498438,-0.000104063
-1.01990e-02,-0.06125,1.3125e-05
-1.01980e-02,-0.051875,-0.000326875
-1.01970e-02,-0.0690625,-0.000258125
-1.01960e-02,-0.0610938,-0.000323438
-1.01950e-02,-0.0579687,-0.0001575
-1.01940e-02,-0.0603125,-0.000399688
-1.01930e-02,-0.0628125,-6.125e-05
-1.01920e-02,-0.053125,9.375e-07
-1.01910e-02,-0.0603125,-4.03125e-05
-1.01900e-02,-0.0623438,0.000327813
-1.01890e-02,-0.060625,-0.000275313
-1.01880e-02,-0.0601562,-0.00023625
-1.01870e-02,-0.0507812,0.000189063
-1.01860e-02,-0.055,-0.000355938
-1.01850e-02,-0.0460938,3.0625e-05
-1.01840e-02,-0.0640625,-0.000240938
-1.01830e-02,-0.0489062,-0.000684063
-1.01820e-02,-0.0657812,0.000277813
-1.01810e-02,-0.0582813,-0.000138125
-1.01800e-02,-0.0582813,-6.875e-06
-1.01790e-02,-0.0525,-0.00049375
-1.01780e-02,-0.0595313,-0.000195313
-1.01770e-02,-0.0623438,0.000547188
-1.01760e-02,-0.0525,7.34375e-05
-1.01750e-02,-0.0560937,-7.34375e-05
-1.01740e-02,-0.060625,-0.00012875
-1.01730e-02,-0.055625,6.5625e-06
-1.01720e-02,-0.0573437,0.000515625
-1.01710e-02,-0.0584375,0.000104375
-1.01700e-02,-0.0529687,6.5625e-05
-1.01690e-02,-0.0479688,0.000260625
-1.01680e-02,-0.0545313,-0.000193438
-1.01670e-02,-0.0517188,0.0001025
-1.01660e-02,-0.0576563,-0.000627188
-1.01650e-02,-0.056875,-0.000162188
-1.01640e-02,-0.0585938,-4.875e-05
-1.01630e-02,-0.0489062,2.25e-05
-1.01620e-02,-0.0657812,-7.3125e-05
-1.01610e-02,-0.0570313,-0.000410625
-1.01600e-02,-0.0575,6.28125e-05
-1.01590e-02,-0.05125,-3.21875e-05
-1.01580e-02,-0.055625,-0.000388125
-1.01570e-02,-0.0603125,-0.000743125
-1.01560e-02,-0.0510938,-0.000253125
-1.01550e-02,-0.0598438,-5.625e-06
-1.01540e-02,-0.0615625,-5.40625e-05
-1.01530e-02,-0.059375,-0.000204063
-1.01520e-02,-0.0520313,-0.000205313
-1.01510e-02,-0.0585938,9.21875e-05
-1.01500e-02,-0.0479688,0.000149375
-1.01490e-02,-0.0665625,4.71875e-05
-1.01480e-02,-0.0592188,-0.000190313
-1.01470e-02,-0.065625,-0.000164063
-1.01460e-02,-0.0603125,-1.1875e-05
-1.01450e-02,-0.0676563,0.000110313
-1.01440e-02,-0.0548437,-0.000359688
-1.01430e-02,-0.0498438,-0.000960313
-1.01420e-02,-0.0596875,-3.125e-05
-1.01410e-02,-0.0528125,0.00012125
-1.01400e-02,-0.055625,-0.0001325
-1.01390e-02,-0.0603125,-0.00025125
-1.01380e-02,-0.0615625,-0.000260938
-1.01370e-02,-0.0559375,0.000109063
-1.01360e-02,-0.0626562,-0.000400313
-1.01350e-02,-0.0517188,-0.000416563
-1.01340e-02,-0.0639062,-0.00024375
-1.01330e-02,-0.0601562,-0.000513438
-1.01320e-02,-0.0615625,0.00054
-1.01310e-02,-0.0598438,-6.53125e-05
-1.01300e-02,-0.0548437,-0.000640625
-1.01290e-02,-0.0595313,-0.00104875
-1.01280e-02,-0.0478125,-0.000686875
-1.01270e-02,-0.0579687,0.000563125
-1.01260e-02,-0.0579687,-0.000606563
-1.01250e-02,-0.0570313,-0.000452813
-1.01240e-02,-0.0621875,-0.00028375
-1.01230e-02,-0.0534375,-0.000306875
-1.01220e-02,-0.0604688,5.53125e-05
-1.01210e-02,-0.0592188,-0.0005625
-1.01200e-02,-0.0590625,-0.000248125
-1.01190e-02,-0.0551563,-0.00012
-1.01180e-02,-0.0571875,0.000203125
-1.01170e-02,-0.0584375,-0.000205
-1.01160e-02,-0.0517188,-0.00026875
-1.01150e-02,-0.0564063,0.000105625
-1.01140e-02,-0.063125,-3.03125e-05
-1.01130e-02,-0.0725,-0.000327188
-1.01120e-02,-0.0646875,-0.000654063
-1.01110e-02,-0.0626562,-3.40625e-05
-1.01100e-02,-0.0545313,-0.00034625
-1.01090e-02,-0.0621875,-4.6875e-05
-1.01080e-02,-0.0553125,-0.000669063
-1.01070e-02,-0.0592188,-0.000385
-1.01060e-02,-0.0625,-0.000334688
-1.01050e-02,-0.0490625,-6.25e-07
-1.01040e-02,-0.0639062,-0.00047375
-1.01030e-02,-0.05625,-0.00038875
-1.01020e-02,-0.0584375,-0.00063625
-1.01010e-02,-0.0615625,-0.000409063
-1.01000e-02,-0.0609375,0.000414375
-1.00990e-02,-0.0564063,-0.000551875
-1.00980e-02,-0.0585938,-6.40625e-05
-1.00970e-02,-0.0521875,-0.000229375
-1.00960e-02,-0.0640625,0.000323125
-1.00950e-02,-0.0564063,0.000408125
-1.00940e-02,-0.0428125,-0.00065125
-1.00930e-02,-0.0525,-0.000173438
-1.00920e-02,-0.0632812,-0.000386563
-1.00910e-02,-0.0628125,0.00013125
-1.00900e-02,-0.0598438,0.000391563
-1.00890e-02,-0.0628125,-0.000314375
-1.00880e-02,-0.0535937,0.000269375
-1.00870e-02,-0.0609375,0.000280625
-1.00860e-02,-0.0642188,-0.000108438
-1.00850e-02,-0.0628125,0.000108438
-1.00840e-02,-0.0664062,-0.000622188
-1.00830e-02,-0.0626562,0.00018
-1.00820e-02,-0.0528125,-0.000316875
-1.00810e-02,-0.0659375,5.59375e-05
-1.00800e-02,-0.0520313,-0.000116563
-1.00790e-02,-0.0604688,-0.000310938
-1.00780e-02,-0.0628125,0.000258125
-1.00770e-02,-0.059375,-0.000357188
-1.00760e-02,-0.063125,0.000133438
-1.00750e-02,-0.0565625,-5.53125e-05
-1.00740e-02,-0.05,-0.000135625
-1.00730e-02,-0.048125,0.00038375
-1.00720e-02,-0.0590625,-0.000447188
-1.00710e-02,-0.0592188,-0.00014625
-1.00700e-02,-0.0595313,-0.000582812
-1.00690e-02,-0.0490625,-0.00053375
-1.00680e-02,-0.0432813,-0.000173125
-1.00670e-02,-0.0610938,-0.000339688
-1.00660e-02,-0.0671875,-0.00017375
-1.00650e-02,-0.045,-0.000431563
-1.00640e-02,-0.0529687,8.375e-05
-1.00630e-02,-0.0623438,-0.000539375
-1.00620e-02,-0.0573437,-3.40625e-05
-1.00610e-02,-0.0601562,-0.00056625
-1.00600e-02,-0.061875,-0.000265625
-1.00590e-02,-0.0495312,-0.000175313
-1.00580e-02,-0.0546875,-0.000570313
-1.00570e-02,-0.065,-0.00039
-1.00560e-02,-0.0567187,-0.000451563
-1.00550e-02,-0.0535937,-0.000563438
-1.00540e-02,-0.0585938,-2.5e-06
-1.00530e-02,-0.0617188,-0.000332188
-1.00520e-02,-0.0554687,-0.000292813
-1.00510e-02,-0.0564063,-0.000361875
-1.00500e-02,-0.0665625,8.6875e-05
-1.00490e-02,-0.0604688,-5.21875e-05
-1.00480e-02,-0.0523437,-9.53125e-05
-1.00470e-02,-0.0692187,-0.000127813
-1.00460e-02,-0.0532813,3.65625e-05
-1.00450e-02,-0.0634375,-0.00059875
-1.00440e-02,-0.0554687,-0.000782813
-1.00430e-02,-0.0576563,-0.000191875
-1.00420e-02,-0.059375,0.000220938
-1.00410e-02,-0.0504687,-0.000120625
-1.00400e-02,-0.0601562,3.0625e-05
-1.00390e-02,-0.0503125,-0.000175625
-1.00380e-02,-0.0632812,-0.000135
-1.00370e-02,-0.0632812,1.59375e-05
-1.00360e-02,-0.055,0.000194063
-1.00350e-02,-0.0582813,-0.000669063
-1.00340e-02,-0.0598438,-0.000325
-1.00330e-02,-0.0492188,-0.000200313
-1.00320e-02,-0.0504687,9.28125e-05
-1.00310e-02,-0.0523437,-4.875e-05
-1.00300e-02,-0.0565625,-0.000724688
-1.00290e-02,-0.0567187,-0.00052125
-1.00280e-02,-0.0667188,-6.5625e-05
-1.00270e-02,-0.055,0.00025125
-1.00260e-02,-0.0532813,0.000320625
-1.00250e-02,-0.0495312,-0.00109719
-1.00240e-02,-0.0629688,0.000577813
-1.00230e-02,-0.0596875,-5.40625e-05
-1.00220e-02,-0.0573437,-0.00075375
-1.00210e-02,-0.0642188,-7.9375e-05
-1.00200e-02,-0.0496875,-0.000775
-1.00190e-02,-0.0598438,0.000297188
-1.00180e-02,-0.0623438,-9.6875e-05
-1.00170e-02,-0.0560937,-0.000395625
-1.00160e-02,-0.0685937,-0.000365313
-1.00150e-02,-0.0592188,-0.000205313
-1.00140e-02,-0.0539063,-0.000445313
-1.00130e-02,-0.058125,-0.000105
-1.00120e-02,-0.0671875,-0.000275625
-1.00110e-02,-0.0601562,-5.25e-05
-1.00100e-02,-0.0579687,0.000191563
-1.00090e-02,-0.0567187,-0.000898438
-1.00080e-02,-0.06125,-0.000134375
-1.00070e-02,-0.0682813,-0.00027
-1.00060e-02,-0.0617188,-0.00037125
-1.00050e-02,-0.05625,-7.34375e-05
-1.00040e-02,-0.0575,-0.000224688
-1.00030e-02,-0.065,-2.625e-05
-1.00020e-02,-0.0514063,-0.000240313
-1.00010e-02,-0.0551563,0.000495938
-1.00000e-02,-0.058125,-0.000425313
-9.99900e-03,-0.056875,-0.000847813
-9.99800e-03,-0.0446875,0.000198438
-9.99700e-03,-0.058125,-0.000503438
-9.99600e-03,-0.0589063,0.000511563
-9.99500e-03,-0.0560937,-0.000243125
-9.99400e-03,-0.0664062,-0.000399375
-9.99300e-03,-0.0503125,0.000212188
-9.99200e-03,-0.0545313,0.000220313
-9.99100e-03,-0.055625,0.000230625
-9.99000e-03,-0.0659375,0.00033125
-9.98900e-03,-0.0628125,0.00032875
-9.98800e-03,-0.0525,0.000300938
-9.98700e-03,-0.0596875,4.90625e-05
-9.98600e-03,-0.0610938,-0.000214063
-9.98500e-03,-0.0598438,-0.000250938
-9.98400e-03,-0.0645312,-6.53125e-05
-9.98300e-03,-0.0546875,-4.71875e-05
-9.98200e-03,-0.0626562,-8.96875e-05
-9.98100e-03,-0.06125,-8.71875e-05
-9.98000e-03,-0.0578125,-4.75e-05
-9.97900e-03,-0.0726563,0.000258438
-9.97800e-03,-0.0490625,0.000163438
-9.97700e-03,-0.0628125,0.000144375
-9.97600e-03,-0.0635938,0.000230938
-9.97500e-03,-0.0646875,0.000138125
-9.97400e-03,-0.0584375,-0.000313438
-9.97300e-03,-0.063125,0.00011125
-9.97200e-03,-0.0579687,-0.000352188
-9.97100e-03,-0.06375,2.15625e-05
-9.97000e-03,-0.05,0.000212188
-9.96900e-03,-0.045625,0.00031375
-9.96800e-03,-0.0595313,-5.25e-05
-9.96700e-03,-0.05875,0.00011625
-9.96600e-03,-0.0598438,0.000315938
-9.96500e-03,-0.0634375,3.8125e-05
-9.96400e-03,-0.0496875,-5.0625e-05
-9.96300e-03,-0.0648438,4.21875e-05
-9.96200e-03,-0.0573437,-0.000633438
-9.96100e-03,-0.0525,0.000399063
-9.96000e-03,-0.0567187,0.000165625
-9.95900e-03,-0.0559375,-0.00033375
-9.95800e-03,-0.05375,0.000324688
-9.95700e-03,-0.0590625,-8.8125e-05
-9.95600e-03,-0.0545313,0.000177188
-9.95500e-03,-0.0553125,0.000302813
-9.95400e-03,-0.0542187,-0.000380313
-9.95300e-03,-0.0565625,-0.000284688
-9.95200e-03,-0.053125,-0.000359688
-9.95100e-03,-0.061875,-3.5e-05
-9.95000e-03,-0.0657812,-0.000418125
-9.94900e-03,-0.060625,-0.000275
-9.94800e-03,-0.0590625,-0.000674688
-9.94700e-03,-0.0509375,-0.000145938
-9.94600e-03,-0.0535937,-2.8125e-06
-9.94500e-03,-0.0615625,0.000507188
-9.94400e-03,-0.0640625,-0.000431875
-9.94300e-03,-0.0557813,0.000338438
-9.94200e-03,-0.0490625,0.00022375
-9.94100e-03,-0.0540625,-0.000160938
-9.94000e-03,-0.0554687,0.000291875
-9.93900e-03,-0.0510938,-0.000475938
-9.93800e-03,-0.0565625,0.000287813
-9.93700e-03,-0.0535937,0.000408438
-9.93600e-03,-0.0557813,0.000205938
-9.93500e-03,-0.056875,-0.000436563
-9.93400e-03,-0.0584375,0.0001025
-9.93300e-03,-0.06125,0.000814375
-9.93200e-03,-0.05,8.21875e-05
-9.93100e-03,-0.0510938,0.000267188
-9.93000e-03,-0.0635938,-0.000391563
-9.92900e-03,-0.060625,-0.000133125
-9.92800e-03,-0.0554687,0.00034625
-9.92700e-03,-0.0625,-0.000218125
-9.92600e-03,-0.0564063,0.000148125
-9.92500e-03,-0.0684375,0.00015125
-9.92400e-03,-0.0728125,-5.40625e-05
-9.92300e-03,-0.0504687,0.000310938
-9.92200e-03,-0.055,-0.000629375
-9.92100e-03,-0.0526563,-0.000333438
-9.92000e-03,-0.0554687,-0.000189375
-9.91900e-03,-0.0525,0.00044875
-9.91800e-03,-0.060625,0.000327188
-9.91700e-03,-0.0548437,-0.000640313
-9.91600e-03,-0.0526563,0.000175938
-9.91500e-03,-0.0560937,-0.000172188
-9.91400e-03,-0.0601562,-9.8125e-05
-9.91300e-03,-0.05375,-0.000949375
-9.91200e-03,-0.0621875,-0.000219688
-9.91100e-03,-0.0598438,-0.000432813
-9.91000e-03,-0.0609375,0.000252188
-9.90900e-03,-0.0546875,0.000156875
-9.90800e-03,-0.0401563,-0.000485938
-9.90700e-03,-0.0653125,3.0625e-05
-9.90600e-03,-0.0579687,-0.000620625
-9.90500e-03,-0.055625,0.00026125
-9.90400e-03,-0.0453125,-0.000397813
-9.90300e-03,-0.0617188,-0.000382813
-9.90200e-03,-0.05125,0.000269688
-9.90100e-03,-0.0528125,-0.00028625
-9.90000e-03,-0.063125,-9.09375e-05
-9.89900e-03,-0.0545313,0.000154688
-9.89800e-03,-0.065625,-0.000263437
-9.89700e-03,-0.06625,0.000406563
-9.89600e-03,-0.0560937,-0.00052375
-9.89500e-03,-0.0567187,0.000227813
-9.89400e-03,-0.063125,-0.000288125
-9.89300e-03,-0.0439063,-0.000475
-9.89200e-03,-0.0432813,7.625e-05
-9.89100e-03,-0.050625,-0.00053625
-9.89000e-03,-0.0496875,-0.000400313
-9.88900e-03,-0.06375,2.28125e-05
-9.88800e-03,-0.06125,-6.96875e-05
-9.88700e-03,-0.0595313,-0.000154375
-9.88600e-03,-0.0623438,-0.000206875
-9.88500e-03,-0.056875,-0.000507188
-9.88400e-03,-0.0496875,-0.000163438
-9.88300e-03,-0.059375,-6.3125e-05
-9.88200e-03,-0.0509375,-0.000302188
-9.88100e-03,-0.0507812,-0.000319375
-9.88000e-03,-0.0592188,6.25e-07
-9.87900e-03,-0.0625,-5.9375e-05
-9.87800e-03,-0.0525,-0.000255938
-9.87700e-03,-0.0567187,-0.000502813
-9.87600e-03,-0.0603125,-0.000330625
-9.87500e-03,-0.0532813,-0.000374375
-9.87400e-03,-0.0585938,-0.000192813
-9.87300e-03,-0.0545313,4.34375e-05
-9.87200e-03,-0.059375,-0.000542813
-9.87100e-03,-0.0523437,-4.65625e-05
-9.87000e-03,-0.0585938,-0.000315625
-9.86900e-03,-0.0525,-9.5625e-05
-9.86800e-03,-0.054375,-0.000275938
-9.86700e-03,-0.0598438,-1.6875e-05
-9.86600e-03,-0.053125,3.40625e-05
-9.86500e-03,-0.0551563,-0.000407813
-9.86400e-03,-0.059375,0.000491875
-9.86300e-03,-0.0573437,-0.000394063
-9.86200e-03,-0.0539063,-0.000339688
-9.86100e-03,-0.058125,-2.53125e-05
-9.86000e-03,-0.0525,-0.000580938
-9.85900e-03,-0.05125,0.000282813
-9.85800e-03,-0.0514063,-0.000114688
-9.85700e-03,-0.05125,-0.00054875
-9.85600e-03,-0.0584375,5.4375e-05
-9.85500e-03,-0.0564063,3.34375e-05
-9.85400e-03,-0.0528125,0.000144688
-9.85300e-03,-0.0565625,0.000226875
-9.85200e-03,-0.0526563,1.875e-06
-9.85100e-03,-0.0654688,-6.75e-05
-9.85000e-03,-0.0546875,-8.375e-05
-9.84900e-03,-0.055625,-0.000312188
-9.84800e-03,-0.05125,-9.78125e-05
-9.84700e-03,-0.0620312,-0.000449375
-9.84600e-03,-0.0617188,0.00021625
-9.84500e-03,-0.063125,-5.28125e-05
-9.84400e-03,-0.05375,-0.000695
-9.84300e-03,-0.0496875,8.75e-05
-9.84200e-03,-0.0570313,-0.000560938
-9.84100e-03,-0.05375,0.000203125
-9.84000e-03,-0.0523437,-0.000444688
-9.83900e-03,-0.0567187,-0.00059875
-9.83800e-03,-0.0470312,-0.000100313
-9.83700e-03,-0.0503125,-0.0004125
-9.83600e-03,-0.0534375,-0.000339063
-9.83500e-03,-0.0595313,-0.0003325
-9.83400e-03,-0.0670313,-0.000287188
-9.83300e-03,-0.061875,-0.000563438
-9.83200e-03,-0.0457813,-0.000220313
-9.83100e-03,-0.0659375,-0.000235
-9.83000e-03,-0.0604688,-6.84375e-05
-9.82900e-03,-0.0459375,0.000443438
-9.82800e-03,-0.063125,-0.000642813
-9.82700e-03,-0.0575,-0.000108438
-9.82600e-03,-0.0423437,-0.000250313
-9.82500e-03,-0.0546875,4.21875e-05
-9.82400e-03,-0.0601562,-0.000288438
-9.82300e-03,-0.0495312,-0.000469375
-9.82200e-03,-0.049375,-0.000645938
-9.82100e-03,-0.0490625,-5.0625e-05
-9.82000e-03,-0.0470312,0.000364375
-9.81900e-03,-0.0559375,-0.00021125
-9.81800e-03,-0.059375,0.00011
-9.81700e-03,-0.049375,0.000285
-9.81600e-03,-0.0579687,0.00024375
-9.81500e-03,-0.0575,-0.0003775
-9.81400e-03,-0.0648438,-0.000203125
-9.81300e-03,-0.0465625,-0.000384375
-9.81200e-03,-0.0495312,-4.5625e-05
-9.81100e-03,-0.0567187,0.000118125
-9.81000e-03,-0.053125,-0.000568125
-9.80900e-03,-0.0596875,-0.0002575
-9.80800e-03,-0.0590625,-0.000146563
-9.80700e-03,-0.059375,-1.4375e-05
-9.80600e-03,-0.0540625,-0.000218438
-9.80500e-03,-0.0478125,4.25e-05
-9.80400e-03,-0.058125,-3.875e-05
-9.80300e-03,-0.0696875,-0.00012875
-9.80200e-03,-0.0646875,0.00037125
-9.80100e-03,-0.0473438,0.000161875
-9.80000e-03,-0.05875,0.000346563
-9.79900e-03,-0.0664062,-0.000155313
-9.79800e-03,-0.0573437,0.000160625
-9.79700e-03,-0.0590625,0.000290625
-9.79600e-03,-0.0590625,0.00011
-9.79500e-03,-0.05375,0.000309063
-9.79400e-03,-0.0575,-5e-05
-9.79300e-03,-0.056875,0.000234375
-9.79200e-03,-0.053125,3.3125e-05
-9.79100e-03,-0.065,0.000610313
-9.79000e-03,-0.0570313,0.000294375
-9.78900e-03,-0.0592188,0.00020375
-9.78800e-03,-0.0592188,0.00012375
-9.78700e-03,-0.050625,-0.000100938
-9.78600e-03,-0.0484375,0.00027375
-9.78500e-03,-0.0565625,-0.000150313
-9.78400e-03,-0.0560937,8.4375e-05
-9.78300e-03,-0.0540625,-0.000171875
-9.78200e-03,-0.0482812,-0.0001575
-9.78100e-03,-0.0464062,6.90625e-05
-9.78000e-03,-0.0553125,6.3125e-05
-9.77900e-03,-0.0546875,-0.00043875
-9.77800e-03,-0.058125,-0.000640625
-9.77700e-03,-0.0539063,-0.000343125
-9.77600e-03,-0.0582813,-0.000351875
-9.77500e-03,-0.05625,-0.000382188
-9.77400e-03,-0.06,-0.000390313
-9.77300e-03,-0.0567187,-0.000106563
-9.77200e-03,-0.0695313,-0.000272188
-9.77100e-03,-0.0417187,-0.00017625
-9.77000e-03,-0.0592188,-0.000225
-9.76900e-03,-0.056875,5.40625e-05
-9.76800e-03,-0.0576563,-3.21875e-05
-9.76700e-03,-0.06125,-0.000524063
-9.76600e-03,-0.0748438,0.00044125
-9.76500e-03,-0.0640625,3.96875e-05
-9.76400e-03,-0.0567187,-0.000298125
-9.76300e-03,-0.0582813,-0.00030375
-9.76200e-03,-0.0592188,-0.000300938
-9.76100e-03,-0.04875,-0.000702188
-9.76000e-03,-0.0590625,4.5625e-05
-9.75900e-03,-0.0595313,-0.000595
-9.75800e-03,-0.0585938,-0.000149687
-9.75700e-03,-0.055,-0.000190938
-9.75600e-03,-0.0657812,-0.0005575
-9.75500e-03,-0.056875,7.03125e-05
-9.75400e-03,-0.0598438,-0.000810625
-9.75300e-03,-0.04125,0.000199375
-9.75200e-03,-0.0535937,-0.000228125
-9.75100e-03,-0.0553125,-5.9375e-06
-9.75000e-03,-0.0710937,0.000222813
-9.74900e-03,-0.0592188,-1.09375e-05
-9.74800e-03,-0.05875,0.000559375
-9.74700e-03,-0.05375,0.000224063
-9.74600e-03,-0.0532813,0.000258438
-9.74500e-03,-0.0604688,0.0002775
-9.74400e-03,-0.0567187,0.000696563
-9.74300e-03,-0.0532813,-6.3125e-05
-9.74200e-03,-0.06,0.000456563
-9.74100e-03,-0.051875,5.625e-06
-9.74000e-03,-0.056875,-0.000721563
-9.73900e-03,-0.0601562,-0.000135938
-9.73800e-03,-0.0567187,0.00017875
-9.73700e-03,-0.0573437,-0.0003925
-9.73600e-03,-0.05625,0.000305313
-9.73500e-03,-0.05625,-0.000307188
-9.73400e-03,-0.0640625,0.0006025
-9.73300e-03,-0.0515625,5.1875e-05
-9.73200e-03,-0.0579687,4.59375e-05
-9.73100e-03,-0.0526563,0.000706563
-9.73000e-03,-0.0535937,-1.3125e-05
-9.72900e-03,-0.0590625,0.000443125
-9.72800e-03,-0.0539063,-4.875e-05
-9.72700e-03,-0.0578125,1.59375e-05
-9.72600e-03,-0.0604688,0.000351875
-9.72500e-03,-0.05125,0.000463125
-9.72400e-03,-0.0565625,6.15625e-05
-9.72300e-03,-0.0646875,7.65625e-05
-9.72200e-03,-0.0678125,5.90625e-05
-9.72100e-03,-0.0532813,-0.000918125
-9.72000e-03,-0.0482812,-0.000119375
-9.71900e-03,-0.0653125,-0.000193125
-9.71800e-03,-0.05875,-0.00048125
-9.71700e-03,-0.0595313,0.000521562
-9.71600e-03,-0.0590625,0.0001
-9.71500e-03,-0.0489062,-0.000133125
-9.71400e-03,-0.0565625,-8.03125e-05
-9.71300e-03,-0.0609375,-6.75e-05
-9.71200e-03,-0.0692187,-0.000192813
-9.71100e-03,-0.0642188,-0.000211563
-9.71000e-03,-0.0590625,-0.000655313
-9.70900e-03,-0.0517188,-0.000101875
-9.70800e-03,-0.0665625,-0.000315625
-9.70700e-03,-0.0501562,-0.000144688
-9.70600e-03,-0.046875,-0.000127813
-9.70500e-03,-0.0578125,-0.00106313
-9.70400e-03,-0.0679688,-0.000104375
-9.70300e-03,-0.0651562,-0.000196875
-9.70200e-03,-0.055625,-7.46875e-05
-9.70100e-03,-0.0545313,-0.00048
-9.70000e-03,-0.05875,-0.00015875
-9.69900e-03,-0.0473438,0.00011875
-9.69800e-03,-0.0557813,8.9375e-05
-9.69700e-03,-0.0534375,8.84375e-05
-9.69600e-03,-0.0646875,-0.000303438
-9.69500e-03,-0.0517188,-0.000240938
-9.69400e-03,-0.0629688,0.0002625
-9.69300e-03,-0.0526563,-4.125e-05
-9.69200e-03,-0.0617188,-0.000245625
-9.69100e-03,-0.0525,5e-06
-9.69000e-03,-0.058125,-5.6875e-05
-9.68900e-03,-0.0567187,-0.000417188
-9.68800e-03,-0.0639062,-6.15625e-05
-9.68700e-03,-0.054375,-0.000367813
-9.68600e-03,-0.06,0.000294688
-9.68500e-03,-0.0582813,-0.000397813
-9.68400e-03,-0.053125,-0.000281563
-9.68300e-03,-0.0435938,4.46875e-05
-9.68200e-03,-0.0645312,-0.000137188
-9.68100e-03,-0.06,-3.5625e-05
-9.68000e-03,-0.0532813,-0.000295313
-9.67900e-03,-0.044375,-0.000410938
