nmr/data/tek0017.csv

Model,MDO4054-3
Firmware Version,2.20

Waveform Type,ANALOG,
Point Format,Y,
Horizontal Units,s,
Horizontal Scale,0.01,
Horizontal Delay,0.03977,
Sample Interval,1e-05,
Record Length,10000,
Gating,0.0% to 100.0%,
Probe Attenuation,1,
Vertical Units,V,
Vertical Offset,0,
Vertical Scale,1,
Vertical Position,0.02,
,,
,,
,,
Label,,
TIME,CH1,CH2
-1.0230e-02,-0.06125,0.00029625
-1.0220e-02,-0.0623438,-0.000613125
-1.0210e-02,-0.0545313,-0.000466875
-1.0200e-02,-0.0482812,0.000349063
-1.0190e-02,-0.0446875,-0.000215313
-1.0180e-02,-0.0482812,-0.000437188
-1.0170e-02,-0.0514063,-0.000678438
-1.0160e-02,-0.0371875,-0.000875625
-1.0150e-02,-0.0317188,-0.000156875
-1.0140e-02,-0.0660938,-0.000460938
-1.0130e-02,-0.0604688,0.000204063
-1.0120e-02,-0.0459375,-0.000510313
-1.0110e-02,-0.0365625,0.000125313
-1.0100e-02,-0.0623438,-0.000198438
-1.0090e-02,-0.0496875,-0.000183438
-1.0080e-02,-0.0473438,4e-05
-1.0070e-02,-0.0464062,-8.71875e-05
-1.0060e-02,-0.0542187,0.000165313
-1.0050e-02,-0.05125,0.000231563
-1.0040e-02,-0.0559375,-0.00035375
-1.0030e-02,-0.058125,0.0001025
-1.0020e-02,-0.0501562,0.0001
-1.0010e-02,-0.044375,-7.15625e-05
-1.0000e-02,-0.0584375,-0.000288125
-9.9900e-03,-0.0510938,-0.000236563
-9.9800e-03,-0.050625,-0.000326563
-9.9700e-03,-0.0554687,0.000138438
-9.9600e-03,-0.0410937,2.59375e-05
-9.9500e-03,-0.0421875,-0.000651563
-9.9400e-03,-0.0576563,-7.5625e-05
-9.9300e-03,-0.0514063,-5.25e-05
-9.9200e-03,-0.0573437,-0.000163125
-9.9100e-03,-0.050625,-0.000211563
-9.9000e-03,-0.0545313,-0.000118438
-9.8900e-03,-0.0553125,4.84375e-05
-9.8800e-03,-0.050625,0.0004275
-9.8700e-03,-0.0542187,-0.000149063
-9.8600e-03,-0.0515625,0.000393438
-9.8500e-03,-0.05375,0.000238438
-9.8400e-03,-0.0465625,0.000250938
-9.8300e-03,-0.05375,9.6875e-05
-9.8200e-03,-0.0607812,-0.000105625
-9.8100e-03,-0.043125,0.000137813
-9.8000e-03,-0.0423437,-3.875e-05
-9.7900e-03,-0.0576563,0.000221563
-9.7800e-03,-0.059375,1.9375e-05
-9.7700e-03,-0.0621875,0.000464688
-9.7600e-03,-0.048125,-0.000127813
-9.7500e-03,-0.0464062,-0.000274063
-9.7400e-03,-0.0482812,-9.40625e-05
-9.7300e-03,-0.059375,-0.000489375
-9.7200e-03,-0.0634375,-0.000396563
-9.7100e-03,-0.0601562,-1.78125e-05
-9.7000e-03,-0.0403125,0.00071
-9.6900e-03,-0.0540625,0.000377188
-9.6800e-03,-0.0498438,-0.000916563
-9.6700e-03,-0.0532813,0.000318438
-9.6600e-03,-0.05125,0.000549375
-9.6500e-03,-0.0559375,-0.000751563
-9.6400e-03,-0.0585938,1.03125e-05
-9.6300e-03,-0.06625,-0.000332188
-9.6200e-03,-0.0539063,-8.9375e-05
-9.6100e-03,-0.058125,-0.000134063
-9.6000e-03,-0.0607812,-0.0004875
-9.5900e-03,-0.0553125,0.00010625
-9.5800e-03,-0.05,-0.00030875
-9.5700e-03,-0.0557813,-9.1875e-05
-9.5600e-03,-0.0548437,-4.875e-05
-9.5500e-03,-0.058125,0.000257188
-9.5400e-03,-0.0459375,-7.65625e-05
-9.5300e-03,-0.0523437,0.000223125
-9.5200e-03,-0.0545313,-3.78125e-05
-9.5100e-03,-0.0576563,-0.000166563
-9.5000e-03,-0.0551563,-0.000319063
-9.4900e-03,-0.0448438,-0.00063125
-9.4800e-03,-0.054375,-0.00038875
-9.4700e-03,-0.0585938,-0.000423438
-9.4600e-03,-0.0509375,0.000507813
-9.4500e-03,-0.0546875,-7.34375e-05
-9.4400e-03,-0.0621875,-4.375e-06
-9.4300e-03,-0.0465625,0.000117813
-9.4200e-03,-0.0554687,-0.000162813
-9.4100e-03,-0.060625,-0.000532813
-9.4000e-03,-0.0517188,-6.125e-05
-9.3900e-03,-0.0503125,-0.000368438
-9.3800e-03,-0.04625,-0.000804375
-9.3700e-03,-0.05375,-0.00060875
-9.3600e-03,-0.051875,-0.00045375
-9.3500e-03,-0.0442188,-0.000491875
-9.3400e-03,-0.0509375,-0.000747188
-9.3300e-03,-0.0557813,-0.00093375
-9.3200e-03,-0.0548437,-0.0002675
-9.3100e-03,-0.048125,-0.000357188
-9.3000e-03,-0.0534375,-0.000935938
-9.2900e-03,-0.0584375,-0.000837813
-9.2800e-03,-0.0570313,-0.000933438
-9.2700e-03,-0.0415625,-0.00103688
-9.2600e-03,-0.0476562,-0.000905625
-9.2500e-03,-0.0590625,-0.00042125
-9.2400e-03,-0.0595313,0.000279688
-9.2300e-03,-0.0615625,-0.000437188
-9.2200e-03,-0.0551563,-0.000185938
-9.2100e-03,-0.0535937,-0.0006225
-9.2000e-03,-0.0510938,0.000180313
-9.1900e-03,-0.0539063,-0.000126563
-9.1800e-03,-0.0546875,0.000972813
-9.1700e-03,-0.0540625,0.00071625
-9.1600e-03,-0.0490625,0.000151563
-9.1500e-03,-0.0573437,-0.000173438
-9.1400e-03,-0.0482812,-0.000167813
-9.1300e-03,-0.0615625,0.000625
-9.1200e-03,-0.0553125,-0.000100938
-9.1100e-03,-0.0621875,-0.000158125
-9.1000e-03,-0.0521875,-0.000259375
-9.0900e-03,-0.0534375,-5.21875e-05
-9.0800e-03,-0.0479688,-0.00063125
-9.0700e-03,-0.0464062,-0.000133125
-9.0600e-03,-0.0551563,-0.000617813
-9.0500e-03,-0.059375,6.125e-05
-9.0400e-03,-0.0564063,0.000334063
-9.0300e-03,-0.0504687,-0.00035375
-9.0200e-03,-0.0564063,-0.000330625
-9.0100e-03,-0.0601562,0.000759688
-9.0000e-03,-0.0514063,-0.000109688
-8.9900e-03,-0.0528125,-0.000204688
-8.9800e-03,-0.0585938,8.125e-06
-8.9700e-03,-0.0523437,7e-05
-8.9600e-03,-0.0540625,-0.00027625
-8.9500e-03,-0.0601562,-0.000418125
-8.9400e-03,-0.0515625,-0.000532187
-8.9300e-03,-0.053125,0.000168125
-8.9200e-03,-0.0575,-0.000365625
-8.9100e-03,-0.0509375,-0.000265313
-8.9000e-03,-0.046875,-0.000436563
-8.8900e-03,-0.0510938,-0.000424375
-8.8800e-03,-0.0564063,-0.000274063
-8.8700e-03,-0.0565625,-0.000780625
-8.8600e-03,-0.0457813,-0.00038375
-8.8500e-03,-0.0559375,-0.000111875
-8.8400e-03,-0.0496875,-0.000389375
-8.8300e-03,-0.0490625,-0.000449375
-8.8200e-03,-0.0504687,-0.000189688
-8.8100e-03,-0.0523437,-5.0625e-05
-8.8000e-03,-0.05375,0.00015875
-8.7900e-03,-0.0492188,0.000379063
-8.7800e-03,-0.0632812,-0.000782188
-8.7700e-03,-0.0423437,-0.000157813
-8.7600e-03,-0.04625,-0.000440313
-8.7500e-03,-0.0629688,-0.000496563
-8.7400e-03,-0.0520313,-9.96875e-05
-8.7300e-03,-0.0504687,-3.15625e-05
-8.7200e-03,-0.0514063,-0.000333125
-8.7100e-03,-0.0503125,0.000298438
-8.7000e-03,-0.0621875,0.000583438
-8.6900e-03,-0.0598438,0.000151563
-8.6800e-03,-0.0548437,-8.875e-05
-8.6700e-03,-0.0573437,0.000209375
-8.6600e-03,-0.0575,9.8125e-05
-8.6500e-03,-0.0573437,0.000281875
-8.6400e-03,-0.04,9.3125e-05
-8.6300e-03,-0.0509375,0.000118438
-8.6200e-03,-0.056875,0.000199063
-8.6100e-03,-0.0532813,-1.5e-05
-8.6000e-03,-0.0520313,-8.75e-06
-8.5900e-03,-0.0484375,-0.000490938
-8.5800e-03,-0.0553125,-0.000493125
-8.5700e-03,-0.0626562,3.625e-05
-8.5600e-03,-0.05625,-0.000520313
-8.5500e-03,-0.0595313,0.000309063
-8.5400e-03,-0.0523437,9.375e-05
-8.5300e-03,-0.0520313,-0.000562188
-8.5200e-03,-0.0559375,-0.000405625
-8.5100e-03,-0.0576563,0.000205938
-8.5000e-03,-0.0448438,-0.00068
-8.4900e-03,-0.0603125,-6.53125e-05
-8.4800e-03,-0.0471875,0.00049625
-8.4700e-03,-0.0617188,-7.28125e-05
-8.4600e-03,-0.054375,-0.000229063
-8.4500e-03,-0.0553125,-0.00038875
-8.4400e-03,-0.061875,-0.000294688
-8.4300e-03,-0.0364063,-0.000756563
-8.4200e-03,-0.0528125,0.000493125
-8.4100e-03,-0.0496875,1.625e-05
-8.4000e-03,-0.0515625,-9.375e-07
-8.3900e-03,-0.053125,4.9375e-05
-8.3800e-03,-0.0479688,-0.000394375
-8.3700e-03,-0.04625,0.000529063
-8.3600e-03,-0.0579687,7.09375e-05
-8.3500e-03,-0.0540625,0.000103438
-8.3400e-03,-0.05625,-0.0001125
-8.3300e-03,-0.0432813,0.000151563
-8.3200e-03,-0.0482812,0.000223438
-8.3100e-03,-0.055,0.000155938
-8.3000e-03,-0.0528125,-0.000444375
-8.2900e-03,-0.0396875,-0.000250625
-8.2800e-03,-0.0495312,-0.000616563
-8.2700e-03,-0.0576563,0.000224375
-8.2600e-03,-0.0678125,2.1875e-06
-8.2500e-03,-0.0398437,-0.000317813
-8.2400e-03,-0.0576563,-0.00022
-8.2300e-03,-0.0559375,-7.65625e-05
-8.2200e-03,-0.0521875,8.6875e-05
-8.2100e-03,-0.0620312,-3e-05
-8.2000e-03,-0.0590625,-0.00025
-8.1900e-03,-0.0548437,-0.000551563
-8.1800e-03,-0.0590625,-0.000104063
-8.1700e-03,-0.0554687,-5.625e-05
-8.1600e-03,-0.0470312,0.000195313
-8.1500e-03,-0.0457813,-0.000456875
-8.1400e-03,-0.0446875,-0.000677188
-8.1300e-03,-0.0467188,-0.00027875
-8.1200e-03,-0.0509375,0.0002625
-8.1100e-03,-0.0510938,-0.0005075
-8.1000e-03,-0.058125,-0.00054875
-8.0900e-03,-0.0564063,-0.000273438
-8.0800e-03,-0.055625,-0.000121563
-8.0700e-03,-0.0629688,-0.0001025
-8.0600e-03,-0.0595313,-0.000582188
-8.0500e-03,-0.0604688,-0.000424375
-8.0400e-03,-0.0495312,-0.000103125
-8.0300e-03,-0.0564063,-0.00073625
-8.0200e-03,-0.0535937,0.000635313
-8.0100e-03,-0.0392187,0.000849688
-8.0000e-03,-0.0557813,-0.000461875
-7.9900e-03,-0.05875,0.000512188
-7.9800e-03,-0.0485938,-5.78125e-05
-7.9700e-03,-0.04625,0.000175
-7.9600e-03,-0.0523437,9.78125e-05
-7.9500e-03,-0.0403125,-0.000406875
-7.9400e-03,-0.0553125,-0.000415313
-7.9300e-03,-0.04625,0.000205938
-7.9200e-03,-0.0534375,6.40625e-05
-7.9100e-03,-0.053125,0.00028125
-7.9000e-03,-0.0617188,5.4375e-05
-7.8900e-03,-0.0604688,5.5e-05
-7.8800e-03,-0.0476562,-0.000392188
-7.8700e-03,-0.046875,-5.6875e-05
-7.8600e-03,-0.0470312,0.00012125
-7.8500e-03,-0.0585938,-0.000424063
-7.8400e-03,-0.0564063,0.000140938
-7.8300e-03,-0.055625,0.000660938
-7.8200e-03,-0.051875,-0.0002175
-7.8100e-03,-0.0665625,-0.000503125
-7.8000e-03,-0.0460938,0.000112188
-7.7900e-03,-0.0592188,-0.000390938
-7.7800e-03,-0.0539063,-0.0002425
-7.7700e-03,-0.0498438,-0.000186563
-7.7600e-03,-0.0498438,-2.3125e-05
-7.7500e-03,-0.0567187,9.21875e-05
-7.7400e-03,-0.0445313,-2.5e-06
-7.7300e-03,-0.0567187,-0.00100781
-7.7200e-03,-0.0478125,-0.000228438
-7.7100e-03,-0.0384375,0.00046875
-7.7000e-03,-0.043125,-0.00011125
-7.6900e-03,-0.03,-0.000273125
-7.6800e-03,-0.053125,-0.000425625
-7.6700e-03,-0.0484375,-0.000706563
-7.6600e-03,-0.0570313,-0.000492813
-7.6500e-03,-0.0525,-0.000234063
-7.6400e-03,-0.0642188,-0.0002775
-7.6300e-03,-0.060625,-3.15625e-05
-7.6200e-03,-0.0610938,-0.000519688
-7.6100e-03,-0.0440625,-0.000785313
-7.6000e-03,-0.0496875,-0.000103438
-7.5900e-03,-0.053125,-0.000170938
-7.5800e-03,-0.0498438,-0.000464063
-7.5700e-03,-0.0464062,-9.09375e-05
-7.5600e-03,-0.0517188,-0.00034125
-7.5500e-03,-0.0514063,-0.00016875
-7.5400e-03,-0.044375,-0.00060125
-7.5300e-03,-0.0425,-0.000376563
-7.5200e-03,-0.0582813,-9.28125e-05
-7.5100e-03,-0.0467188,-0.00011
-7.5000e-03,-0.051875,-0.000330625
-7.4900e-03,-0.0560937,1.34375e-05
-7.4800e-03,-0.0548437,-0.000135313
-7.4700e-03,-0.0595313,-0.000288438
-7.4600e-03,-0.0626562,-0.000485313
-7.4500e-03,-0.0540625,0.000354063
-7.4400e-03,-0.0485938,-0.00025375
-7.4300e-03,-0.0585938,-0.000600313
-7.4200e-03,-0.0578125,-0.000449063
-7.4100e-03,-0.054375,-0.000356875
-7.4000e-03,-0.0546875,-0.000264063
-7.3900e-03,-0.05875,-8.0625e-05
-7.3800e-03,-0.0421875,-0.000358438
-7.3700e-03,-0.0603125,-0.000335313
-7.3600e-03,-0.0521875,-0.000109063
-7.3500e-03,-0.0364063,5.96875e-05
-7.3400e-03,-0.0589063,0.000301563
-7.3300e-03,-0.061875,0.000301563
-7.3200e-03,-0.0503125,0.000169063
-7.3100e-03,-0.0567187,0.000384063
-7.3000e-03,-0.0579687,0.000139688
-7.2900e-03,-0.05125,-2.5e-06
-7.2800e-03,-0.0482812,-0.000386875
-7.2700e-03,-0.0598438,-0.0009375
-7.2600e-03,-0.0420312,-0.000654375
-7.2500e-03,-0.0534375,-0.000316563
-7.2400e-03,-0.0573437,-0.000479375
-7.2300e-03,-0.0475,-0.000897188
-7.2200e-03,-0.0514063,0.000246563
-7.2100e-03,-0.0471875,0.000100625
-7.2000e-03,-0.055,0.000161563
-7.1900e-03,-0.0514063,-0.000148438
-7.1800e-03,-0.0573437,-0.000245938
-7.1700e-03,-0.046875,-0.000224688
-7.1600e-03,-0.04875,-0.000316563
-7.1500e-03,-0.049375,9.0625e-06
-7.1400e-03,-0.045,-0.000339063
-7.1300e-03,-0.0565625,-3.6875e-05
-7.1200e-03,-0.0559375,-5.625e-05
-7.1100e-03,-0.060625,-0.000134688
-7.1000e-03,-0.0571875,-0.00022125
-7.0900e-03,-0.0590625,0.000182188
-7.0800e-03,-0.0540625,9.96875e-05
-7.0700e-03,-0.0628125,0.000229063
-7.0600e-03,-0.049375,-3.90625e-05
-7.0500e-03,-0.0570313,-0.000403125
-7.0400e-03,-0.0407813,-0.000680625
-7.0300e-03,-0.0576563,-0.000396875
-7.0200e-03,-0.0521875,7.53125e-05
-7.0100e-03,-0.0604688,-0.000142188
-7.0000e-03,-0.0571875,-0.000442813
-6.9900e-03,-0.0504687,-9.96875e-05
-6.9800e-03,-0.0521875,3.0625e-05
-6.9700e-03,-0.0542187,-0.00019375
-6.9600e-03,-0.0546875,0.000258125
-6.9500e-03,-0.0471875,0.00035125
-6.9400e-03,-0.0553125,0.00043
-6.9300e-03,-0.0429688,-7.625e-05
-6.9200e-03,-0.05375,-4.5625e-05
-6.9100e-03,-0.0575,-0.000142813
-6.9000e-03,-0.0428125,-0.000170938
-6.8900e-03,-0.0540625,-0.000419688
-6.8800e-03,-0.0525,-0.000460938
-6.8700e-03,-0.051875,-0.000606875
-6.8600e-03,-0.0570313,-0.000707813
-6.8500e-03,-0.060625,-0.00042375
-6.8400e-03,-0.0545313,-0.0004075
-6.8300e-03,-0.0584375,-0.000111563
-6.8200e-03,-0.049375,-0.000742813
-6.8100e-03,-0.0429688,0.00023
-6.8000e-03,-0.0526563,-0.000620625
-6.7900e-03,-0.0492188,-0.000138125
-6.7800e-03,-0.0490625,0.000155938
-6.7700e-03,-0.0471875,0.000199375
-6.7600e-03,-0.0534375,-6.71875e-05
-6.7500e-03,-0.0539063,-0.00047125
-6.7400e-03,-0.0448438,-6.375e-05
-6.7300e-03,-0.05875,-0.000147188
-6.7200e-03,-0.0557813,-0.000785313
-6.7100e-03,-0.0595313,-0.00068875
-6.7000e-03,-0.0373438,-0.00057625
-6.6900e-03,-0.0670313,-0.00059625
-6.6800e-03,-0.0617188,-0.000579688
-6.6700e-03,-0.0523437,-0.000432813
-6.6600e-03,-0.0532813,-0.000338438
-6.6500e-03,-0.0557813,0.000104688
-6.6400e-03,-0.0532813,0.000258438
-6.6300e-03,-0.0517188,-0.00015125
-6.6200e-03,-0.0632812,0.000364063
-6.6100e-03,-0.06,-0.0003425
-6.6000e-03,-0.0590625,-0.000149687
-6.5900e-03,-0.0534375,-0.000646563
-6.5800e-03,-0.0548437,-0.000365625
-6.5700e-03,-0.0429688,0.000354063
-6.5600e-03,-0.0548437,0.000553125
-6.5500e-03,-0.0542187,-0.000798125
-6.5400e-03,-0.061875,-0.000860625
-6.5300e-03,-0.0429688,-0.000106875
-6.5200e-03,-0.05125,0.000254063
-6.5100e-03,-0.0607812,-0.000430313
-6.5000e-03,-0.0570313,-0.000104688
-6.4900e-03,-0.0665625,-5.90625e-05
-6.4800e-03,-0.0684375,0.000171875
-6.4700e-03,-0.0482812,7.34375e-05
-6.4600e-03,-0.0514063,-0.000518438
-6.4500e-03,-0.0582813,0.000299688
-6.4400e-03,-0.0451563,-0.000486875
-6.4300e-03,-0.0525,-0.000172813
-6.4200e-03,-0.0542187,-0.000519375
-6.4100e-03,-0.0623438,-0.000476563
-6.4000e-03,-0.0607812,-0.000387813
-6.3900e-03,-0.0526563,-0.000470938
-6.3800e-03,-0.0529687,-2.875e-05
-6.3700e-03,-0.0575,-0.000744375
-6.3600e-03,-0.0659375,0.0001325
-6.3500e-03,-0.040625,-0.000517813
-6.3400e-03,-0.0560937,-0.000262813
-6.3300e-03,-0.0571875,-0.000270625
-6.3200e-03,-0.0585938,-0.0003525
-6.3100e-03,-0.061875,-0.000167813
-6.3000e-03,-0.060625,-0.000612813
-6.2900e-03,-0.0584375,0.000204375
-6.2800e-03,-0.0585938,-0.000270313
-6.2700e-03,-0.06125,-0.000168125
-6.2600e-03,-0.0467188,-0.000129375
-6.2500e-03,-0.0575,-0.00022875
-6.2400e-03,-0.0404687,-0.00038
-6.2300e-03,-0.054375,-0.000965625
-6.2200e-03,-0.056875,-0.00103125
-6.2100e-03,-0.05375,-0.000281875
-6.2000e-03,-0.0567187,-0.000534688
-6.1900e-03,-0.049375,-0.000376875
-6.1800e-03,-0.0546875,-0.00059125
-6.1700e-03,-0.0509375,-0.000363125
-6.1600e-03,-0.0475,-0.000112813
-6.1500e-03,-0.0539063,0.0003975
-6.1400e-03,-0.0534375,-0.000177188
-6.1300e-03,-0.0492188,-8.5e-05
-6.1200e-03,-0.0501562,0.0003625
-6.1100e-03,-0.051875,-0.000271875
-6.1000e-03,-0.0457813,-0.000400313
-6.0900e-03,-0.055,-0.000749375
-6.0800e-03,-0.07,-9.84375e-05
-6.0700e-03,-0.053125,-0.000435
-6.0600e-03,-0.0470312,1.1875e-05
-6.0500e-03,-0.0590625,-0.000421875
-6.0400e-03,-0.0409375,-0.000630625
-6.0300e-03,-0.0567187,-0.000441875
-6.0200e-03,-0.05125,-0.00034875
-6.0100e-03,-0.0445313,0.000234063
-6.0000e-03,-0.0554687,-0.0001275
-5.9900e-03,-0.054375,0.000465625
-5.9800e-03,-0.0523437,-7.40625e-05
-5.9700e-03,-0.0475,-0.000885
-5.9600e-03,-0.0540625,-0.000383438
-5.9500e-03,-0.0442188,0.00026375
-5.9400e-03,-0.0440625,-0.0006525
-5.9300e-03,-0.0534375,-9.875e-05
-5.9200e-03,-0.0595313,0.00013
-5.9100e-03,-0.0646875,-0.000266875
-5.9000e-03,-0.0459375,-7.40625e-05
-5.8900e-03,-0.0484375,-0.000505313
-5.8800e-03,-0.0582813,-0.000210313
-5.8700e-03,-0.0573437,0.000471875
-5.8600e-03,-0.0598438,0.000149063
-5.8500e-03,-0.04875,-0.000225625
-5.8400e-03,-0.0553125,-0.000725625
-5.8300e-03,-0.056875,0.00019375
-5.8200e-03,-0.0551563,0.000107188
-5.8100e-03,-0.0654688,-0.0005325
-5.8000e-03,-0.0492188,-0.000585938
-5.7900e-03,-0.0548437,-0.000115625
-5.7800e-03,-0.0584375,7.1875e-06
-5.7700e-03,-0.0453125,-0.000352813
-5.7600e-03,-0.0542187,1.21875e-05
-5.7500e-03,-0.0595313,-0.00018625
-5.7400e-03,-0.0484375,-1.71875e-05
-5.7300e-03,-0.0460938,-0.0004325
-5.7200e-03,-0.0425,0.000144688
-5.7100e-03,-0.0465625,5.03125e-05
-5.7000e-03,-0.0582813,-0.000127813
-5.6900e-03,-0.0517188,-2.375e-05
-5.6800e-03,-0.0492188,-0.0003925
-5.6700e-03,-0.044375,-0.00023625
-5.6600e-03,-0.0528125,-0.00039875
-5.6500e-03,-0.0576563,-0.000109688
-5.6400e-03,-0.0553125,-0.00049875
-5.6300e-03,-0.04875,0.000144688
-5.6200e-03,-0.0703125,-5.28125e-05
-5.6100e-03,-0.054375,0.0001375
-5.6000e-03,-0.0498438,0.000177188
-5.5900e-03,-0.055,-1.40625e-05
-5.5800e-03,-0.0551563,0.00051375
-5.5700e-03,-0.0557813,0.000865938
-5.5600e-03,-0.0542187,-6.4375e-05
-5.5500e-03,-0.0495312,-0.000189375
-5.5400e-03,-0.050625,-1.625e-05
-5.5300e-03,-0.0485938,-7.59375e-05
-5.5200e-03,-0.0432813,-1.59375e-05
-5.5100e-03,-0.0625,-0.000754688
-5.5000e-03,-0.0501562,-0.000467188
-5.4900e-03,-0.0451563,-0.000664375
-5.4800e-03,-0.0476562,-0.000205313
-5.4700e-03,-0.0459375,-0.000865
-5.4600e-03,-0.0484375,-0.000390625
-5.4500e-03,-0.0590625,-0.0002775
-5.4400e-03,-0.0545313,-0.000235
-5.4300e-03,-0.0504687,-0.000826875
-5.4200e-03,-0.0451563,5.0625e-05
-5.4100e-03,-0.0557813,0.00013125
-5.4000e-03,-0.051875,-0.00106938
-5.3900e-03,-0.0559375,-0.000548125
-5.3800e-03,-0.0601562,-0.000182813
-5.3700e-03,-0.0571875,0.00044
-5.3600e-03,-0.0503125,0.000168125
-5.3500e-03,-0.0479688,-3.125e-05
-5.3400e-03,-0.048125,7.4375e-05
-5.3300e-03,-0.0470312,-6.90625e-05
-5.3200e-03,-0.053125,2.78125e-05
-5.3100e-03,-0.0528125,-0.000295625
-5.3000e-03,-0.0509375,-0.000181875
-5.2900e-03,-0.0634375,0.000139062
-5.2800e-03,-0.0557813,2.59375e-05
-5.2700e-03,-0.065,-0.00064375
-5.2600e-03,-0.0489062,-0.000439375
-5.2500e-03,-0.035,-0.000375313
-5.2400e-03,-0.0559375,-0.000292813
-5.2300e-03,-0.0371875,0.00041875
-5.2200e-03,-0.0521875,0.000300313
-5.2100e-03,-0.0517188,-0.0001225
-5.2000e-03,-0.064375,-0.00041625
-5.1900e-03,-0.0635938,-0.000550625
-5.1800e-03,-0.0504687,-0.000283125
-5.1700e-03,-0.0589063,-0.000315938
-5.1600e-03,-0.053125,0.00031125
-5.1500e-03,-0.048125,-0.00026625
-5.1400e-03,-0.0551563,-0.000549688
-5.1300e-03,-0.0632812,-0.000254375
-5.1200e-03,-0.05375,-0.000347813
-5.1100e-03,-0.0565625,-0.000514688
-5.1000e-03,-0.05125,-0.000102813
-5.0900e-03,-0.0585938,-0.000693125
-5.0800e-03,-0.054375,-6.6875e-05
-5.0700e-03,-0.053125,-0.000322813
-5.0600e-03,-0.0479688,0.000695938
-5.0500e-03,-0.04125,-0.000297188
-5.0400e-03,-0.0610938,-0.000483438
-5.0300e-03,-0.069375,0.000234063
-5.0200e-03,-0.0523437,-0.00020375
-5.0100e-03,-0.0575,-0.0001775
-5.0000e-03,-0.0460938,8.21875e-05
-4.9900e-03,-0.0535937,-0.000206563
-4.9800e-03,-0.0495312,-4.21875e-05
-4.9700e-03,-0.0526563,-0.000229375
-4.9600e-03,-0.0429688,-0.000245313
-4.9500e-03,-0.0459375,-0.000224063
-4.9400e-03,-0.0571875,0.000407813
-4.9300e-03,-0.0467188,-0.000344063
-4.9200e-03,-0.0520313,-0.00046375
-4.9100e-03,-0.0554687,-7.1875e-05
-4.9000e-03,-0.0407813,-0.000558125
-4.8900e-03,-0.0407813,-0.000117188
-4.8800e-03,-0.04875,-0.000753438
-4.8700e-03,-0.05375,-0.000342813
-4.8600e-03,-0.0503125,-0.00022375
-4.8500e-03,-0.0546875,0.000219375
-4.8400e-03,-0.0507812,7.9375e-05
-4.8300e-03,-0.0559375,-0.000132813
-4.8200e-03,-0.0514063,-0.00033375
-4.8100e-03,-0.065625,0.0005175
-4.8000e-03,-0.049375,0.00016375
-4.7900e-03,-0.0528125,0.00039625
-4.7800e-03,-0.0595313,-0.000219375
-4.7700e-03,-0.0496875,-0.000231875
-4.7600e-03,-0.0601562,-0.000224375
-4.7500e-03,-0.0492188,-0.00020625
-4.7400e-03,-0.0496875,-0.000674688
-4.7300e-03,-0.0509375,-1.9375e-05
-4.7200e-03,-0.0514063,-1.1875e-05
-4.7100e-03,-0.051875,-0.000453438
-4.7000e-03,-0.0595313,-1.375e-05
-4.6900e-03,-0.0625,0.000772188
-4.6800e-03,-0.0529687,-1.71875e-05
-4.6700e-03,-0.05,-0.000224688
-4.6600e-03,-0.0535937,-0.000288125
-4.6500e-03,-0.0542187,-0.000244688
-4.6400e-03,-0.0514063,2.28125e-05
-4.6300e-03,-0.0565625,-0.000465938
-4.6200e-03,-0.045,-0.0001525
-4.6100e-03,-0.0610938,-0.000488125
-4.6000e-03,-0.045,-0.0001025
-4.5900e-03,-0.0453125,-0.000308438
