nmr/data/tek0039.csv

Model,MDO4054-3
Firmware Version,2.20

Waveform Type,ANALOG,,
Point Format,Y,,
Horizontal Units,s,,
Horizontal Scale,0.01,,
Horizontal Delay,0.05012,,
Sample Interval,1e-06,,
Record Length,100000,,
Gating,0.0% to 100.0%,,
Probe Attenuation,1,,
Vertical Units,V,,
Vertical Offset,0,,
Vertical Scale,1,,
Vertical Position,0.02,,
,,,
,,,
,,,
Label,,,
TIME,CH1,CH2,CH3
1.200000e-04,-0.055,-0.00123406,4.9249
1.210000e-04,-0.0604688,-0.00115531,4.92271
1.220000e-04,-0.0467188,-0.00103281,4.9399
1.230000e-04,-0.0646875,-0.00101656,4.89959
1.240000e-04,-0.0620312,-0.00133,4.88177
1.250000e-04,-0.0579687,-0.00115344,4.8949
1.260000e-04,-0.0448438,-0.00100344,4.94271
1.270000e-04,-0.0639062,-0.00115438,4.92677
1.280000e-04,-0.0495312,-0.000872813,4.90896
1.290000e-04,-0.0592188,-0.00138813,4.92209
1.300000e-04,-0.0609375,-0.00117875,4.9224
1.310000e-04,-0.0495312,-0.00105969,4.92052
1.320000e-04,-0.0435938,-0.00130594,4.9199
1.330000e-04,-0.0615625,-0.000855938,4.95459
1.340000e-04,-0.0379688,-0.00134531,4.9199
1.350000e-04,-0.0620312,-0.000954063,4.93146
1.360000e-04,-0.059375,-0.000880313,4.90584
1.370000e-04,-0.0515625,-0.00117719,4.88646
1.380000e-04,-0.04875,-0.000926563,4.93271
1.390000e-04,-0.0525,-0.00129688,4.90365
1.400000e-04,-0.0478125,-0.000972188,4.89521
1.410000e-04,-0.0601562,-0.00134313,4.88865
1.420000e-04,-0.0535937,-0.00115219,4.90209
1.430000e-04,-0.0517188,-0.000921563,4.9049
1.440000e-04,-0.0559375,-0.00106094,4.88927
1.450000e-04,-0.051875,-0.000741563,4.94459
1.460000e-04,-0.0692187,-0.00115375,4.93303
1.470000e-04,-0.051875,-0.00137625,4.9124
1.480000e-04,-0.0546875,-0.00103156,4.90115
1.490000e-04,-0.0515625,-0.000982813,4.88209
1.500000e-04,-0.0570313,-0.00112094,4.88146
1.510000e-04,-0.0496875,-0.00119594,4.88865
1.520000e-04,-0.0503125,-0.00096375,4.8924
1.530000e-04,-0.0523437,-0.000919688,4.88302
1.540000e-04,-0.0471875,-0.00131125,4.89209
1.550000e-04,-0.0478125,-0.00117344,4.89803
1.560000e-04,-0.06625,-0.000919375,4.90178
1.570000e-04,-0.0576563,-0.00150031,4.88053
1.580000e-04,-0.0565625,-0.00117625,4.89428
1.590000e-04,-0.0664062,-0.000869688,4.87365
1.600000e-04,-0.0554687,-0.00114281,4.89896
1.610000e-04,-0.0576563,-0.00094375,4.91021
1.620000e-04,-0.0517188,-0.00135625,4.92521
1.630000e-04,-0.061875,-0.000884063,4.89927
1.640000e-04,-0.0540625,-0.00147125,4.91084
1.650000e-04,-0.0434375,-0.00119094,4.90677
1.660000e-04,-0.0685937,-0.00116156,4.91052
1.670000e-04,-0.04875,-0.000927813,4.93896
1.680000e-04,-0.063125,-0.00115906,4.90771
1.690000e-04,-0.0370313,-0.000973125,4.9249
1.700000e-04,-0.0621875,-0.00132031,4.94271
1.710000e-04,-0.0434375,-0.0009775,4.91271
1.720000e-04,-0.0504687,-0.00140219,4.92271
1.730000e-04,-0.0489062,-0.00137125,4.91209
1.740000e-04,-0.0554687,-0.00118156,4.91178
1.750000e-04,-0.0303125,-0.000992188,4.92303
1.760000e-04,-0.0545313,-0.00108813,4.93303
1.770000e-04,-0.06,-0.001,4.93678
1.780000e-04,-0.0560937,-0.00119969,4.91271
1.790000e-04,-0.0484375,-0.00126688,4.90459
1.800000e-04,-0.0514063,-0.00119031,4.92521
1.810000e-04,-0.0546875,-0.00109938,4.90677
1.820000e-04,-0.0559375,-0.000939063,4.92115
1.830000e-04,-0.0526563,-0.00162,4.89146
1.840000e-04,-0.0576563,-0.00113875,4.93084
1.850000e-04,-0.0545313,-0.0009575,4.90146
1.860000e-04,-0.0595313,-0.00133375,4.91521
1.870000e-04,-0.048125,-0.00094,4.89334
1.880000e-04,-0.0654688,-0.00156563,4.93178
1.890000e-04,-0.0595313,-0.000925938,4.89834
1.900000e-04,-0.0546875,-0.00104594,4.90459
1.910000e-04,-0.0554687,-0.00128906,4.92052
1.920000e-04,-0.0576563,-0.000629375,4.9024
1.930000e-04,-0.0523437,-0.00134281,4.92178
1.940000e-04,-0.0546875,-0.0010475,4.88896
1.950000e-04,-0.0596875,-0.00116188,4.92146
1.960000e-04,-0.06375,-0.00118438,4.91521
1.970000e-04,-0.0553125,-0.000816875,4.90428
1.980000e-04,-0.0589063,-0.0012975,4.93115
1.990000e-04,-0.0467188,-0.00144781,4.90959
2.000000e-04,-0.05875,-0.00106781,4.93021
2.010000e-04,-0.0503125,-0.00123813,4.90959
2.020000e-04,-0.0546875,-0.00126625,4.89271
2.030000e-04,-0.044375,-0.000901563,4.92084
2.040000e-04,-0.0565625,-0.00145094,4.92146
2.050000e-04,-0.0534375,-0.00119219,4.90396
2.060000e-04,-0.056875,-0.00155969,4.91021
2.070000e-04,-0.0425,-0.000946563,4.91646
2.080000e-04,-0.0620312,-0.00116844,4.93802
2.090000e-04,-0.0598438,-0.00129156,4.95709
2.100000e-04,-0.0540625,-0.00127125,4.90365
2.110000e-04,-0.051875,-0.00118469,4.92115
2.120000e-04,-0.0598438,-0.00100063,4.92209
2.130000e-04,-0.0532813,-0.000910625,4.9249
2.140000e-04,-0.05375,-0.00136063,4.88365
2.150000e-04,-0.0515625,-0.00156469,4.92021
2.160000e-04,-0.0609375,-0.00114125,4.91834
2.170000e-04,-0.0540625,-0.00139281,4.90646
2.180000e-04,-0.055,-0.000805625,4.88271
2.190000e-04,-0.0435938,-0.00125406,4.91646
2.200000e-04,-0.0625,-0.001185,4.92615
2.210000e-04,-0.0635938,-0.00147156,4.88271
2.220000e-04,-0.0565625,-0.00151594,4.91615
2.230000e-04,-0.05125,-0.000942813,4.9024
2.240000e-04,-0.0496875,-0.00147031,4.93271
2.250000e-04,-0.0664062,-0.00100875,4.89896
2.260000e-04,-0.0504687,-0.00115844,4.90053
2.270000e-04,-0.056875,-0.00133406,4.88709
2.280000e-04,-0.0604688,-0.000957813,4.89834
2.290000e-04,-0.05375,-0.00129094,4.90615
2.300000e-04,-0.055625,-0.00085625,4.90771
2.310000e-04,-0.0479688,-0.00104563,4.89115
2.320000e-04,-0.0515625,-0.00131156,4.87396
2.330000e-04,-0.0551563,-0.00137281,4.91521
2.340000e-04,-0.0509375,-0.00147219,4.8799
2.350000e-04,-0.0504687,-0.00115313,4.89803
2.360000e-04,-0.0582813,-0.00105156,4.90365
2.370000e-04,-0.0604688,-0.00155125,4.9099
2.380000e-04,-0.0609375,-0.000786875,4.9124
2.390000e-04,-0.0459375,-0.00104469,4.89865
2.400000e-04,-0.049375,-0.00146406,4.91084
2.410000e-04,-0.0646875,-0.00089,4.9024
2.420000e-04,-0.051875,-0.00140563,4.88302
2.430000e-04,-0.0403125,-0.000948125,4.9124
2.440000e-04,-0.0546875,-0.00115219,4.91146
2.450000e-04,-0.0453125,-0.00146063,4.88053
2.460000e-04,-0.0548437,-0.000849688,4.89428
2.470000e-04,-0.0576563,-0.00124781,4.93615
2.480000e-04,-0.0390625,-0.0010575,4.91615
2.490000e-04,-0.0426562,-0.00107469,4.89896
2.500000e-04,-0.0560937,-0.00131531,4.91865
2.510000e-04,-0.0478125,-0.0010725,4.91615
2.520000e-04,-0.0575,-0.000702188,4.92584
2.530000e-04,-0.0548437,-0.00152781,4.89053
2.540000e-04,-0.0526563,-0.00118188,4.91302
2.550000e-04,-0.0446875,-0.00117406,4.89927
2.560000e-04,-0.06875,-0.000982813,4.90271
2.570000e-04,-0.05125,-0.00101375,4.93115
2.580000e-04,-0.043125,-0.00111375,4.92052
2.590000e-04,-0.0645312,-0.00110156,4.92896
2.600000e-04,-0.0545313,-0.00129313,4.91334
2.610000e-04,-0.0504687,-0.001085,4.89396
2.620000e-04,-0.0475,-0.00107594,4.91677
2.630000e-04,-0.0459375,-0.00132188,4.91146
2.640000e-04,-0.0485938,-0.00149719,4.88177
2.650000e-04,-0.0514063,-0.00136,4.92271
2.660000e-04,-0.0560937,-0.0006625,4.8949
2.670000e-04,-0.0523437,-0.00108156,4.89771
2.680000e-04,-0.0546875,-0.00134188,4.94146
2.690000e-04,-0.0570313,-0.000908438,4.92052
2.700000e-04,-0.03875,-0.001295,4.91803
2.710000e-04,-0.0425,-0.000956563,4.94365
2.720000e-04,-0.046875,-0.00107063,4.8999
2.730000e-04,-0.04625,-0.00136,4.92584
2.740000e-04,-0.0489062,-0.00113563,4.91553
2.750000e-04,-0.0515625,-0.00105844,4.91115
2.760000e-04,-0.0717187,-0.0013625,4.90178
2.770000e-04,-0.0545313,-0.000997188,4.93021
2.780000e-04,-0.0470312,-0.00156969,4.90115
2.790000e-04,-0.054375,-0.000853125,4.90584
2.800000e-04,-0.0517188,-0.00110219,4.90178
2.810000e-04,-0.0639062,-0.00120438,4.92365
2.820000e-04,-0.0498438,-0.00057125,4.94084
2.830000e-04,-0.0532813,-0.00128281,4.8999
2.840000e-04,-0.0479688,-0.00110438,4.88834
2.850000e-04,-0.0485938,-0.00105531,4.87428
2.860000e-04,-0.0553125,-0.0014075,4.93896
2.870000e-04,-0.058125,-0.00115344,4.88584
2.880000e-04,-0.0557813,-0.00096875,4.92584
2.890000e-04,-0.0682813,-0.00122406,4.9249
2.900000e-04,-0.0459375,-0.00119188,4.92303
2.910000e-04,-0.0539063,-0.00106,4.90803
2.920000e-04,-0.0535937,-0.00124031,4.91365
2.930000e-04,-0.0632812,-0.00108844,4.88896
2.940000e-04,-0.0584375,-0.0008725,4.91521
2.950000e-04,-0.0532813,-0.00155094,4.8999
2.960000e-04,-0.0585938,-0.00106281,4.90365
2.970000e-04,-0.0525,-0.00123781,4.93115
2.980000e-04,-0.0403125,-0.00114969,4.93271
2.990000e-04,-0.0526563,-0.00071,4.90896
3.000000e-04,-0.0396875,-0.00134219,4.92865
3.010000e-04,-0.0620312,-0.000983125,4.90677
3.020000e-04,-0.0570313,-0.0008075,4.91021
3.030000e-04,-0.056875,-0.00153156,4.92334
3.040000e-04,-0.0582813,-0.00077625,4.91677
3.050000e-04,-0.0604688,-0.00125344,4.87084
3.060000e-04,-0.0335937,-0.0010425,4.8924
3.070000e-04,-0.0596875,-0.00122625,4.88521
3.080000e-04,-0.0473438,-0.00136219,4.90365
3.090000e-04,-0.044375,-0.000863438,4.8874
3.100000e-04,-0.0559375,-0.0010475,4.88459
3.110000e-04,-0.0546875,-0.00105844,4.92178
3.120000e-04,-0.0523437,-0.00127719,4.87053
3.130000e-04,-0.0534375,-0.00138438,4.91803
3.140000e-04,-0.0404687,-0.000521563,4.90365
3.150000e-04,-0.046875,-0.00110563,4.88771
3.160000e-04,-0.0525,-0.00122031,4.8749
3.170000e-04,-0.0576563,-0.00108094,4.92771
3.180000e-04,-0.0565625,-0.00115281,4.90959
3.190000e-04,-0.05125,-0.000931563,4.93021
3.200000e-04,-0.0576563,-0.00133281,4.88678
3.210000e-04,-0.05375,-0.00087875,4.93865
3.220000e-04,-0.050625,-0.00113188,4.88709
3.230000e-04,-0.0565625,-0.00123719,4.9224
3.240000e-04,-0.0434375,-0.00111,4.91334
3.250000e-04,-0.0517188,-0.00134813,4.89646
3.260000e-04,-0.0495312,-0.000823438,4.89521
3.270000e-04,-0.0609375,-0.00124344,4.89365
3.280000e-04,-0.0539063,-0.000955625,4.93865
3.290000e-04,-0.0448438,-0.00136906,4.9274
3.300000e-04,-0.0554687,-0.00140781,4.92271
3.310000e-04,-0.0590625,-0.000849375,4.94271
3.320000e-04,-0.0515625,-0.00137344,4.91553
3.330000e-04,-0.0632812,-0.00100406,4.91865
3.340000e-04,-0.0548437,-0.00120125,4.9049
3.350000e-04,-0.056875,-0.00100063,4.91646
3.360000e-04,-0.0484375,-0.00108156,4.91084
3.370000e-04,-0.0473438,-0.00126375,4.91521
3.380000e-04,-0.0523437,-0.00102344,4.8949
3.390000e-04,-0.0604688,-0.00118,4.90553
3.400000e-04,-0.0604688,-0.001265,4.90053
3.410000e-04,-0.0554687,-0.000970625,4.92959
3.420000e-04,-0.05875,-0.00123469,4.9324
3.430000e-04,-0.0546875,-0.000916875,4.89459
3.440000e-04,-0.0482812,-0.00100031,4.94459
3.450000e-04,-0.0389063,-0.00108125,4.92271
3.460000e-04,-0.0476562,-0.000941563,4.91959
3.470000e-04,-0.0576563,-0.00137375,4.92021
3.480000e-04,-0.0457813,-0.000910938,4.94209
3.490000e-04,-0.0476562,-0.000868438,4.92021
3.500000e-04,-0.0471875,-0.00112563,4.90928
3.510000e-04,-0.0539063,-0.0012525,4.92896
3.520000e-04,-0.051875,-0.0013425,4.94521
3.530000e-04,-0.0578125,-0.00106781,4.92459
3.540000e-04,-0.0575,-0.00124313,4.93928
3.550000e-04,-0.0564063,-0.0010125,4.92303
3.560000e-04,-0.0540625,-0.00103719,4.90521
3.570000e-04,-0.0548437,-0.000835313,4.90521
3.580000e-04,-0.0492188,-0.00110406,4.89271
3.590000e-04,-0.0482812,-0.00119188,4.92115
3.600000e-04,-0.0579687,-0.00154438,4.92771
3.610000e-04,-0.0654688,-0.00128469,4.93427
3.620000e-04,-0.0409375,-0.00144156,4.95552
3.630000e-04,-0.0515625,-0.00117625,4.9324
3.640000e-04,-0.0584375,-0.00111,4.90584
3.650000e-04,-0.0540625,-0.00129969,4.9324
3.660000e-04,-0.0515625,-0.00095625,4.91209
3.670000e-04,-0.0446875,-0.00118688,4.90803
3.680000e-04,-0.0473438,-0.000955625,4.91521
3.690000e-04,-0.0590625,-0.00121938,4.89646
3.700000e-04,-0.0404687,-0.00120313,4.92865
3.710000e-04,-0.0485938,-0.00100031,4.9149
3.720000e-04,-0.0635938,-0.00134313,4.89896
3.730000e-04,-0.0590625,-0.00111688,4.9124
3.740000e-04,-0.0445313,-0.00120625,4.90896
3.750000e-04,-0.0639062,-0.00102031,4.89803
3.760000e-04,-0.0507812,-0.00106438,4.91803
3.770000e-04,-0.0503125,-0.00122906,4.90302
3.780000e-04,-0.0560937,-0.00107438,4.88896
3.790000e-04,-0.0545313,-0.00127406,4.8949
3.800000e-04,-0.0523437,-0.00114156,4.9524
3.810000e-04,-0.0525,-0.00119438,4.91146
3.820000e-04,-0.0579687,-0.00100125,4.90115
3.830000e-04,-0.045625,-0.000940625,4.90771
3.840000e-04,-0.0475,-0.000889688,4.89865
3.850000e-04,-0.0639062,-0.000956563,4.92334
3.860000e-04,-0.0553125,-0.000612813,4.90365
3.870000e-04,-0.0435938,-0.00139438,4.8799
3.880000e-04,-0.0454688,-0.00149906,4.90146
3.890000e-04,-0.0482812,-0.00111406,4.88177
3.900000e-04,-0.060625,-0.00133656,4.89677
3.910000e-04,-0.0432813,-0.00112406,4.89459
3.920000e-04,-0.0479688,-0.001155,4.89521
3.930000e-04,-0.0432813,-0.00161219,4.92021
3.940000e-04,-0.0604688,-0.00117281,4.89803
3.950000e-04,-0.0521875,-0.00131375,4.91115
3.960000e-04,-0.05375,-0.000779063,4.89677
3.970000e-04,-0.0515625,-0.00120063,4.8974
3.980000e-04,-0.0490625,-0.00092375,4.91178
3.990000e-04,-0.0440625,-0.000833125,4.89865
4.000000e-04,-0.0603125,-0.00139594,4.88927
4.010000e-04,-0.0345312,-0.00103313,4.91615
4.020000e-04,-0.04625,-0.00122594,4.92052
4.030000e-04,-0.0451563,-0.00115313,4.91084
4.040000e-04,-0.0460938,-0.00089,4.90646
4.050000e-04,-0.0575,-0.00130531,4.88459
4.060000e-04,-0.0565625,-0.00120781,4.9274
4.070000e-04,-0.0576563,-0.00109281,4.93959
4.080000e-04,-0.0445313,-0.000974688,4.89959
4.090000e-04,-0.0385937,-0.00114344,4.90959
4.100000e-04,-0.0628125,-0.00118094,4.89865
4.110000e-04,-0.0639062,-0.000956563,4.91459
4.120000e-04,-0.0467188,-0.00108969,4.8949
4.130000e-04,-0.0575,-0.00129875,4.90365
4.140000e-04,-0.0573437,-0.00129875,4.90084
4.150000e-04,-0.0542187,-0.00112719,4.92271
4.160000e-04,-0.0495312,-0.00114031,4.90084
4.170000e-04,-0.0576563,-0.00115344,4.89803
4.180000e-04,-0.0603125,-0.00102219,4.90615
4.190000e-04,-0.0414063,-0.000955,4.91803
4.200000e-04,-0.0590625,-0.000923438,4.88396
4.210000e-04,-0.0473438,-0.00101344,4.92865
4.220000e-04,-0.04625,-0.00115906,4.90521
4.230000e-04,-0.0529687,-0.00111406,4.92584
4.240000e-04,-0.060625,-0.00118469,4.90021
4.250000e-04,-0.0514063,-0.00110094,4.88584
4.260000e-04,-0.0432813,-0.00121219,4.90646
4.270000e-04,-0.0507812,-0.00117906,4.89302
4.280000e-04,-0.0521875,-0.00106531,4.91521
4.290000e-04,-0.0473438,-0.00110094,4.92396
4.300000e-04,-0.0584375,-0.0010525,4.88615
4.310000e-04,-0.0576563,-0.00109281,4.91302
4.320000e-04,-0.0660938,-0.00106063,4.90178
4.330000e-04,-0.0634375,-0.00117688,4.91427
4.340000e-04,-0.053125,-0.00115844,4.91803
4.350000e-04,-0.0595313,-0.00120844,4.95865
4.360000e-04,-0.0535937,-0.00117219,4.87959
4.370000e-04,-0.0604688,-0.00097625,4.89428
4.380000e-04,-0.0559375,-0.00110594,4.92303
4.390000e-04,-0.0423437,-0.000944063,4.88803
4.400000e-04,-0.0640625,-0.001105,4.91271
4.410000e-04,-0.0376563,-0.000879375,4.9499
4.420000e-04,-0.0523437,-0.00125813,4.93396
4.430000e-04,-0.0510938,-0.00125969,4.9199
4.440000e-04,-0.0514063,-0.00127125,4.93959
4.450000e-04,-0.0498438,-0.00118344,4.89084
4.460000e-04,-0.0528125,-0.00129188,4.92052
4.470000e-04,-0.0629688,-0.00110438,4.89021
4.480000e-04,-0.0517188,-0.00104094,4.90146
4.490000e-04,-0.065625,-0.00105938,4.92427
4.500000e-04,-0.05,-0.0010875,4.94459
4.510000e-04,-0.0534375,-0.000972188,4.9074
4.520000e-04,-0.0626562,-0.00114,4.91052
4.530000e-04,-0.0592188,-0.00125531,4.89803
4.540000e-04,-0.05375,-0.00115844,4.88615
4.550000e-04,-0.0575,-0.00101813,4.89896
4.560000e-04,-0.0534375,-0.0013025,4.91834
4.570000e-04,-0.0548437,-0.00119188,4.87709
4.580000e-04,-0.0490625,-0.00112344,4.89959
4.590000e-04,-0.06375,-0.00115344,4.9024
4.600000e-04,-0.0585938,-0.00111125,4.89271
4.610000e-04,-0.0517188,-0.00100813,4.86896
4.620000e-04,-0.046875,-0.00112063,4.89021
4.630000e-04,-0.0578125,-0.00113156,4.91084
4.640000e-04,-0.0634375,-0.00113156,4.91052
4.650000e-04,-0.0553125,-0.00105906,4.87865
4.660000e-04,-0.0521875,-0.00114,4.90146
4.670000e-04,-0.0603125,-0.00109906,4.87959
4.680000e-04,-0.053125,-0.000918125,4.85834
4.690000e-04,-0.05125,-0.001145,4.90053
4.700000e-04,-0.0517188,-0.00101031,4.88053
4.710000e-04,-0.0582813,-0.00116344,4.88865
4.720000e-04,-0.0470312,-0.00125156,4.89896
4.730000e-04,-0.0609375,-0.00105031,4.90365
4.740000e-04,-0.0482812,-0.00116625,4.92427
4.750000e-04,-0.0634375,-0.00108281,4.90053
4.760000e-04,0.4275,0.00247625,4.87834
4.770000e-04,-1.33828,0.00312344,4.90178
4.780000e-04,0.86375,-0.00859344,4.92553
4.790000e-04,-1.00828,-0.0126006,4.8874
4.800000e-04,0.912969,-0.0126013,4.89552
4.810000e-04,-1.19688,-0.0126013,4.91021
4.820000e-04,1.23828,-0.0126009,4.92521
4.830000e-04,-1.41609,-0.0126003,4.94209
4.840000e-04,1.32,-0.0126009,4.86115
4.850000e-04,-1.44437,-0.0126009,4.91584
4.860000e-04,1.34594,-0.0126009,4.90865
4.870000e-04,-1.45141,-0.0126006,4.90084
4.880000e-04,1.39656,-0.0126009,4.89709
4.890000e-04,-1.40813,-0.0126013,4.92615
4.900000e-04,1.32953,-0.0126006,4.91084
4.910000e-04,-1.36453,-0.0126009,4.90428
4.920000e-04,1.00812,-0.0126013,4.90334
4.930000e-04,-0.835625,-0.0126006,4.91459
4.940000e-04,0.397344,-0.0126006,4.89115
4.950000e-04,-0.194219,-0.0126013,4.94646
4.960000e-04,0.0667187,-0.0126013,4.89646
4.970000e-04,-0.394844,-0.0126006,4.90896
4.980000e-04,0.0773438,-0.0126009,4.92084
4.990000e-04,0.00109375,-0.0126006,4.91771
5.000000e-04,0.0296875,-0.0126009,4.90584
5.010000e-04,0.0421875,-0.0126009,4.90053
5.020000e-04,0.0676563,-0.0126006,4.87959
5.030000e-04,0.046875,-0.0126009,4.8774
5.040000e-04,0.0696875,-0.0126009,4.94896
5.050000e-04,0.0892187,-0.0126013,4.9324
5.060000e-04,0.0904688,-0.0126009,4.92646
5.070000e-04,0.0903125,-0.0126009,4.90084
5.080000e-04,0.08625,-0.0126009,4.93084
5.090000e-04,0.09125,-0.0126006,4.92928
5.100000e-04,0.0998437,-0.0126009,4.90365
5.110000e-04,0.0978125,-0.0126006,4.92834
5.120000e-04,0.0971875,-0.0126013,4.88396
5.130000e-04,0.0953125,-0.0126013,4.92052
5.140000e-04,0.0967187,-0.0126009,4.95459
5.150000e-04,0.103438,-0.0126003,4.91896
5.160000e-04,0.104531,-0.0126009,4.91677
5.170000e-04,0.0985937,-0.0126009,4.93771
5.180000e-04,0.088125,-0.0126013,4.93365
5.190000e-04,0.0992187,-0.0126006,4.91334
5.200000e-04,0.09125,-0.0126009,4.93553
5.210000e-04,0.0746875,-0.0126013,4.89053
5.220000e-04,0.105312,-0.0126003,4.89927
5.230000e-04,0.0815625,-0.0126009,4.90084
5.240000e-04,0.0696875,-0.0126013,4.92021
5.250000e-04,0.0917188,-0.0126006,4.9449
5.260000e-04,0.09125,-0.0126006,4.90553
5.270000e-04,0.0870313,-0.0126009,4.91677
5.280000e-04,0.0825,-0.0126013,4.90428
5.290000e-04,0.089375,-0.0126006,4.9224
5.300000e-04,0.0835937,-0.0126009,4.90553
5.310000e-04,0.0846875,-0.0126009,4.90521
5.320000e-04,0.0696875,-0.0126009,4.8849
5.330000e-04,0.0703125,-0.0126006,4.90178
5.340000e-04,0.0848437,-0.0126006,4.87865
5.350000e-04,0.0729687,-0.0126006,4.86209
5.360000e-04,0.0553125,-0.0126006,4.88927
5.370000e-04,0.0676563,-0.0126009,4.91334
5.380000e-04,0.0729687,-0.0126009,4.8674
5.390000e-04,0.0565625,-0.0126009,4.89927
5.400000e-04,0.08375,-0.0126009,4.89115
5.410000e-04,0.1,-0.0126009,4.89459
5.420000e-04,0.0671875,-0.0126009,4.88803
5.430000e-04,0.0664062,-0.0126006,4.90459
5.440000e-04,0.0671875,-0.0126013,4.89302
5.450000e-04,0.061875,-0.0126013,4.90428
5.460000e-04,0.06625,-0.0126009,4.91427
5.470000e-04,0.0632812,-0.0126003,4.87959
5.480000e-04,0.0554687,-0.0126009,4.90677
5.490000e-04,0.0654687,-0.0126009,4.90396
5.500000e-04,0.0623438,-0.0126013,4.91396
5.510000e-04,0.073125,-0.0126009,4.89865
5.520000e-04,0.0489062,-0.0126009,4.91865
5.530000e-04,0.0545313,-0.0126013,4.89646
5.540000e-04,0.0632812,-0.0126003,4.90084
5.550000e-04,0.0615625,-0.0126009,4.9124
5.560000e-04,0.0634375,-0.0126009,4.91334
5.570000e-04,0.0451562,-0.0126009,4.91427
5.580000e-04,0.0625,-0.0126006,4.90865
5.590000e-04,0.0639062,-0.0126009,4.9174
5.600000e-04,0.0496875,-0.0126013,4.91427
5.610000e-04,0.0464062,-0.0126006,4.90959
5.620000e-04,0.0614062,-0.0126009,4.91021
5.630000e-04,0.0573437,-0.0126009,4.89771
5.640000e-04,0.0615625,-0.0126009,4.88896
5.650000e-04,0.0553125,-0.0126006,4.9424
5.660000e-04,0.055,-0.0126009,4.88771
5.670000e-04,0.0675,-0.0126006,4.90178
5.680000e-04,0.0582812,-0.0126006,4.89709
5.690000e-04,0.061875,-0.0126009,4.90365
5.700000e-04,0.0454688,-0.0126009,4.90521
5.710000e-04,0.0421875,-0.0126009,4.89021
5.720000e-04,0.0521875,-0.0126009,4.90021
5.730000e-04,0.046875,-0.0126009,4.90428
5.740000e-04,0.0446875,-0.0126009,4.90428
5.750000e-04,0.0446875,-0.0126006,4.90928
5.760000e-04,0.035,-0.0126013,4.9199
