nmr/data/tek0034.csv

Model,MDO4054-3
Firmware Version,2.20

Waveform Type,ANALOG,
Point Format,Y,
Horizontal Units,s,
Horizontal Scale,0.01,
Horizontal Delay,0.03977,
Sample Interval,1e-06,
Record Length,100000,
Gating,0.0% to 100.0%,
Probe Attenuation,1,
Vertical Units,V,
Vertical Offset,0,
Vertical Scale,1,
Vertical Position,0.02,
,,
,,
,,
Label,,
TIME,CH1,CH2
-1.02300e-02,-0.0598438,-0.000195313
-1.02290e-02,-0.049375,-5.53125e-05
-1.02280e-02,-0.0470312,-0.000159375
-1.02270e-02,-0.0596875,-7.75e-05
-1.02260e-02,-0.0510938,-0.000715313
-1.02250e-02,-0.049375,-0.00053
-1.02240e-02,-0.0610938,-0.000499688
-1.02230e-02,-0.051875,-0.000692188
-1.02220e-02,-0.0440625,-7.875e-05
-1.02210e-02,-0.0376563,-0.000761875
-1.02200e-02,-0.0646875,-0.0005
-1.02190e-02,-0.0573437,-0.000879688
-1.02180e-02,-0.046875,-0.000534375
-1.02170e-02,-0.0429688,-0.000469375
-1.02160e-02,-0.0614062,-0.00047
-1.02150e-02,-0.070625,0.00017875
-1.02140e-02,-0.0482812,5e-05
-1.02130e-02,-0.0520313,4.09375e-05
-1.02120e-02,-0.0578125,-0.0002375
-1.02110e-02,-0.0514063,4.84375e-05
-1.02100e-02,-0.0523437,-5.1875e-05
-1.02090e-02,-0.0459375,-4.46875e-05
-1.02080e-02,-0.0521875,-0.000147813
-1.02070e-02,-0.0445313,-0.000197813
-1.02060e-02,-0.0576563,3.9375e-05
-1.02050e-02,-0.0573437,-6.75e-05
-1.02040e-02,-0.0596875,-0.000770625
-1.02030e-02,-0.0464062,-4.78125e-05
-1.02020e-02,-0.0535937,-0.000419375
-1.02010e-02,-0.063125,-0.000257188
-1.02000e-02,-0.0596875,-7.40625e-05
-1.01990e-02,-0.05875,8.28125e-05
-1.01980e-02,-0.0540625,0.000346875
-1.01970e-02,-0.0601562,-9.90625e-05
-1.01960e-02,-0.054375,-0.0003775
-1.01950e-02,-0.035,-0.0004025
-1.01940e-02,-0.0409375,-0.000303125
-1.01930e-02,-0.0492188,-0.000460313
-1.01920e-02,-0.0523437,-0.000215
-1.01910e-02,-0.03875,-0.000324375
-1.01900e-02,-0.05875,-0.000645
-1.01890e-02,-0.0495312,-0.000537813
-1.01880e-02,-0.06125,-0.000584063
-1.01870e-02,-0.0520313,9.21875e-05
-1.01860e-02,-0.06125,-0.000494688
-1.01850e-02,-0.05375,-0.000640938
-1.01840e-02,-0.0425,-0.00013
-1.01830e-02,-0.0535937,-0.000862188
-1.01820e-02,-0.051875,-0.000419063
-1.01810e-02,-0.0323438,-0.000357188
-1.01800e-02,-0.0570313,-0.00078125
-1.01790e-02,-0.0496875,-0.000215313
-1.01780e-02,-0.0454688,-0.000489375
-1.01770e-02,-0.0460938,-0.00012125
-1.01760e-02,-0.0514063,9.78125e-05
-1.01750e-02,-0.0454688,-0.000319688
-1.01740e-02,-0.0534375,0
-1.01730e-02,-0.0625,-9.8125e-05
-1.01720e-02,-0.0414063,-0.000661563
-1.01710e-02,-0.0570313,-0.0001425
-1.01700e-02,-0.0392187,-0.000310938
-1.01690e-02,-0.0504687,-0.000325
-1.01680e-02,-0.04875,-0.000571875
-1.01670e-02,-0.0628125,-0.000613125
-1.01660e-02,-0.0545313,-0.000485313
-1.01650e-02,-0.0498438,-0.000275938
-1.01640e-02,-0.0503125,-0.000564063
-1.01630e-02,-0.0484375,-0.000525938
-1.01620e-02,-0.0540625,-0.000909063
-1.01610e-02,-0.0534375,-0.000214375
-1.01600e-02,-0.0504687,-0.000274688
-1.01590e-02,-0.0467188,-0.000145625
-1.01580e-02,-0.0504687,-0.000360313
-1.01570e-02,-0.058125,-0.000351875
-1.01560e-02,-0.0584375,-0.0004125
-1.01550e-02,-0.0495312,-0.000915625
-1.01540e-02,-0.0540625,-0.000451875
-1.01530e-02,-0.0421875,-0.000334063
-1.01520e-02,-0.0534375,-0.00075375
-1.01510e-02,-0.0448438,-0.000246875
-1.01500e-02,-0.0453125,-0.000606563
-1.01490e-02,-0.048125,-0.000105625
-1.01480e-02,-0.04125,-0.000295625
-1.01470e-02,-0.0596875,-0.000565
-1.01460e-02,-0.05625,-0.00043125
-1.01450e-02,-0.0448438,-0.000289375
-1.01440e-02,-0.058125,5.84375e-05
-1.01430e-02,-0.0473438,0.000119375
-1.01420e-02,-0.0532813,-0.000375625
-1.01410e-02,-0.045,7.375e-05
-1.01400e-02,-0.0535937,-0.000503125
-1.01390e-02,-0.055,-0.000336563
-1.01380e-02,-0.0553125,-0.000347188
-1.01370e-02,-0.0489062,-0.000400625
-1.01360e-02,-0.0539063,0.000383438
-1.01350e-02,-0.0521875,-0.00017125
-1.01340e-02,-0.0459375,-0.00034875
-1.01330e-02,-0.0517188,0.000109688
-1.01320e-02,-0.0545313,-0.000170938
-1.01310e-02,-0.0542187,0.000324375
-1.01300e-02,-0.0589063,-0.00041
-1.01290e-02,-0.049375,-0.000318438
-1.01280e-02,-0.0534375,-3.75e-06
-1.01270e-02,-0.0495312,-0.000282813
-1.01260e-02,-0.0401563,-8.125e-06
-1.01250e-02,-0.04875,0.000220313
-1.01240e-02,-0.0601562,-8.9375e-05
-1.01230e-02,-0.055,4.8125e-05
-1.01220e-02,-0.0615625,0.000328438
-1.01210e-02,-0.051875,-0.0002775
-1.01200e-02,-0.0575,-0.000115
-1.01190e-02,-0.046875,4.0625e-05
-1.01180e-02,-0.0514063,-0.0002725
-1.01170e-02,-0.0521875,0.000229063
-1.01160e-02,-0.0582813,-0.00036125
-1.01150e-02,-0.0507812,6.3125e-05
-1.01140e-02,-0.048125,-0.000568438
-1.01130e-02,-0.0559375,-0.000136875
-1.01120e-02,-0.0526563,-0.000208125
-1.01110e-02,-0.0578125,-0.000235625
-1.01100e-02,-0.053125,5.75e-05
-1.01090e-02,-0.0440625,-0.00024375
-1.01080e-02,-0.051875,-0.00017
-1.01070e-02,-0.045625,2.59375e-05
-1.01060e-02,-0.0607812,-7.71875e-05
-1.01050e-02,-0.048125,0.000734688
-1.01040e-02,-0.0542187,0.000922188
-1.01030e-02,-0.055625,-0.000153125
-1.01020e-02,-0.055625,-0.00033625
-1.01010e-02,-0.0551563,-0.000511563
-1.01000e-02,-0.0551563,-0.000235938
-1.00990e-02,-0.0646875,-0.000160313
-1.00980e-02,-0.0554687,-0.00070625
-1.00970e-02,-0.0554687,-0.000685
-1.00960e-02,-0.051875,-0.000614063
-1.00950e-02,-0.0557813,-0.000409688
-1.00940e-02,-0.045625,-0.000525625
-1.00930e-02,-0.0529687,-0.000929688
-1.00920e-02,-0.051875,-0.000459375
-1.00910e-02,-0.054375,-0.000258125
-1.00900e-02,-0.0415625,-0.000439063
-1.00890e-02,-0.0485938,-0.000183438
-1.00880e-02,-0.0610938,-0.0004475
-1.00870e-02,-0.0523437,0.000185313
-1.00860e-02,-0.0460938,-0.000683438
-1.00850e-02,-0.0582813,-0.000333125
-1.00840e-02,-0.0520313,-0.000261875
-1.00830e-02,-0.0435938,-0.0005625
-1.00820e-02,-0.043125,-0.000168125
-1.00810e-02,-0.0589063,-0.000193125
-1.00800e-02,-0.0503125,-0.00050375
-1.00790e-02,-0.0379688,-0.000232188
-1.00780e-02,-0.051875,-0.000624688
-1.00770e-02,-0.063125,8.75e-06
-1.00760e-02,-0.0482812,-0.000291875
-1.00750e-02,-0.0564063,-0.000359375
-1.00740e-02,-0.0540625,-0.00015875
-1.00730e-02,-0.0490625,-9.03125e-05
-1.00720e-02,-0.0498438,-0.0003175
-1.00710e-02,-0.0514063,-0.000312813
-1.00700e-02,-0.0507812,-0.00041875
-1.00690e-02,-0.0496875,-0.00043375
-1.00680e-02,-0.05875,-0.000489063
-1.00670e-02,-0.0414063,-0.000484063
-1.00660e-02,-0.06,-0.000620625
-1.00650e-02,-0.0479688,-0.00094375
-1.00640e-02,-0.055625,-0.000592813
-1.00630e-02,-0.03375,-0.000399688
-1.00620e-02,-0.0495312,-0.000625938
-1.00610e-02,-0.0542187,-0.00054875
-1.00600e-02,-0.0545313,-0.000375
-1.00590e-02,-0.0548437,-0.000751563
-1.00580e-02,-0.0546875,-0.000455938
-1.00570e-02,-0.0448438,-0.00073
-1.00560e-02,-0.04625,-0.000489375
-1.00550e-02,-0.0498438,-0.000722188
-1.00540e-02,-0.0470312,-8.4375e-06
-1.00530e-02,-0.0504687,-0.00055625
-1.00520e-02,-0.0535937,-0.000560313
-1.00510e-02,-0.0607812,-0.000309063
-1.00500e-02,-0.0584375,-0.000395
-1.00490e-02,-0.0560937,0
-1.00480e-02,-0.0545313,-0.000818125
-1.00470e-02,-0.0470312,-0.000637813
-1.00460e-02,-0.0514063,-7.0625e-05
-1.00450e-02,-0.0476562,-0.000615625
-1.00440e-02,-0.0545313,-0.00021
-1.00430e-02,-0.0496875,-0.00056125
-1.00420e-02,-0.055625,-0.000579375
-1.00410e-02,-0.0509375,-0.000253438
-1.00400e-02,-0.0464062,-0.00034125
-1.00390e-02,-0.0578125,-0.00113906
-1.00380e-02,-0.0540625,-0.000383125
-1.00370e-02,-0.0451563,-0.000440313
-1.00360e-02,-0.0515625,-0.000583438
-1.00350e-02,-0.0567187,-0.000220313
-1.00340e-02,-0.0578125,-0.001155
-1.00330e-02,-0.0510938,-0.000475625
-1.00320e-02,-0.0478125,-1.9375e-05
-1.00310e-02,-0.046875,0.000158125
-1.00300e-02,-0.0573437,-0.000660938
-1.00290e-02,-0.0573437,-0.000785938
-1.00280e-02,-0.0442188,0.000503438
-1.00270e-02,-0.0603125,-0.000325
-1.00260e-02,-0.0540625,-3.96875e-05
-1.00250e-02,-0.0575,-0.000309063
-1.00240e-02,-0.0545313,-0.000483438
-1.00230e-02,-0.0401563,0.000845313
-1.00220e-02,-0.0535937,9.3125e-05
-1.00210e-02,-0.0507812,-0.000503125
-1.00200e-02,-0.0501562,-0.000727813
-1.00190e-02,-0.05,-0.000320313
-1.00180e-02,-0.0521875,0.000197813
-1.00170e-02,-0.0510938,-0.000327813
-1.00160e-02,-0.0475,-6.5625e-05
-1.00150e-02,-0.0509375,-0.000518438
-1.00140e-02,-0.0642188,-0.000207813
-1.00130e-02,-0.0567187,-0.0008475
-1.00120e-02,-0.0482812,-0.000455938
-1.00110e-02,-0.0496875,-0.000453438
-1.00100e-02,-0.0489062,-0.000492188
-1.00090e-02,-0.0645312,-0.00040375
-1.00080e-02,-0.0535937,-0.00097375
-1.00070e-02,-0.0546875,-0.000778125
-1.00060e-02,-0.0621875,-0.0003375
-1.00050e-02,-0.0448438,-0.0005
-1.00040e-02,-0.049375,-0.000475313
-1.00030e-02,-0.04625,-0.0014075
-1.00020e-02,-0.0492188,-0.000393438
-1.00010e-02,-0.046875,-0.00015875
-1.00000e-02,-0.0560937,-0.000583438
-9.99900e-03,-0.05,-0.000299063
-9.99800e-03,-0.0489062,-0.00114375
-9.99700e-03,-0.0540625,-0.000927813
-9.99600e-03,-0.0476562,-0.000200313
-9.99500e-03,-0.054375,-0.000785938
-9.99400e-03,-0.0425,-0.000978438
-9.99300e-03,-0.0525,-0.000383438
-9.99200e-03,-0.0540625,-0.000497812
-9.99100e-03,-0.0526563,-0.000118125
-9.99000e-03,-0.0415625,-0.00106156
-9.98900e-03,-0.0517188,-0.000701563
-9.98800e-03,-0.0498438,-0.00048375
-9.98700e-03,-0.05625,-1.6875e-05
-9.98600e-03,-0.0434375,-0.000365938
-9.98500e-03,-0.0553125,-0.00109469
-9.98400e-03,-0.0495312,-0.000713438
-9.98300e-03,-0.0520313,-0.00091875
-9.98200e-03,-0.0467188,-4.6875e-05
-9.98100e-03,-0.0526563,-0.000260625
-9.98000e-03,-0.0492188,-0.000608125
-9.97900e-03,-0.0534375,-0.000189063
-9.97800e-03,-0.0484375,-0.000364063
-9.97700e-03,-0.0610938,-0.000782188
-9.97600e-03,-0.0539063,-0.0002775
-9.97500e-03,-0.0525,-0.000876563
-9.97400e-03,-0.046875,-0.00014875
-9.97300e-03,-0.059375,-0.0003
-9.97200e-03,-0.046875,-0.000299688
-9.97100e-03,-0.0525,-0.000662188
-9.97000e-03,-0.0421875,-0.000423438
-9.96900e-03,-0.0490625,0.000249375
-9.96800e-03,-0.0460938,-0.000455313
-9.96700e-03,-0.046875,-0.00013
-9.96600e-03,-0.06,-0.000335
-9.96500e-03,-0.0560937,-8.8125e-05
-9.96400e-03,-0.0529687,-0.000410313
-9.96300e-03,-0.0439063,-0.000802188
-9.96200e-03,-0.0614062,-0.000239375
-9.96100e-03,-0.0442188,-0.000658125
-9.96000e-03,-0.0490625,4e-05
-9.95900e-03,-0.051875,-0.000319063
-9.95800e-03,-0.0540625,-0.000435938
-9.95700e-03,-0.0546875,-0.00016625
-9.95600e-03,-0.04625,-0.000278125
-9.95500e-03,-0.0545313,0.000170625
-9.95400e-03,-0.0529687,-3.28125e-05
-9.95300e-03,-0.046875,-0.000438438
-9.95200e-03,-0.061875,3.0625e-05
-9.95100e-03,-0.0548437,1.5625e-05
-9.95000e-03,-0.049375,0.000128125
-9.94900e-03,-0.0410937,-0.000175313
-9.94800e-03,-0.0451563,-0.00027125
-9.94700e-03,-0.0514063,0.000268125
-9.94600e-03,-0.0503125,-0.000480938
-9.94500e-03,-0.0515625,-3.25e-05
-9.94400e-03,-0.0657812,-0.000125
-9.94300e-03,-0.0532813,-5e-05
-9.94200e-03,-0.04125,-2.65625e-05
-9.94100e-03,-0.0532813,-0.000530938
-9.94000e-03,-0.05125,0.000112188
-9.93900e-03,-0.035625,-0.000694375
-9.93800e-03,-0.0496875,-0.00020375
-9.93700e-03,-0.0490625,-0.000275313
-9.93600e-03,-0.0514063,-0.000338125
-9.93500e-03,-0.0464062,-0.000107813
-9.93400e-03,-0.0490625,-7.21875e-05
-9.93300e-03,-0.0454688,0.000125313
-9.93200e-03,-0.0559375,-6.25e-05
-9.93100e-03,-0.0585938,-0.000178438
-9.93000e-03,-0.0445313,-8.90625e-05
-9.92900e-03,-0.05,-0.00011125
-9.92800e-03,-0.0621875,0.000328438
-9.92700e-03,-0.0514063,7.21875e-05
-9.92600e-03,-0.0476562,-0.00066875
-9.92500e-03,-0.059375,9.28125e-05
-9.92400e-03,-0.0596875,-0.000314063
-9.92300e-03,-0.0342187,-0.000241875
-9.92200e-03,-0.0510938,-0.00071875
-9.92100e-03,-0.0479688,-0.000735313
-9.92000e-03,-0.0567187,0.000648125
-9.91900e-03,-0.0615625,2.6875e-05
-9.91800e-03,-0.055625,-0.000219063
-9.91700e-03,-0.0578125,0.000219688
-9.91600e-03,-0.0553125,6.09375e-05
-9.91500e-03,-0.0545313,0.000854688
-9.91400e-03,-0.0442188,0.000189375
-9.91300e-03,-0.0465625,0.000220938
-9.91200e-03,-0.0365625,-5.3125e-06
-9.91100e-03,-0.0476562,0.000570938
-9.91000e-03,-0.0482812,-4.6875e-06
-9.90900e-03,-0.0459375,-0.000318125
-9.90800e-03,-0.0610938,-0.000249688
-9.90700e-03,-0.05,0.00012125
-9.90600e-03,-0.0585938,-0.000204375
-9.90500e-03,-0.0525,-0.000675313
-9.90400e-03,-0.0570313,-0.00046125
-9.90300e-03,-0.0471875,-0.000635625
-9.90200e-03,-0.055,-0.00042375
-9.90100e-03,-0.0475,-6.03125e-05
-9.90000e-03,-0.0457813,-0.000550313
-9.89900e-03,-0.0582813,-0.000427813
-9.89800e-03,-0.0523437,-0.000207188
-9.89700e-03,-0.0517188,-4.875e-05
-9.89600e-03,-0.0503125,7.71875e-05
-9.89500e-03,-0.044375,-0.00018375
-9.89400e-03,-0.06125,-0.000336563
-9.89300e-03,-0.0470312,9.09375e-05
-9.89200e-03,-0.0542187,0.0001125
-9.89100e-03,-0.0632812,-8.5e-05
-9.89000e-03,-0.0596875,-0.000292813
-9.88900e-03,-0.0457813,-0.0003375
-9.88800e-03,-0.0525,0.000375313
-9.88700e-03,-0.0595313,1.0625e-05
-9.88600e-03,-0.0545313,-0.000367813
-9.88500e-03,-0.0428125,0.000234688
-9.88400e-03,-0.0532813,-0.000455313
-9.88300e-03,-0.0503125,-0.000109688
-9.88200e-03,-0.0465625,-0.000612813
-9.88100e-03,-0.0445313,-0.0002925
-9.88000e-03,-0.0523437,0.000348125
-9.87900e-03,-0.0521875,-0.000418438
-9.87800e-03,-0.0571875,0.000176875
-9.87700e-03,-0.0429688,-0.000420313
-9.87600e-03,-0.051875,2.65625e-05
-9.87500e-03,-0.0575,0.000215938
-9.87400e-03,-0.0514063,-0.0003325
-9.87300e-03,-0.0526563,6e-05
-9.87200e-03,-0.043125,-0.000601563
-9.87100e-03,-0.0582813,-2.40625e-05
-9.87000e-03,-0.0540625,-6.75e-05
-9.86900e-03,-0.0576563,-0.000229063
-9.86800e-03,-0.0576563,-0.000438125
-9.86700e-03,-0.0510938,0.000119375
-9.86600e-03,-0.0528125,-0.000155313
-9.86500e-03,-0.0553125,-0.0001675
-9.86400e-03,-0.0534375,-0.000144375
-9.86300e-03,-0.0510938,-7.78125e-05
-9.86200e-03,-0.0492188,-7e-05
-9.86100e-03,-0.0440625,3.75e-05
-9.86000e-03,-0.0470312,-9.96875e-05
-9.85900e-03,-0.0529687,-0.000333438
-9.85800e-03,-0.04625,-0.000460313
-9.85700e-03,-0.0551563,-0.00021875
-9.85600e-03,-0.0632812,0.000107813
-9.85500e-03,-0.0532813,-0.000404063
-9.85400e-03,-0.0464062,-0.000189688
-9.85300e-03,-0.0578125,-0.000124063
-9.85200e-03,-0.05,0.000218125
-9.85100e-03,-0.0426562,-0.000146563
-9.85000e-03,-0.0678125,-0.000646563
-9.84900e-03,-0.0579687,-0.000262187
-9.84800e-03,-0.0573437,-0.0003
-9.84700e-03,-0.0559375,-0.000221875
-9.84600e-03,-0.0559375,-0.000534688
-9.84500e-03,-0.0439063,-0.000624063
-9.84400e-03,-0.05625,-0.00016125
-9.84300e-03,-0.0535937,-9.53125e-05
-9.84200e-03,-0.0478125,-0.000380625
-9.84100e-03,-0.0457813,-0.000751875
-9.84000e-03,-0.0484375,-0.000288125
-9.83900e-03,-0.05375,-6.15625e-05
-9.83800e-03,-0.05875,0.000102188
-9.83700e-03,-0.0514063,-0.000564063
-9.83600e-03,-0.049375,-0.0002675
-9.83500e-03,-0.045625,-0.0001775
-9.83400e-03,-0.0475,-0.00016625
-9.83300e-03,-0.0515625,-8.9375e-05
-9.83200e-03,-0.0404687,-0.00057125
-9.83100e-03,-0.0417187,-4.34375e-05
-9.83000e-03,-0.0528125,0.000221563
-9.82900e-03,-0.038125,-5.8125e-05
-9.82800e-03,-0.0442188,-0.000356875
-9.82700e-03,-0.0548437,-0.000602188
-9.82600e-03,-0.0559375,-0.000314375
-9.82500e-03,-0.0557813,-0.000696563
-9.82400e-03,-0.055,-0.000746563
-9.82300e-03,-0.0482812,-0.00058125
-9.82200e-03,-0.048125,-0.000145313
-9.82100e-03,-0.045,-0.000334063
-9.82000e-03,-0.044375,-0.0001675
-9.81900e-03,-0.0529687,-0.0002825
-9.81800e-03,-0.0484375,-0.00063375
-9.81700e-03,-0.0553125,7.875e-05
-9.81600e-03,-0.0629688,-0.000550625
-9.81500e-03,-0.0590625,4.25e-05
-9.81400e-03,-0.0573437,-0.000417813
-9.81300e-03,-0.0498438,0.000296875
-9.81200e-03,-0.0554687,0.00050375
-9.81100e-03,-0.0598438,-0.00014875
-9.81000e-03,-0.0525,4.25e-05
-9.80900e-03,-0.049375,5.65625e-05
-9.80800e-03,-0.0573437,0.00024625
-9.80700e-03,-0.0570313,4.6875e-05
-9.80600e-03,-0.0614062,1.53125e-05
-9.80500e-03,-0.0575,0.000544688
-9.80400e-03,-0.0564063,-1.25e-05
-9.80300e-03,-0.0517188,0.000339375
-9.80200e-03,-0.0570313,-0.0001875
-9.80100e-03,-0.05375,-0.000728125
-9.80000e-03,-0.0575,-0.000220625
-9.79900e-03,-0.0542187,0.0005075
-9.79800e-03,-0.0532813,-0.0002875
-9.79700e-03,-0.055625,-0.000444375
-9.79600e-03,-0.0435938,0.000156875
-9.79500e-03,-0.0467188,-0.000621875
-9.79400e-03,-0.0446875,9.9375e-05
-9.79300e-03,-0.0548437,-9.46875e-05
-9.79200e-03,-0.0417187,-0.000221563
-9.79100e-03,-0.0526563,0.00011375
-9.79000e-03,-0.0528125,-0.000681563
-9.78900e-03,-0.0546875,-9.375e-07
-9.78800e-03,-0.0507812,-0.000399375
-9.78700e-03,-0.0539063,0.000152813
-9.78600e-03,-0.065625,7.40625e-05
-9.78500e-03,-0.05625,-5.0625e-05
-9.78400e-03,-0.0534375,-8.5625e-05
-9.78300e-03,-0.0425,-8.8125e-05
-9.78200e-03,-0.0448438,0.000100938
-9.78100e-03,-0.0451563,-0.000148438
-9.78000e-03,-0.0490625,-0.000274375
-9.77900e-03,-0.0479688,-0.000112188
-9.77800e-03,-0.0535937,-0.0003375
-9.77700e-03,-0.0471875,-0.000414063
-9.77600e-03,-0.054375,-4.46875e-05
-9.77500e-03,-0.053125,-0.000212188
-9.77400e-03,-0.060625,-0.00032875
-9.77300e-03,-0.0478125,-0.000184375
-9.77200e-03,-0.0515625,-0.00047375
-9.77100e-03,-0.0565625,-0.000318438
-9.77000e-03,-0.05375,-0.000230625
-9.76900e-03,-0.046875,-0.000281563
-9.76800e-03,-0.0490625,-8.71875e-05
-9.76700e-03,-0.04875,-0.000419375
-9.76600e-03,-0.0509375,-0.000314063
-9.76500e-03,-0.04625,-0.00030875
-9.76400e-03,-0.0551563,-0.000486563
-9.76300e-03,-0.06125,4.875e-05
-9.76200e-03,-0.0546875,-0.0005625
-9.76100e-03,-0.0565625,-0.00033375
-9.76000e-03,-0.0453125,-0.000543125
-9.75900e-03,-0.0596875,-0.00041875
-9.75800e-03,-0.0603125,-0.000279375
-9.75700e-03,-0.0551563,-0.000479063
-9.75600e-03,-0.0495312,-0.000690313
-9.75500e-03,-0.0475,-0.000379688
-9.75400e-03,-0.048125,-0.000679688
-9.75300e-03,-0.05375,-0.000500938
-9.75200e-03,-0.0551563,0.000161563
-9.75100e-03,-0.0482812,-0.000878438
-9.75000e-03,-0.0471875,-0.000487188
-9.74900e-03,-0.0509375,-0.000376875
-9.74800e-03,-0.055625,-0.000167188
-9.74700e-03,-0.0520313,-0.000545938
-9.74600e-03,-0.0510938,-0.00028375
-9.74500e-03,-0.050625,-0.000244375
-9.74400e-03,-0.049375,-0.000264375
-9.74300e-03,-0.059375,8.34375e-05
-9.74200e-03,-0.0532813,-0.000340625
-9.74100e-03,-0.064375,-0.000154063
-9.74000e-03,-0.0476562,-2.3125e-05
-9.73900e-03,-0.0517188,-0.00037
-9.73800e-03,-0.0620312,4.875e-05
-9.73700e-03,-0.0475,2.5625e-05
-9.73600e-03,-0.0503125,-0.000272188
-9.73500e-03,-0.0459375,-8.78125e-05
-9.73400e-03,-0.0504687,-0.000144063
-9.73300e-03,-0.0557813,0.00011
-9.73200e-03,-0.0525,-0.000305938
-9.73100e-03,-0.0601562,-0.000200938
-9.73000e-03,-0.0501562,-0.00037875
-9.72900e-03,-0.0575,-0.00017625
-9.72800e-03,-0.0445313,-0.000288438
-9.72700e-03,-0.055,-9.8125e-05
-9.72600e-03,-0.0490625,-0.000216875
-9.72500e-03,-0.0479688,-0.000199688
-9.72400e-03,-0.059375,-0.000831875
-9.72300e-03,-0.0509375,-0.000456875
-9.72200e-03,-0.039375,0.000315625
-9.72100e-03,-0.0495312,-0.000533438
-9.72000e-03,-0.0564063,-0.000183438
-9.71900e-03,-0.0482812,-0.000392813
-9.71800e-03,-0.0351562,-0.000724375
-9.71700e-03,-0.0432813,-0.000216875
-9.71600e-03,-0.0448438,-0.0001625
-9.71500e-03,-0.05,9.8125e-05
-9.71400e-03,-0.0371875,-0.000402813
-9.71300e-03,-0.0439063,-0.000350625
-9.71200e-03,-0.0542187,-0.000728438
-9.71100e-03,-0.0525,-0.00053875
-9.71000e-03,-0.05375,0.000321875
-9.70900e-03,-0.05625,-0.000324375
-9.70800e-03,-0.0567187,-0.0001875
-9.70700e-03,-0.0445313,-0.00056875
-9.70600e-03,-0.046875,-0.00088125
-9.70500e-03,-0.05625,0.000110313
-9.70400e-03,-0.0575,-0.00069875
-9.70300e-03,-0.0517188,-0.000145313
-9.70200e-03,-0.0557813,-0.000842188
-9.70100e-03,-0.0528125,-0.000555313
-9.70000e-03,-0.055,-2.6875e-05
-9.69900e-03,-0.0476562,-0.000245313
-9.69800e-03,-0.0598438,-0.00032
-9.69700e-03,-0.055,0.000124375
-9.69600e-03,-0.0545313,-0.000770313
-9.69500e-03,-0.06,0.000226875
-9.69400e-03,-0.0634375,-4.1875e-05
-9.69300e-03,-0.056875,-0.000735
-9.69200e-03,-0.0504687,1.375e-05
-9.69100e-03,-0.0459375,-0.000229063
-9.69000e-03,-0.0567187,-0.000119375
-9.68900e-03,-0.0573437,-1.65625e-05
-9.68800e-03,-0.0396875,-0.000574688
-9.68700e-03,-0.0540625,-0.000494375
-9.68600e-03,-0.0495312,-0.000579688
-9.68500e-03,-0.0465625,-0.000415
-9.68400e-03,-0.0478125,-0.0002025
-9.68300e-03,-0.0567187,4.125e-05
-9.68200e-03,-0.0642188,-0.0005275
-9.68100e-03,-0.0534375,-0.000143125
-9.68000e-03,-0.0590625,-0.00089125
-9.67900e-03,-0.0453125,-0.000379063
