nmr/data/tek0013.csv

Model,MDO4054-3
Firmware Version,2.20

Waveform Type,ANALOG,
Point Format,Y,
Horizontal Units,s,
Horizontal Scale,0.01,
Horizontal Delay,0.03977,
Sample Interval,1e-05,
Record Length,10000,
Gating,0.0% to 100.0%,
Probe Attenuation,1,
Vertical Units,V,
Vertical Offset,0,
Vertical Scale,1,
Vertical Position,0.02,
,,
,,
,,
Label,,
TIME,CH1,CH2
-1.0230e-02,-0.0440625,-0.0001425
-1.0220e-02,-0.0510938,-0.000519375
-1.0210e-02,-0.0525,-0.000134688
-1.0200e-02,-0.0632812,0.00013125
-1.0190e-02,-0.0467188,-5.84375e-05
-1.0180e-02,-0.0598438,-2.21875e-05
-1.0170e-02,-0.0604688,-4.15625e-05
-1.0160e-02,-0.0490625,9.6875e-06
-1.0150e-02,-0.0589063,-0.000655938
-1.0140e-02,-0.0535937,3.21875e-05
-1.0130e-02,-0.0523437,-0.000362813
-1.0120e-02,-0.0528125,-0.00030125
-1.0110e-02,-0.0457813,-6.96875e-05
-1.0100e-02,-0.0457813,0.0002375
-1.0090e-02,-0.0503125,-0.0002975
-1.0080e-02,-0.0614062,-0.000195625
-1.0070e-02,-0.0507812,2.625e-05
-1.0060e-02,-0.05875,6.5625e-05
-1.0050e-02,-0.039375,-3.375e-05
-1.0040e-02,-0.048125,0.000229688
-1.0030e-02,-0.0459375,0.000232813
-1.0020e-02,-0.0528125,9.0625e-06
-1.0010e-02,-0.0542187,0.000308438
-1.0000e-02,-0.0507812,-0.000482188
-9.9900e-03,-0.0514063,-9.53125e-05
-9.9800e-03,-0.0559375,6.40625e-05
-9.9700e-03,-0.0464062,-0.000275938
-9.9600e-03,-0.0485938,-0.000228125
-9.9500e-03,-0.0507812,-0.000164375
-9.9400e-03,-0.0395313,-9.15625e-05
-9.9300e-03,-0.04125,-8.84375e-05
-9.9200e-03,-0.0485938,3.78125e-05
-9.9100e-03,-0.053125,0.000451875
-9.9000e-03,-0.0485938,1.40625e-05
-9.8900e-03,-0.0509375,-0.000601563
-9.8800e-03,-0.0484375,-0.000143438
-9.8700e-03,-0.0595313,-0.000414063
-9.8600e-03,-0.060625,-0.000239688
-9.8500e-03,-0.0632812,-0.000419375
-9.8400e-03,-0.0476562,-0.000357813
-9.8300e-03,-0.0585938,-0.000209688
-9.8200e-03,-0.039375,0.0001975
-9.8100e-03,-0.0520313,0.0001075
-9.8000e-03,-0.0467188,-6.65625e-05
-9.7900e-03,-0.0420312,-0.00012125
-9.7800e-03,-0.06,0.000197813
-9.7700e-03,-0.0525,-0.000415
-9.7600e-03,-0.0490625,0.000190938
-9.7500e-03,-0.0496875,-0.000114063
-9.7400e-03,-0.046875,-4.15625e-05
-9.7300e-03,-0.0459375,1.8125e-05
-9.7200e-03,-0.05625,-0.000260938
-9.7100e-03,-0.0515625,-0.000138125
-9.7000e-03,-0.0385937,-0.000212188
-9.6900e-03,-0.0495312,-5.3125e-05
-9.6800e-03,-0.0534375,-9.0625e-05
-9.6700e-03,-0.0598438,-2.4375e-05
-9.6600e-03,-0.0471875,-0.000209688
-9.6500e-03,-0.0523437,0.000147813
-9.6400e-03,-0.0529687,-0.000172813
-9.6300e-03,-0.0575,-5.4375e-05
-9.6200e-03,-0.0560937,0.000189688
-9.6100e-03,-0.0453125,-5.96875e-05
-9.6000e-03,-0.055,-0.000537813
-9.5900e-03,-0.0582813,9.125e-05
-9.5800e-03,-0.058125,-0.000280938
-9.5700e-03,-0.0575,-0.00021125
-9.5600e-03,-0.0695313,-1.5625e-05
-9.5500e-03,-0.0579687,-4.625e-05
-9.5400e-03,-0.03375,-0.000230313
-9.5300e-03,-0.0371875,-0.000205625
-9.5200e-03,-0.0507812,5e-06
-9.5100e-03,-0.0551563,-0.000317188
-9.5000e-03,-0.044375,-0.00035
-9.4900e-03,-0.0570313,-0.000109375
-9.4800e-03,-0.0415625,-0.000126875
-9.4700e-03,-0.0470312,-0.000126875
-9.4600e-03,-0.0592188,-3.40625e-05
-9.4500e-03,-0.0595313,-0.000272812
-9.4400e-03,-0.0573437,-0.000199375
-9.4300e-03,-0.0495312,-9.0625e-05
-9.4200e-03,-0.0496875,-0.000374375
-9.4100e-03,-0.0546875,-8.375e-05
-9.4000e-03,-0.0571875,0.000204375
-9.3900e-03,-0.0501562,-5.90625e-05
-9.3800e-03,-0.049375,-0.000506563
-9.3700e-03,-0.0423437,0.000176563
-9.3600e-03,-0.0479688,-9.75e-05
-9.3500e-03,-0.0464062,-9.0625e-05
-9.3400e-03,-0.0360938,0.000152188
-9.3300e-03,-0.0492188,-0.000145313
-9.3200e-03,-0.0520313,-0.000225625
-9.3100e-03,-0.0539063,-3.75e-06
-9.3000e-03,-0.0509375,-0.000144375
-9.2900e-03,-0.0503125,-0.000313125
-9.2800e-03,-0.0610938,4.15625e-05
-9.2700e-03,-0.0539063,-0.000395313
-9.2600e-03,-0.0520313,-0.000104375
-9.2500e-03,-0.0601562,-0.000305313
-9.2400e-03,-0.055625,-0.000250625
-9.2300e-03,-0.034375,-0.00040125
-9.2200e-03,-0.0598438,-0.00037125
-9.2100e-03,-0.065625,-0.00020125
-9.2000e-03,-0.0445313,0.000189375
-9.1900e-03,-0.0629688,-0.000225
-9.1800e-03,-0.0523437,-0.000226563
-9.1700e-03,-0.0573437,3.78125e-05
-9.1600e-03,-0.0475,-0.000126875
-9.1500e-03,-0.0539063,9.40625e-05
-9.1400e-03,-0.0457813,-0.00024375
-9.1300e-03,-0.055625,-0.000221875
-9.1200e-03,-0.0415625,-1.375e-05
-9.1100e-03,-0.0520313,-3.25e-05
-9.1000e-03,-0.0582813,-0.000204688
-9.0900e-03,-0.0646875,-4.53125e-05
-9.0800e-03,-0.0582813,0.000202188
-9.0700e-03,-0.0501562,5.0625e-05
-9.0600e-03,-0.045,-0.000205
-9.0500e-03,-0.0534375,-0.000330625
-9.0400e-03,-0.0370313,-0.000229375
-9.0300e-03,-0.054375,2.4375e-05
-9.0200e-03,-0.0435938,-0.000132188
-9.0100e-03,-0.0534375,-0.000343438
-9.0000e-03,-0.0545313,-0.000101875
-8.9900e-03,-0.0585938,0.000304687
-8.9800e-03,-0.04875,0.000140625
-8.9700e-03,-0.049375,0.0001825
-8.9600e-03,-0.0445313,-0.0002325
-8.9500e-03,-0.0453125,-8.8125e-05
-8.9400e-03,-0.0464062,9.125e-05
-8.9300e-03,-0.0425,-3.125e-05
-8.9200e-03,-0.0485938,-0.000191875
-8.9100e-03,-0.0528125,-0.000417813
-8.9000e-03,-0.0567187,-0.00030375
-8.8900e-03,-0.0473438,-0.0001275
-8.8800e-03,-0.055,-0.000333125
-8.8700e-03,-0.0598438,-0.00028125
-8.8600e-03,-0.0485938,1.5625e-05
-8.8500e-03,-0.0570313,-0.000272812
-8.8400e-03,-0.0515625,-0.000260625
-8.8300e-03,-0.0364063,-0.000115
-8.8200e-03,-0.036875,-8.46875e-05
-8.8100e-03,-0.04875,8.125e-06
-8.8000e-03,-0.05375,-2.5e-05
-8.7900e-03,-0.0429688,-0.000114375
-8.7800e-03,-0.051875,-0.000187188
-8.7700e-03,-0.061875,-0.000241563
-8.7600e-03,-0.0490625,5.5e-05
-8.7500e-03,-0.0439063,-0.000184688
-8.7400e-03,-0.056875,-4.21875e-05
-8.7300e-03,-0.05625,0.000326875
-8.7200e-03,-0.0589063,-3.1875e-05
-8.7100e-03,-0.0454688,0.000329688
-8.7000e-03,-0.045,-5.4375e-05
-8.6900e-03,-0.0496875,-7.125e-05
-8.6800e-03,-0.0560937,-0.000228125
-8.6700e-03,-0.0440625,-0.000214063
-8.6600e-03,-0.0525,-7.8125e-05
-8.6500e-03,-0.0570313,-6.8125e-05
-8.6400e-03,-0.0451563,-5.03125e-05
-8.6300e-03,-0.0421875,-0.000171875
-8.6200e-03,-0.0404687,-0.000114688
-8.6100e-03,-0.0478125,5.5e-05
-8.6000e-03,-0.0339062,-0.000111563
-8.5900e-03,-0.0559375,-0.000252812
-8.5800e-03,-0.0385937,-0.000337813
-8.5700e-03,-0.0542187,6.5625e-06
-8.5600e-03,-0.056875,-0.000250625
-8.5500e-03,-0.0510938,6.84375e-05
-8.5400e-03,-0.0532813,-0.000160625
-8.5300e-03,-0.0423437,-0.000160313
-8.5200e-03,-0.0428125,-0.000100313
-8.5100e-03,-0.0625,-0.00027
-8.5000e-03,-0.0415625,-0.000169688
-8.4900e-03,-0.0573437,-0.000264688
-8.4800e-03,-0.075,0.000294688
-8.4700e-03,-0.0410937,-8.84375e-05
-8.4600e-03,-0.0560937,-0.000263437
-8.4500e-03,-0.0529687,-0.00043625
-8.4400e-03,-0.0496875,-0.000499375
-8.4300e-03,-0.0475,-4.53125e-05
-8.4200e-03,-0.058125,-6.3125e-05
-8.4100e-03,-0.0484375,2.90625e-05
-8.4000e-03,-0.0509375,-8.34375e-05
-8.3900e-03,-0.0490625,-0.000681875
-8.3800e-03,-0.0542187,6.78125e-05
-8.3700e-03,-0.059375,0.000243438
-8.3600e-03,-0.0509375,-7.71875e-05
-8.3500e-03,-0.0367188,-3.84375e-05
-8.3400e-03,-0.05125,-0.000357188
-8.3300e-03,-0.0615625,-0.000201563
-8.3200e-03,-0.0490625,-0.000105625
-8.3100e-03,-0.0479688,-0.000339688
-8.3000e-03,-0.0498438,5.75e-05
-8.2900e-03,-0.0570313,0.000197188
-8.2800e-03,-0.0526563,-1.375e-05
-8.2700e-03,-0.0584375,-0.000241875
-8.2600e-03,-0.0548437,-0.000144375
-8.2500e-03,-0.054375,1.84375e-05
-8.2400e-03,-0.05625,-0.000235
-8.2300e-03,-0.059375,-0.0003525
-8.2200e-03,-0.051875,-0.000120313
-8.2100e-03,-0.048125,-0.000204063
-8.2000e-03,-0.0445313,-8.65625e-05
-8.1900e-03,-0.044375,1.0625e-05
-8.1800e-03,-0.0460938,0.000127813
-8.1700e-03,-0.0545313,-0.00014625
-8.1600e-03,-0.0454688,-0.000298438
-8.1500e-03,-0.0465625,-0.000337188
-8.1400e-03,-0.0482812,-0.000311875
-8.1300e-03,-0.0582813,-5.96875e-05
-8.1200e-03,-0.039375,-0.000310313
-8.1100e-03,-0.0515625,0.00014375
-8.1000e-03,-0.0403125,-0.000360313
-8.0900e-03,-0.0454688,-0.000200625
-8.0800e-03,-0.0557813,6.09375e-05
-8.0700e-03,-0.0539063,-5.1875e-05
-8.0600e-03,-0.0345312,-0.00012125
-8.0500e-03,-0.0434375,-0.000389063
-8.0400e-03,-0.0448438,0.000125938
-8.0300e-03,-0.0490625,-0.000154375
-8.0200e-03,-0.0459375,-0.00023625
-8.0100e-03,-0.0534375,-4.25e-05
-8.0000e-03,-0.0446875,-4.78125e-05
-7.9900e-03,-0.0515625,0.00054875
-7.9800e-03,-0.0448438,0.000203438
-7.9700e-03,-0.0539063,6.25e-07
-7.9600e-03,-0.0453125,-2.9375e-05
-7.9500e-03,-0.0659375,-9.0625e-06
-7.9400e-03,-0.0540625,0.000254688
-7.9300e-03,-0.0448438,-0.000403125
-7.9200e-03,-0.05,-6.84375e-05
-7.9100e-03,-0.0578125,-0.000304687
-7.9000e-03,-0.05625,-0.000437813
-7.8900e-03,-0.0504687,-0.000284063
-7.8800e-03,-0.054375,-0.000205
-7.8700e-03,-0.050625,-0.000400938
-7.8600e-03,-0.0551563,-0.00039125
-7.8500e-03,-0.053125,-8.125e-06
-7.8400e-03,-0.0540625,-0.000165625
-7.8300e-03,-0.0515625,1.125e-05
-7.8200e-03,-0.0434375,-0.000405
-7.8100e-03,-0.0409375,-0.000168438
-7.8000e-03,-0.049375,-0.000210938
-7.7900e-03,-0.056875,0.0003925
-7.7800e-03,-0.0504687,0.0001925
-7.7700e-03,-0.055625,-0.00029875
-7.7600e-03,-0.0596875,-0.0003875
-7.7500e-03,-0.0454688,-0.000672813
-7.7400e-03,-0.0540625,8.875e-05
-7.7300e-03,-0.0484375,-0.000280625
-7.7200e-03,-0.0492188,4.125e-05
-7.7100e-03,-0.0590625,-0.000283437
-7.7000e-03,-0.05,-0.000599375
-7.6900e-03,-0.0470312,-0.000273125
-7.6800e-03,-0.0546875,5.0625e-05
-7.6700e-03,-0.0542187,0.000116563
-7.6600e-03,-0.036875,-0.000444375
-7.6500e-03,-0.058125,-0.000415938
-7.6400e-03,-0.0482812,-0.000423438
-7.6300e-03,-0.0596875,-0.000173125
-7.6200e-03,-0.0425,-0.00033375
-7.6100e-03,-0.0435938,0.000116563
-7.6000e-03,-0.04875,-2.34375e-05
-7.5900e-03,-0.05125,-0.000222813
-7.5800e-03,-0.0476562,-8.09375e-05
-7.5700e-03,-0.0610938,-1.09375e-05
-7.5600e-03,-0.0534375,0.000356875
-7.5500e-03,-0.0375,6.21875e-05
-7.5400e-03,-0.0607812,-0.000391875
-7.5300e-03,-0.05375,-0.00018125
-7.5200e-03,-0.049375,-0.000199375
-7.5100e-03,-0.0482812,-0.000444375
-7.5000e-03,-0.049375,-6.125e-05
-7.4900e-03,-0.0545313,-7.96875e-05
-7.4800e-03,-0.0465625,0.000346875
-7.4700e-03,-0.0532813,-0.000203125
-7.4600e-03,-0.0592188,4.9375e-05
-7.4500e-03,-0.053125,8.90625e-05
-7.4400e-03,-0.0584375,-0.000485313
-7.4300e-03,-0.0553125,-0.000290938
-7.4200e-03,-0.0559375,-0.000257188
-7.4100e-03,-0.0517188,-0.000103125
-7.4000e-03,-0.05125,-0.000158125
-7.3900e-03,-0.0515625,-0.000315625
-7.3800e-03,-0.0478125,-2.46875e-05
-7.3700e-03,-0.0573437,-3.3125e-05
-7.3600e-03,-0.0535937,0.000340938
-7.3500e-03,-0.0521875,0.000204063
-7.3400e-03,-0.045625,-0.000414063
-7.3300e-03,-0.0576563,-0.000508125
-7.3200e-03,-0.0573437,-0.000233125
-7.3100e-03,-0.0610938,0.000223125
-7.3000e-03,-0.0492188,7.1875e-06
-7.2900e-03,-0.0471875,0.000176563
-7.2800e-03,-0.053125,0.000382813
-7.2700e-03,-0.0439063,-3.4375e-05
-7.2600e-03,-0.0484375,-0.00021125
-7.2500e-03,-0.0585938,-0.000197813
-7.2400e-03,-0.0526563,0.000247188
-7.2300e-03,-0.039375,-2.78125e-05
-7.2200e-03,-0.046875,-6.875e-05
-7.2100e-03,-0.0576563,-0.000151875
-7.2000e-03,-0.0598438,-0.000225
-7.1900e-03,-0.055625,-0.000182813
-7.1800e-03,-0.0432813,-5.6875e-05
-7.1700e-03,-0.0434375,-2.34375e-05
-7.1600e-03,-0.0507812,-0.000321875
-7.1500e-03,-0.0423437,-0.000103125
-7.1400e-03,-0.04625,-0.000265313
-7.1300e-03,-0.0498438,-0.000339375
-7.1200e-03,-0.0475,-6.90625e-05
-7.1100e-03,-0.0521875,-0.000373438
-7.1000e-03,-0.0442188,-0.000290625
-7.0900e-03,-0.0504687,-0.000180938
-7.0800e-03,-0.0509375,1.375e-05
-7.0700e-03,-0.044375,-0.000291563
-7.0600e-03,-0.0576563,-3.5e-05
-7.0500e-03,-0.0559375,-0.00027375
-7.0400e-03,-0.0554687,8.5e-05
-7.0300e-03,-0.058125,-0.000270313
-7.0200e-03,-0.0496875,-0.000109375
-7.0100e-03,-0.041875,-0.000114688
-7.0000e-03,-0.051875,-2.53125e-05
-6.9900e-03,-0.0526563,-0.000264063
-6.9800e-03,-0.045,8.6875e-05
-6.9700e-03,-0.0451563,-0.000321875
-6.9600e-03,-0.0535937,2.84375e-05
-6.9500e-03,-0.0534375,-0.00025875
-6.9400e-03,-0.0470312,-0.00022625
-6.9300e-03,-0.049375,-0.000165938
-6.9200e-03,-0.0492188,-0.000261875
-6.9100e-03,-0.0476562,-7.5e-05
-6.9000e-03,-0.0415625,-0.00015375
-6.8900e-03,-0.0526563,-0.000210313
-6.8800e-03,-0.0634375,-0.000150625
-6.8700e-03,-0.0517188,-0.000204375
-6.8600e-03,-0.0489062,-0.000343125
-6.8500e-03,-0.0534375,-0.000293438
-6.8400e-03,-0.0604688,3.28125e-05
-6.8300e-03,-0.0473438,-0.000173125
-6.8200e-03,-0.0565625,-0.00015
-6.8100e-03,-0.0560937,-0.000523438
-6.8000e-03,-0.0539063,-7.53125e-05
-6.7900e-03,-0.0514063,-0.00016
-6.7800e-03,-0.0290625,0.00012625
-6.7700e-03,-0.04,0.000124688
-6.7600e-03,-0.0523437,0.000167188
-6.7500e-03,-0.0492188,4.5625e-05
-6.7400e-03,-0.0529687,6.875e-05
-6.7300e-03,-0.0457813,0.00013
-6.7200e-03,-0.044375,0.00037875
-6.7100e-03,-0.0571875,0.0001725
-6.7000e-03,-0.0504687,-0.000205
-6.6900e-03,-0.064375,-3.0625e-05
-6.6800e-03,-0.0473438,-4.8125e-05
-6.6700e-03,-0.0442188,-0.00012375
-6.6600e-03,-0.0457813,-0.0004275
-6.6500e-03,-0.0542187,-0.000196875
-6.6400e-03,-0.0457813,-0.000335938
-6.6300e-03,-0.0490625,-0.000590625
-6.6200e-03,-0.0446875,-0.00023
-6.6100e-03,-0.055625,-6.09375e-05
-6.6000e-03,-0.0539063,1.875e-05
-6.5900e-03,-0.0376563,-2.8125e-06
-6.5800e-03,-0.0367188,-0.00010375
-6.5700e-03,-0.0548437,-0.000260313
-6.5600e-03,-0.0460938,-0.000502813
-6.5500e-03,-0.0471875,-0.00044125
-6.5400e-03,-0.0517188,-0.000516563
-6.5300e-03,-0.0575,-0.000380625
-6.5200e-03,-0.0448438,-0.000267813
-6.5100e-03,-0.0542187,-9.875e-05
-6.5000e-03,-0.05625,-0.000187188
-6.4900e-03,-0.06125,-0.000385938
-6.4800e-03,-0.0570313,-0.00035125
-6.4700e-03,-0.0503125,2.8125e-06
-6.4600e-03,-0.05375,-0.000231875
-6.4500e-03,-0.0579687,4.125e-05
-6.4400e-03,-0.0582813,-2.5e-05
-6.4300e-03,-0.0559375,-0.000193125
-6.4200e-03,-0.0426562,-0.000174063
-6.4100e-03,-0.0625,2.1875e-05
-6.4000e-03,-0.0420312,0.00014375
-6.3900e-03,-0.0498438,9.0625e-05
-6.3800e-03,-0.0359375,-0.0002675
-6.3700e-03,-0.0520313,0.000384375
-6.3600e-03,-0.0434375,0.000255625
-6.3500e-03,-0.049375,-0.000280625
-6.3400e-03,-0.045625,-0.00026125
-6.3300e-03,-0.051875,-0.000345313
-6.3200e-03,-0.0396875,-0.00013375
-6.3100e-03,-0.0490625,-0.000415313
-6.3000e-03,-0.0529687,-8.1875e-05
-6.2900e-03,-0.055,3.5625e-05
-6.2800e-03,-0.0503125,-0.000162813
-6.2700e-03,-0.0482812,-0.00030875
-6.2600e-03,-0.0545313,-0.000415
-6.2500e-03,-0.0398437,8.5e-05
-6.2400e-03,-0.051875,2.3125e-05
-6.2300e-03,-0.0428125,-1.8125e-05
-6.2200e-03,-0.0526563,0.000255938
-6.2100e-03,-0.0546875,-0.0002025
-6.2000e-03,-0.0490625,-0.0003175
-6.1900e-03,-0.0532813,-2.25e-05
-6.1800e-03,-0.0507812,0.000113438
-6.1700e-03,-0.0446875,-0.000260625
-6.1600e-03,-0.0504687,-0.000253438
-6.1500e-03,-0.0454688,3.5625e-05
-6.1400e-03,-0.0576563,-0.000388125
-6.1300e-03,-0.0503125,-0.000490625
-6.1200e-03,-0.0451563,-6.78125e-05
-6.1100e-03,-0.0554687,-0.000154063
-6.1000e-03,-0.0648438,-9.40625e-05
-6.0900e-03,-0.0446875,-0.000328125
-6.0800e-03,-0.0523437,-0.000485625
-6.0700e-03,-0.059375,-0.000365
-6.0600e-03,-0.054375,-0.0002125
-6.0500e-03,-0.0551563,-0.000230938
-6.0400e-03,-0.0448438,-3.15625e-05
-6.0300e-03,-0.0496875,4.59375e-05
-6.0200e-03,-0.0560937,0.00019625
-6.0100e-03,-0.039375,-0.000209375
-6.0000e-03,-0.051875,-0.0003625
-5.9900e-03,-0.0514063,-0.00018125
-5.9800e-03,-0.05,-0.0003375
-5.9700e-03,-0.0564063,-0.00033125
-5.9600e-03,-0.0578125,-0.00101656
-5.9500e-03,-0.0639062,-0.000518438
-5.9400e-03,-0.0496875,0.000194688
-5.9300e-03,-0.05375,-0.000349375
-5.9200e-03,-0.0576563,-0.000284063
-5.9100e-03,-0.0434375,-7.375e-05
-5.9000e-03,-0.058125,-0.000436875
-5.8900e-03,-0.0596875,-0.000148438
-5.8800e-03,-0.0534375,-4.6875e-06
-5.8700e-03,-0.055625,-0.000157813
-5.8600e-03,-0.0582813,1.6875e-05
-5.8500e-03,-0.0535937,-0.00026
-5.8400e-03,-0.0517188,-2.125e-05
-5.8300e-03,-0.0534375,-0.000290938
-5.8200e-03,-0.0498438,-0.000267188
-5.8100e-03,-0.044375,-0.000191875
-5.8000e-03,-0.0571875,-0.000160938
-5.7900e-03,-0.054375,-3.4375e-05
-5.7800e-03,-0.031875,-7.8125e-05
-5.7700e-03,-0.0460938,-6.625e-05
-5.7600e-03,-0.046875,-8.125e-05
-5.7500e-03,-0.0542187,-0.000139375
-5.7400e-03,-0.0503125,-0.000151563
-5.7300e-03,-0.05125,5.78125e-05
-5.7200e-03,-0.0532813,9.5e-05
-5.7100e-03,-0.0498438,6.46875e-05
-5.7000e-03,-0.046875,-4.96875e-05
-5.6900e-03,-0.0609375,-0.0002525
-5.6800e-03,-0.0617188,-0.000127813
-5.6700e-03,-0.0557813,-0.000189688
-5.6600e-03,-0.05,-0.000305313
-5.6500e-03,-0.0542187,8.5625e-05
-5.6400e-03,-0.0617188,-0.000395
-5.6300e-03,-0.0423437,0.000108438
-5.6200e-03,-0.051875,-0.000179375
-5.6100e-03,-0.0515625,-0.000179688
-5.6000e-03,-0.059375,-0.0001225
-5.5900e-03,-0.0589063,-0.0006
-5.5800e-03,-0.0470312,-0.000289688
-5.5700e-03,-0.0584375,-0.000120625
-5.5600e-03,-0.0445313,-0.000565
-5.5500e-03,-0.06,-0.000508437
-5.5400e-03,-0.050625,-2.9375e-05
-5.5300e-03,-0.0629688,-2.5e-05
-5.5200e-03,-0.045,-0.000242188
-5.5100e-03,-0.0548437,-7.53125e-05
-5.5000e-03,-0.04625,4.1875e-05
-5.4900e-03,-0.0534375,0.000167813
-5.4800e-03,-0.0475,-0.000505938
-5.4700e-03,-0.0590625,-1.75e-05
-5.4600e-03,-0.0471875,-4.09375e-05
-5.4500e-03,-0.0501562,-0.0004775
-5.4400e-03,-0.044375,-0.000432813
-5.4300e-03,-0.05,-0.000371875
-5.4200e-03,-0.0559375,-7.78125e-05
-5.4100e-03,-0.0454688,-0.000131563
-5.4000e-03,-0.0459375,-0.000342188
-5.3900e-03,-0.0385937,-6.5625e-06
-5.3800e-03,-0.0446875,-0.000488438
-5.3700e-03,-0.0620312,-0.000270938
-5.3600e-03,-0.061875,-0.000410625
-5.3500e-03,-0.054375,-0.000245938
-5.3400e-03,-0.0432813,-0.000663125
-5.3300e-03,-0.0557813,-0.000345
-5.3200e-03,-0.0526563,2.8125e-06
-5.3100e-03,-0.0510938,-0.00024125
-5.3000e-03,-0.0490625,-0.000251875
-5.2900e-03,-0.0560937,1.40625e-05
-5.2800e-03,-0.050625,-7.1875e-05
-5.2700e-03,-0.0525,6.25e-07
-5.2600e-03,-0.0576563,-0.000280938
-5.2500e-03,-0.05125,-9.90625e-05
-5.2400e-03,-0.0515625,-0.0002
-5.2300e-03,-0.0484375,-2.21875e-05
-5.2200e-03,-0.05625,-0.000353125
-5.2100e-03,-0.0498438,6.625e-05
-5.2000e-03,-0.0498438,-1.625e-05
-5.1900e-03,-0.06,-1.75e-05
-5.1800e-03,-0.0546875,-6.5625e-06
-5.1700e-03,-0.049375,-0.000589688
-5.1600e-03,-0.0564063,-0.000440625
-5.1500e-03,-0.0404687,-0.00033625
-5.1400e-03,-0.0551563,-0.000172813
-5.1300e-03,-0.0479688,6.125e-05
-5.1200e-03,-0.0459375,-0.000336563
-5.1100e-03,-0.0585938,6.125e-05
-5.1000e-03,-0.055625,-0.000102813
-5.0900e-03,-0.0495312,-4.6875e-06
-5.0800e-03,-0.0515625,-2.1875e-05
-5.0700e-03,-0.0529687,0.00032625
-5.0600e-03,-0.0471875,4.75e-05
-5.0500e-03,-0.0517188,4.15625e-05
-5.0400e-03,-0.0534375,3.875e-05
-5.0300e-03,-0.0542187,-0.00024875
-5.0200e-03,-0.0573437,0.00015375
-5.0100e-03,-0.0484375,-0.000206563
-5.0000e-03,-0.04625,-0.000224375
-4.9900e-03,-0.065,-0.000374688
-4.9800e-03,-0.0567187,-0.000329375
-4.9700e-03,-0.0510938,-0.000206875
-4.9600e-03,-0.0495312,-0.00016
-4.9500e-03,-0.0567187,0.000193125
-4.9400e-03,-0.0682813,6.125e-05
-4.9300e-03,-0.0448438,-8.375e-05
-4.9200e-03,-0.0459375,-3.3125e-05
-4.9100e-03,-0.0345312,-0.000149687
-4.9000e-03,-0.0528125,-0.000253438
-4.8900e-03,-0.0457813,-0.000109688
-4.8800e-03,-0.05125,-0.00018875
-4.8700e-03,-0.055625,0.000129062
-4.8600e-03,-0.0542187,-0.000157813
-4.8500e-03,-0.05625,7.1875e-06
-4.8400e-03,-0.0510938,0.000275938
-4.8300e-03,-0.058125,-0.000383125
-4.8200e-03,-0.0607812,-0.000155938
-4.8100e-03,-0.0548437,-0.000181875
-4.8000e-03,-0.04375,-0.000166875
-4.7900e-03,-0.0504687,-6.375e-05
-4.7800e-03,-0.045,0.000117188
-4.7700e-03,-0.0596875,-8.8125e-05
-4.7600e-03,-0.0434375,8.125e-06
-4.7500e-03,-0.0554687,0.000141563
-4.7400e-03,-0.0546875,-0.00014625
-4.7300e-03,-0.055625,4.90625e-05
-4.7200e-03,-0.0514063,-0.00057875
-4.7100e-03,-0.050625,-0.000449375
-4.7000e-03,-0.0553125,-0.000202813
-4.6900e-03,-0.048125,8.4375e-06
-4.6800e-03,-0.055,1.15625e-05
-4.6700e-03,-0.0490625,-0.000290938
-4.6600e-03,-0.0526563,-0.000365938
-4.6500e-03,-0.0520313,-0.000134375
-4.6400e-03,-0.045625,-0.000330313
-4.6300e-03,-0.0501562,-4.40625e-05
-4.6200e-03,-0.043125,-4.96875e-05
-4.6100e-03,-0.046875,-0.000358438
-4.6000e-03,-0.0571875,2.09375e-05
-4.5900e-03,-0.0454688,-0.000559688
-4.5800e-03,-0.0590625,1.65625e-05
-4.5700e-03,-0.0567187,0.0002925
-4.5600e-03,-0.0485938,2.1875e-06
