nmr/data/tek0043.csv

Model,MDO4054-3
Firmware Version,2.20

Waveform Type,ANALOG,,
Point Format,Y,,
Horizontal Units,s,,
Horizontal Scale,0.01,,
Horizontal Delay,0.05012,,
Sample Interval,1e-06,,
Record Length,100000,,
Gating,0.0% to 100.0%,,
Probe Attenuation,1,,
Vertical Units,V,,
Vertical Offset,0,,
Vertical Scale,1,,
Vertical Position,0.02,,
,,,
,,,
,,,
Label,,,
TIME,CH1,CH2,CH3
1.200000e-04,-0.0507812,0.000849375,4.9299
1.210000e-04,-0.0632812,0.00121438,4.95303
1.220000e-04,-0.05125,0.00103313,4.93709
1.230000e-04,-0.061875,0.000877187,4.96396
1.240000e-04,-0.0510938,0.00142563,4.96021
1.250000e-04,-0.0467188,0.000840312,4.95021
1.260000e-04,-0.0570313,0.00170844,4.95146
1.270000e-04,-0.0634375,0.000754375,4.97021
1.280000e-04,-0.05625,0.000969688,4.93365
1.290000e-04,-0.0534375,0.00110625,4.94396
1.300000e-04,-0.05375,0.00082125,4.97302
1.310000e-04,-0.0553125,0.00134594,4.9849
1.320000e-04,-0.0573437,0.000961563,4.92646
1.330000e-04,-0.0707813,0.00123094,4.94896
1.340000e-04,-0.0573437,0.00108938,4.91677
1.350000e-04,-0.0532813,0.00113063,4.93709
1.360000e-04,-0.0640625,0.00107344,4.96365
1.370000e-04,-0.0429688,0.000724688,4.94303
1.380000e-04,-0.055,0.000814063,4.93209
1.390000e-04,-0.05375,0.00118063,4.93709
1.400000e-04,-0.058125,0.00107938,4.95834
1.410000e-04,-0.0585938,0.00108813,4.94615
1.420000e-04,-0.0565625,0.000655937,4.94146
1.430000e-04,-0.055625,0.00103531,4.96021
1.440000e-04,-0.0570313,0.00121156,4.96303
1.450000e-04,-0.0601562,0.000631563,4.96865
1.460000e-04,-0.0615625,0.00120594,4.96615
1.470000e-04,-0.0575,0.00125688,4.9324
1.480000e-04,-0.063125,0.00131313,4.92146
1.490000e-04,-0.055625,0.000919375,4.9524
1.500000e-04,-0.0484375,0.00113469,4.9249
1.510000e-04,-0.04375,0.000851562,4.91553
1.520000e-04,-0.0575,0.0012725,4.93802
1.530000e-04,-0.06625,0.001165,4.92178
1.540000e-04,-0.0575,0.0009875,4.93771
1.550000e-04,-0.056875,0.00106187,4.96334
1.560000e-04,-0.04625,0.000999375,4.94365
1.570000e-04,-0.0509375,0.00126469,4.94865
1.580000e-04,-0.0589063,0.00117687,4.93178
1.590000e-04,-0.055625,0.00125406,4.95021
1.600000e-04,-0.055,0.000833437,4.91771
1.610000e-04,-0.0614062,0.00131406,4.93584
1.620000e-04,-0.0621875,0.00110781,4.94459
1.630000e-04,-0.0479688,0.0010475,4.93615
1.640000e-04,-0.0675,0.00154719,4.92896
1.650000e-04,-0.039375,0.000708437,4.95396
1.660000e-04,-0.0571875,0.00134156,4.93115
1.670000e-04,-0.0439063,0.00103344,4.92303
1.680000e-04,-0.0414063,0.000610937,4.95053
1.690000e-04,-0.0582813,0.00182125,4.9524
1.700000e-04,-0.0434375,0.000795938,4.94053
1.710000e-04,-0.06625,0.00117469,4.9324
1.720000e-04,-0.0590625,0.00123344,4.94459
1.730000e-04,-0.055625,0.000830625,4.93959
1.740000e-04,-0.0448438,0.00137219,4.94928
1.750000e-04,-0.0615625,0.000458438,4.9474
1.760000e-04,-0.0503125,0.00114594,4.94459
1.770000e-04,-0.0573437,0.000925,4.94115
1.780000e-04,-0.044375,0.00088375,4.91521
1.790000e-04,-0.0473438,0.001165,4.91459
1.800000e-04,-0.0615625,0.000721562,4.91928
1.810000e-04,-0.0498438,0.00139156,4.94678
1.820000e-04,-0.060625,0.00114031,4.95021
1.830000e-04,-0.0578125,0.00129156,4.94959
1.840000e-04,-0.0529687,0.00125375,4.90615
1.850000e-04,-0.0634375,0.000899063,4.92459
1.860000e-04,-0.050625,0.00116188,4.91052
1.870000e-04,-0.060625,0.00139375,4.91584
1.880000e-04,-0.0565625,0.000910625,4.92365
1.890000e-04,-0.0609375,0.00114375,4.95959
1.900000e-04,-0.0546875,0.000957188,4.91928
1.910000e-04,-0.0571875,0.000929063,4.91365
1.920000e-04,-0.049375,0.00127906,4.95021
1.930000e-04,-0.0628125,0.00095625,4.96084
1.940000e-04,-0.0554687,0.00106125,4.94146
1.950000e-04,-0.0575,0.00129938,4.95428
1.960000e-04,-0.04,0.000613125,4.94678
1.970000e-04,-0.0539063,0.00137625,4.94771
1.980000e-04,-0.0471875,0.00141438,4.95428
1.990000e-04,-0.06125,0.00131281,4.95396
2.000000e-04,-0.053125,0.0012075,4.9424
2.010000e-04,-0.0495312,0.0009025,4.9349
2.020000e-04,-0.059375,0.000943437,4.95303
2.030000e-04,-0.053125,0.000856875,4.97021
2.040000e-04,-0.0573437,0.00116469,4.95146
2.050000e-04,-0.0459375,0.00095875,4.93928
2.060000e-04,-0.0528125,0.00132594,4.95053
2.070000e-04,-0.0573437,0.00118812,4.94678
2.080000e-04,-0.064375,0.0011025,4.93615
2.090000e-04,-0.056875,0.00136219,4.97521
2.100000e-04,-0.0604688,0.00122031,4.94646
2.110000e-04,-0.0589063,0.00111781,4.98959
2.120000e-04,-0.04875,0.00111,4.94584
2.130000e-04,-0.0571875,0.000882188,4.95396
2.140000e-04,-0.0604688,0.00129031,4.9574
2.150000e-04,-0.0478125,0.00146969,4.93271
2.160000e-04,-0.04375,0.00139813,4.97209
2.170000e-04,-0.0554687,0.0013225,4.9474
2.180000e-04,-0.0539063,0.0013675,4.92709
2.190000e-04,-0.04875,0.00130938,4.91178
2.200000e-04,-0.0560937,0.000859063,4.94552
2.210000e-04,-0.0578125,0.00106594,4.9549
2.220000e-04,-0.0604688,0.00114375,4.92615
2.230000e-04,-0.0525,0.0011475,4.93678
2.240000e-04,-0.0479688,0.00105531,4.92928
2.250000e-04,-0.0460938,0.00143656,4.95053
2.260000e-04,-0.0464062,0.00134969,4.92615
2.270000e-04,-0.0396875,0.00106563,4.95115
2.280000e-04,-0.0501562,0.00134531,4.9374
2.290000e-04,-0.0501562,0.000855,4.9299
2.300000e-04,-0.0615625,0.00142094,4.95459
2.310000e-04,-0.0567187,0.00116594,4.93928
2.320000e-04,-0.0567187,0.000997188,4.93365
2.330000e-04,-0.0509375,0.00148,4.92365
2.340000e-04,-0.051875,0.000550313,4.94084
2.350000e-04,-0.0620312,0.001385,4.93271
2.360000e-04,-0.0501562,0.00136844,4.93553
2.370000e-04,-0.0667188,0.000986875,4.92021
2.380000e-04,-0.055,0.00134656,4.93271
2.390000e-04,-0.0610938,0.00127969,4.96115
2.400000e-04,-0.0604688,0.00122969,4.91084
2.410000e-04,-0.0523437,0.0011375,4.94021
2.420000e-04,-0.0635938,0.00114531,4.92584
2.430000e-04,-0.0546875,0.00145719,4.95177
2.440000e-04,-0.053125,0.00124,4.93084
2.450000e-04,-0.0528125,0.00101781,4.94584
2.460000e-04,-0.0609375,0.001305,4.91896
2.470000e-04,-0.0646875,0.00129906,4.91646
2.480000e-04,-0.0525,0.00132281,4.96146
2.490000e-04,-0.0546875,0.00150812,4.93209
2.500000e-04,-0.0504687,0.00154531,4.91928
2.510000e-04,-0.061875,0.00129094,4.96209
2.520000e-04,-0.0703125,0.00112719,4.93521
2.530000e-04,-0.06375,0.00115125,4.93365
2.540000e-04,-0.0546875,0.00106563,4.9074
2.550000e-04,-0.0532813,0.00146875,4.90834
2.560000e-04,-0.0676563,0.00108062,4.91959
2.570000e-04,-0.0575,0.00113094,4.92271
2.580000e-04,-0.0540625,0.00160813,4.93365
2.590000e-04,-0.0465625,0.00107719,4.93396
2.600000e-04,-0.055,0.00157813,4.94865
2.610000e-04,-0.061875,0.0014675,4.93521
2.620000e-04,-0.045625,0.00129125,4.96146
2.630000e-04,-0.0489062,0.00120625,4.93834
2.640000e-04,-0.0584375,0.00123,4.92771
2.650000e-04,-0.05625,0.00126,4.94396
2.660000e-04,-0.0526563,0.00128219,4.9524
2.670000e-04,-0.0442188,0.00126063,4.90084
2.680000e-04,-0.0570313,0.00107531,4.94959
2.690000e-04,-0.0498438,0.00108969,4.93271
2.700000e-04,-0.0664062,0.00112594,4.96084
2.710000e-04,-0.0571875,0.00112312,4.95834
2.720000e-04,-0.0603125,0.00109375,4.92021
2.730000e-04,-0.0595313,0.000978438,4.95084
2.740000e-04,-0.056875,0.00150781,4.96209
2.750000e-04,-0.07375,0.00128688,4.94021
2.760000e-04,-0.0664062,0.00129656,4.94928
2.770000e-04,-0.0584375,0.00144625,4.94396
2.780000e-04,-0.0571875,0.0010375,4.9624
2.790000e-04,-0.0570313,0.00148844,4.96334
2.800000e-04,-0.0679688,0.00139594,4.98302
2.810000e-04,-0.0604688,0.00082,4.99553
2.820000e-04,-0.0589063,0.00149469,4.95927
2.830000e-04,-0.0410937,0.000831875,4.95209
2.840000e-04,-0.0601562,0.00124406,4.97209
2.850000e-04,-0.0495312,0.0011175,4.9574
2.860000e-04,-0.0515625,0.00119688,4.97209
2.870000e-04,-0.0525,0.00136125,4.94552
2.880000e-04,-0.0576563,0.00076375,4.95146
2.890000e-04,-0.0479688,0.00145656,5.00084
2.900000e-04,-0.0510938,0.000695,4.96834
2.910000e-04,-0.0554687,0.000905625,4.95771
2.920000e-04,-0.0592188,0.00145844,4.95709
2.930000e-04,-0.0575,0.00133375,4.9474
2.940000e-04,-0.0546875,0.00131281,4.96303
2.950000e-04,-0.0553125,0.00139344,4.95927
2.960000e-04,-0.0614062,0.00126875,4.94053
2.970000e-04,-0.05375,0.00156938,4.92303
2.980000e-04,-0.0498438,0.000934688,4.92709
2.990000e-04,-0.04875,0.00125844,4.93209
3.000000e-04,-0.0560937,0.00128469,4.94271
3.010000e-04,-0.0635938,0.00102344,4.95834
3.020000e-04,-0.0545313,0.00149906,4.95115
3.030000e-04,-0.0695313,0.00161875,4.92834
3.040000e-04,-0.0642188,0.000944063,4.9399
3.050000e-04,-0.0510938,0.00157875,4.92052
3.060000e-04,-0.0542187,0.000698125,4.90677
3.070000e-04,-0.0532813,0.00114156,4.9249
3.080000e-04,-0.0579687,0.00149875,4.97271
3.090000e-04,-0.0648438,0.000737813,4.92334
3.100000e-04,-0.06,0.0017025,4.93646
3.110000e-04,-0.0534375,0.000853125,4.95146
3.120000e-04,-0.0528125,0.000765,4.95053
3.130000e-04,-0.0664062,0.00146219,4.93959
3.140000e-04,-0.0665625,0.00101563,4.93865
3.150000e-04,-0.0515625,0.00147219,4.92928
3.160000e-04,-0.0554687,0.00111344,4.93553
3.170000e-04,-0.0545313,0.000516875,4.93115
3.180000e-04,-0.0584375,0.00139375,4.94084
3.190000e-04,-0.0532813,0.00056875,4.93178
3.200000e-04,-0.0553125,0.00110063,4.93115
3.210000e-04,-0.053125,0.00106219,4.9674
3.220000e-04,-0.0554687,0.000993125,4.92709
3.230000e-04,-0.0721875,0.0011025,4.95146
3.240000e-04,-0.060625,0.0007725,4.92709
3.250000e-04,-0.056875,0.00141969,4.93084
3.260000e-04,-0.0645312,0.00111063,4.96177
3.270000e-04,-0.0567187,0.00163969,4.91365
3.280000e-04,-0.0614062,0.00114094,4.94271
3.290000e-04,-0.0571875,0.00121344,4.93303
3.300000e-04,-0.05875,0.00115156,4.94303
3.310000e-04,-0.055625,0.000915625,4.94146
3.320000e-04,-0.0532813,0.00138344,4.92396
3.330000e-04,-0.0532813,0.00122094,4.92959
3.340000e-04,-0.0542187,0.00139031,4.92459
3.350000e-04,-0.0603125,0.000800313,4.93021
3.360000e-04,-0.0579687,0.0015475,4.94959
3.370000e-04,-0.0625,0.000930937,4.92896
3.380000e-04,-0.0651562,0.001235,4.92021
3.390000e-04,-0.0676563,0.00131031,4.92115
3.400000e-04,-0.0642188,0.00118125,4.94865
3.410000e-04,-0.0546875,0.00157219,4.93928
3.420000e-04,-0.0632812,0.00102406,4.96896
3.430000e-04,-0.0495312,0.00122313,4.91803
3.440000e-04,-0.050625,0.00102563,4.93896
3.450000e-04,-0.0567187,0.001275,4.96365
3.460000e-04,-0.0475,0.00161031,4.95615
3.470000e-04,-0.0596875,0.000990625,4.96365
3.480000e-04,-0.0639062,0.00125094,4.95271
3.490000e-04,-0.0654688,0.000903438,4.94834
3.500000e-04,-0.053125,0.00118937,4.92303
3.510000e-04,-0.0446875,0.00118344,4.94865
3.520000e-04,-0.0514063,0.00128875,4.98677
3.530000e-04,-0.0564063,0.0013875,4.94334
3.540000e-04,-0.0532813,0.00109719,4.95177
3.550000e-04,-0.0642188,0.00140125,4.9574
3.560000e-04,-0.0614062,0.00101687,4.94615
3.570000e-04,-0.0507812,0.000984375,4.9499
3.580000e-04,-0.0609375,0.00154781,4.9399
3.590000e-04,-0.0604688,0.00105062,4.96146
3.600000e-04,-0.04625,0.00131438,4.94459
3.610000e-04,-0.0584375,0.00138469,4.97209
3.620000e-04,-0.0603125,0.00126781,4.96615
3.630000e-04,-0.061875,0.00146031,4.98365
3.640000e-04,-0.0603125,0.00126594,4.94115
3.650000e-04,-0.0546875,0.000837813,4.97709
3.660000e-04,-0.056875,0.00131625,4.96865
3.670000e-04,-0.0648438,0.00104031,4.96709
3.680000e-04,-0.0559375,0.00109625,4.96053
3.690000e-04,-0.0592188,0.00120781,4.91928
3.700000e-04,-0.0632812,0.00104625,4.9499
3.710000e-04,-0.0585938,0.00126063,4.95927
3.720000e-04,-0.0510938,0.00104313,4.92771
3.730000e-04,-0.0496875,0.00114344,4.96678
3.740000e-04,-0.05625,0.00117656,4.94084
3.750000e-04,-0.0501562,0.00106656,4.98896
3.760000e-04,-0.0403125,0.00145063,4.91803
3.770000e-04,-0.0509375,0.00105219,4.93459
3.780000e-04,-0.0625,0.00125563,4.95084
3.790000e-04,-0.04625,0.00104719,4.94521
3.800000e-04,-0.0654688,0.00112781,4.92365
3.810000e-04,-0.0514063,0.00128469,4.92677
3.820000e-04,-0.0578125,0.00131906,4.95209
3.830000e-04,-0.0635938,0.00110187,4.91146
3.840000e-04,-0.0395313,0.00125187,4.95646
3.850000e-04,-0.0428125,0.00106594,4.93084
3.860000e-04,-0.05375,0.00123719,4.93865
3.870000e-04,-0.0545313,0.00114437,4.93521
3.880000e-04,-0.066875,0.00084375,4.93896
3.890000e-04,-0.0425,0.00139781,4.94146
3.900000e-04,-0.0554687,0.000773125,4.9374
3.910000e-04,-0.0467188,0.00135688,4.93709
3.920000e-04,-0.04375,0.00131406,4.93834
3.930000e-04,-0.0592188,0.000795938,4.97021
3.940000e-04,-0.0614062,0.00133563,4.93802
3.950000e-04,-0.054375,0.000982187,4.92021
3.960000e-04,-0.0528125,0.00133344,4.92834
3.970000e-04,-0.0532813,0.00107312,4.95459
3.980000e-04,-0.06,0.000892812,4.93771
3.990000e-04,-0.0575,0.00152188,4.93021
4.000000e-04,-0.0575,0.000883438,4.9374
4.010000e-04,-0.0515625,0.00116281,4.93771
4.020000e-04,-0.0523437,0.00107688,4.92928
4.030000e-04,-0.0503125,0.00097375,4.91771
4.040000e-04,-0.0634375,0.00106563,4.96053
4.050000e-04,-0.045625,0.00108312,4.95271
4.060000e-04,-0.0520313,0.0012525,4.97428
4.070000e-04,-0.0671875,0.00111469,4.95552
4.080000e-04,-0.0548437,0.00105031,4.93678
4.090000e-04,-0.0607812,0.00114969,4.92052
4.100000e-04,-0.0628125,0.00111344,4.95209
4.110000e-04,-0.0507812,0.000998125,4.91146
4.120000e-04,-0.0482812,0.00105969,4.92271
4.130000e-04,-0.061875,0.001145,4.91615
4.140000e-04,-0.0410937,0.00113156,4.97584
4.150000e-04,-0.0435938,0.00116531,4.92802
4.160000e-04,-0.053125,0.0010425,4.93146
4.170000e-04,-0.0542187,0.00105531,4.93584
4.180000e-04,-0.0578125,0.00108938,4.93709
4.190000e-04,-0.0515625,0.00103875,4.93084
4.200000e-04,-0.0575,0.00106875,4.96771
4.210000e-04,-0.0576563,0.00108563,4.92677
4.220000e-04,-0.06125,0.00125781,4.94209
4.230000e-04,-0.0457813,0.000916562,4.94459
4.240000e-04,-0.0557813,0.00118594,4.93271
4.250000e-04,-0.0478125,0.00103688,4.94584
4.260000e-04,-0.0573437,0.000935,4.93834
4.270000e-04,-0.065625,0.00114844,4.97709
4.280000e-04,-0.0640625,0.0011525,4.97552
4.290000e-04,-0.0620312,0.00107375,4.94896
4.300000e-04,-0.0567187,0.0010075,4.97771
4.310000e-04,-0.0576563,0.00102406,4.94771
4.320000e-04,-0.065625,0.00115188,4.95303
4.330000e-04,-0.0651562,0.00100844,4.98428
4.340000e-04,-0.0560937,0.00112281,4.9524
4.350000e-04,-0.0604688,0.00099625,4.96709
4.360000e-04,-0.0576563,0.00105406,4.94053
4.370000e-04,-0.0634375,0.00108219,4.96428
4.380000e-04,-0.050625,0.00110938,4.95334
4.390000e-04,-0.053125,0.00107719,4.95459
4.400000e-04,-0.0540625,0.0011875,4.95459
4.410000e-04,-0.0523437,0.00113469,4.9549
4.420000e-04,-0.0545313,0.00108469,4.94427
4.430000e-04,-0.05875,0.00108031,4.93896
4.440000e-04,-0.0525,0.00110063,4.96521
4.450000e-04,-0.0525,0.0009775,4.93865
4.460000e-04,-0.0446875,0.000991563,4.90146
4.470000e-04,-0.0526563,0.00110125,4.93303
4.480000e-04,-0.0546875,0.00100969,4.9249
4.490000e-04,-0.0492188,0.00101687,4.95428
4.500000e-04,-0.0584375,0.000956875,4.95615
4.510000e-04,-0.0589063,0.0010525,4.91459
4.520000e-04,-0.0514063,0.000928125,4.91771
4.530000e-04,-0.0554687,0.00091875,4.89365
4.540000e-04,-0.06,0.00107719,4.9599
4.550000e-04,-0.0551563,0.00108625,4.93584
4.560000e-04,-0.0696875,0.00116469,4.93115
4.570000e-04,-0.059375,0.00105125,4.9424
4.580000e-04,-0.0435938,0.00108156,4.9224
4.590000e-04,-0.0571875,0.00108875,4.93084
4.600000e-04,-0.0484375,0.00124875,4.94427
4.610000e-04,-0.0546875,0.00117563,4.9424
4.620000e-04,-0.0576563,0.000990625,4.93834
4.630000e-04,-0.0434375,0.00101656,4.95646
4.640000e-04,-0.0582813,0.000994063,4.96209
4.650000e-04,-0.0614062,0.00100875,4.96303
4.660000e-04,-0.0554687,0.001025,4.92084
4.670000e-04,-0.0564063,0.00111562,4.96115
4.680000e-04,-0.0460938,0.00120563,4.96927
4.690000e-04,-0.0559375,0.00108031,4.90396
4.700000e-04,-0.071875,0.00101344,4.95146
4.710000e-04,-0.0473438,0.00106,4.94459
4.720000e-04,-0.0510938,0.000855625,4.90928
4.730000e-04,-0.0604688,0.00116,4.9424
4.740000e-04,-0.0554687,0.000799375,4.9499
4.750000e-04,-0.070625,0.000917813,4.90334
4.760000e-04,-1.45547,0.00118937,4.92709
4.770000e-04,1.725,0.0015025,4.97646
4.780000e-04,-1.98234,-0.0002725,4.96334
4.790000e-04,1.63594,-0.00142688,4.94896
4.800000e-04,-1.89391,-0.00230906,4.92615
4.810000e-04,1.74328,-0.00278625,4.94021
4.820000e-04,-1.86813,-0.00363594,4.97521
4.830000e-04,1.51359,-0.0043925,4.95115
4.840000e-04,-1.60547,-0.00615938,4.93052
4.850000e-04,1.31766,-0.00712563,4.9399
4.860000e-04,-1.40719,-0.00785469,4.92365
4.870000e-04,1.10422,-0.00869938,4.92615
4.880000e-04,-1.14969,-0.00913625,4.94896
4.890000e-04,0.7375,-0.00997406,4.94959
4.900000e-04,-0.8825,-0.0104206,4.94865
4.910000e-04,0.385,-0.0107825,4.95084
4.920000e-04,-0.570312,-0.0113956,4.9324
4.930000e-04,0.255625,-0.0117388,4.97365
4.940000e-04,-0.465781,-0.0118338,4.94552
4.950000e-04,0.431563,-0.0118463,4.95303
4.960000e-04,-0.74625,-0.0118809,4.9324
4.970000e-04,1.30953,-0.0118812,4.95115
4.980000e-04,-0.289375,-0.0118281,4.94209
4.990000e-04,0.0034375,-0.0116894,4.91334
5.000000e-04,0.00125,-0.01159,4.95896
5.010000e-04,0.040625,-0.0115644,4.9149
5.020000e-04,0.0626562,-0.0116644,4.98021
5.030000e-04,0.0415625,-0.0115403,4.9574
5.040000e-04,0.079375,-0.0116941,4.94271
5.050000e-04,0.0676563,-0.011745,4.95303
5.060000e-04,0.0785938,-0.0117922,4.93365
5.070000e-04,0.0875,-0.0117653,4.96584
5.080000e-04,0.0867187,-0.0101259,4.9524
5.090000e-04,0.0792188,-0.00752875,4.99115
5.100000e-04,0.0995313,-0.00506594,4.9574
5.110000e-04,0.091875,-0.00410188,4.94396
5.120000e-04,0.0792188,-0.00480688,4.93865
5.130000e-04,0.0985937,-0.00518563,4.94552
5.140000e-04,0.0857813,-0.00534688,4.9649
5.150000e-04,0.0865625,-0.00517406,4.97115
5.160000e-04,0.0820312,-0.00521969,4.95521
5.170000e-04,0.0807812,-0.0052975,4.9224
5.180000e-04,0.07125,-0.00518031,4.95552
5.190000e-04,0.0676563,-0.005215,4.94177
5.200000e-04,0.0835937,-0.00515875,4.9724
5.210000e-04,0.0846875,-0.00522313,4.94334
5.220000e-04,0.0946875,-0.00528156,4.92459
5.230000e-04,0.080625,-0.00530969,4.93553
5.240000e-04,0.0776562,-0.00529531,4.95146
5.250000e-04,0.0859375,-0.00532156,4.93115
5.260000e-04,0.0726562,-0.00527625,4.94834
5.270000e-04,0.0828125,-0.00527938,4.94209
5.280000e-04,0.0829687,-0.00517125,4.91928
5.290000e-04,0.0623438,-0.00524813,4.93178
5.300000e-04,0.0765625,-0.00529094,4.90053
5.310000e-04,0.0701563,-0.00520594,4.92615
5.320000e-04,0.0715625,-0.00538625,4.9249
5.330000e-04,0.06625,-0.00520281,4.93615
5.340000e-04,0.0621875,-0.0053725,4.93802
5.350000e-04,0.0689063,-0.00516313,4.9174
5.360000e-04,0.070625,-0.0052025,4.92646
5.370000e-04,0.0757812,-0.00518656,4.96271
5.380000e-04,0.0690625,-0.00526531,4.94678
5.390000e-04,0.0682813,-0.00540813,4.95021
5.400000e-04,0.0590625,-0.00541063,4.92115
5.410000e-04,0.0803125,-0.00523219,4.91928
5.420000e-04,0.0529687,-0.00531719,4.92521
5.430000e-04,0.0704687,-0.00530313,4.93146
5.440000e-04,0.0510937,-0.00514719,4.94709
5.450000e-04,0.068125,-0.00505344,4.93459
5.460000e-04,0.0421875,-0.00529031,4.94459
5.470000e-04,0.0709375,-0.00525813,4.9449
5.480000e-04,0.0629688,-0.00532813,4.91052
5.490000e-04,0.0521875,-0.00542219,4.91646
5.500000e-04,0.04375,-0.00537969,4.95209
5.510000e-04,0.0510937,-0.00526375,4.92396
5.520000e-04,0.04625,-0.0051975,4.95209
5.530000e-04,0.0579687,-0.00519719,4.95365
5.540000e-04,0.050625,-0.00511969,4.92834
5.550000e-04,0.0639062,-0.00516844,4.96896
5.560000e-04,0.04625,-0.00524219,4.94209
5.570000e-04,0.0482812,-0.00523844,4.95021
5.580000e-04,0.0521875,-0.00534125,4.93365
5.590000e-04,0.0535937,-0.00532594,4.93115
5.600000e-04,0.046875,-0.00533875,4.89584
5.610000e-04,0.0407813,-0.00517031,4.95271
5.620000e-04,0.0590625,-0.00517094,4.94646
5.630000e-04,0.0471875,-0.00518344,4.96021
5.640000e-04,0.0615625,-0.00520406,4.92521
5.650000e-04,0.0717187,-0.00530875,4.9399
5.660000e-04,0.0573437,-0.00515,4.93615
5.670000e-04,0.0457812,-0.00535406,4.92271
5.680000e-04,0.0534375,-0.00520375,4.94896
5.690000e-04,0.0517187,-0.00527812,4.96053
5.700000e-04,0.0610938,-0.00540219,4.94396
5.710000e-04,0.034375,-0.00530219,4.95802
5.720000e-04,0.044375,-0.00520688,4.92209
5.730000e-04,0.048125,-0.00531063,4.95865
5.740000e-04,0.0403125,-0.00522781,4.9574
5.750000e-04,0.0371875,-0.00523219,4.94615
5.760000e-04,0.0579687,-0.00524281,4.93678
5.770000e-04,0.0482812,-0.00531219,4.9624
5.780000e-04,0.0390625,-0.00532563,4.97146
5.790000e-04,0.0382813,-0.00522094,4.9674
5.800000e-04,0.0346875,-0.00532625,4.9574
5.810000e-04,0.0423437,-0.00530563,4.9799
5.820000e-04,0.0548437,-0.00527781,4.95552
5.830000e-04,0.0501562,-0.0051625,4.9524
