nmr/data/tek0014.csv

Model,MDO4054-3
Firmware Version,2.20

Waveform Type,ANALOG,
Point Format,Y,
Horizontal Units,s,
Horizontal Scale,0.01,
Horizontal Delay,0.03977,
Sample Interval,1e-05,
Record Length,10000,
Gating,0.0% to 100.0%,
Probe Attenuation,1,
Vertical Units,V,
Vertical Offset,0,
Vertical Scale,1,
Vertical Position,0.02,
,,
,,
,,
Label,,
TIME,CH1,CH2
-1.0230e-02,-0.0496875,-0.000603125
-1.0220e-02,-0.0490625,0.000226875
-1.0210e-02,-0.0496875,9.875e-05
-1.0200e-02,-0.0660938,-0.000547188
-1.0190e-02,-0.0470312,7.5625e-05
-1.0180e-02,-0.0601562,-0.000440625
-1.0170e-02,-0.0357813,-0.000402188
-1.0160e-02,-0.0489062,-1.21875e-05
-1.0150e-02,-0.0496875,-0.000339375
-1.0140e-02,-0.0479688,-0.000418125
-1.0130e-02,-0.0582813,0.000385938
-1.0120e-02,-0.0573437,-0.000104063
-1.0110e-02,-0.0475,0.000132813
-1.0100e-02,-0.0339062,-0.000445625
-1.0090e-02,-0.0573437,-8.25e-05
-1.0080e-02,-0.0551563,0.00024875
-1.0070e-02,-0.0460938,-0.0002275
-1.0060e-02,-0.045625,-0.000300313
-1.0050e-02,-0.04875,-0.000497812
-1.0040e-02,-0.0451563,-0.000309375
-1.0030e-02,-0.0498438,8.46875e-05
-1.0020e-02,-0.0523437,-0.000116563
-1.0010e-02,-0.0584375,-0.00055125
-1.0000e-02,-0.0520313,-6.75e-05
-9.9900e-03,-0.0560937,0.000209375
-9.9800e-03,-0.0634375,-0.000321563
-9.9700e-03,-0.0510938,9.21875e-05
-9.9600e-03,-0.0589063,0.0002525
-9.9500e-03,-0.0521875,0.0004775
-9.9400e-03,-0.0609375,-0.0003325
-9.9300e-03,-0.0521875,-0.00067
-9.9200e-03,-0.0595313,-0.00073
-9.9100e-03,-0.0540625,-0.0008025
-9.9000e-03,-0.0579687,-8.375e-05
-9.8900e-03,-0.0489062,0.000132813
-9.8800e-03,-0.054375,0.000464375
-9.8700e-03,-0.0545313,0.00010875
-9.8600e-03,-0.053125,4.6875e-06
-9.8500e-03,-0.045,-0.000114063
-9.8400e-03,-0.0414063,-0.000121563
-9.8300e-03,-0.0635938,-4.71875e-05
-9.8200e-03,-0.0598438,-0.000428438
-9.8100e-03,-0.0507812,0.00018
-9.8000e-03,-0.0534375,0.000278125
-9.7900e-03,-0.0520313,-0.000184063
-9.7800e-03,-0.0510938,-0.000257813
-9.7700e-03,-0.0446875,-9.375e-05
-9.7600e-03,-0.05625,-0.000155
-9.7500e-03,-0.050625,0.000221563
-9.7400e-03,-0.0584375,-6.4375e-05
-9.7300e-03,-0.05375,-0.000315313
-9.7200e-03,-0.0520313,0.000183438
-9.7100e-03,-0.0359375,0.000144688
-9.7000e-03,-0.0482812,-0.000196563
-9.6900e-03,-0.0440625,2.875e-05
-9.6800e-03,-0.05,0.000168125
-9.6700e-03,-0.0529687,-0.000335
-9.6600e-03,-0.0526563,-0.000241563
-9.6500e-03,-0.0540625,0.0006275
-9.6400e-03,-0.0560937,0.000414688
-9.6300e-03,-0.0515625,0.000172188
-9.6200e-03,-0.0584375,-2.40625e-05
-9.6100e-03,-0.0589063,0.000633125
-9.6000e-03,-0.0490625,2e-05
-9.5900e-03,-0.044375,-0.000195938
-9.5800e-03,-0.0551563,0.00019875
-9.5700e-03,-0.056875,0.00078
-9.5600e-03,-0.055,-1.15625e-05
-9.5500e-03,-0.0473438,0.000145938
-9.5400e-03,-0.0504687,-1.9375e-05
-9.5300e-03,-0.0496875,0.000259375
-9.5200e-03,-0.0626562,0.000207813
-9.5100e-03,-0.0598438,0.00018
-9.5000e-03,-0.0573437,0.000159688
-9.4900e-03,-0.0539063,-0.000458125
-9.4800e-03,-0.0496875,-0.000545625
-9.4700e-03,-0.0525,0.000175938
-9.4600e-03,-0.0551563,-6.25e-05
-9.4500e-03,-0.0567187,0.000129688
-9.4400e-03,-0.0545313,-2.34375e-05
-9.4300e-03,-0.0653125,-0.000407813
-9.4200e-03,-0.0589063,-0.0001225
-9.4100e-03,-0.0540625,-0.00027
-9.4000e-03,-0.0595313,-0.000451875
-9.3900e-03,-0.0478125,3.46875e-05
-9.3800e-03,-0.0414063,-0.00045625
-9.3700e-03,-0.0567187,-0.000119063
-9.3600e-03,-0.05,9.46875e-05
-9.3500e-03,-0.0573437,0.000244688
-9.3400e-03,-0.0532813,0.000395938
-9.3300e-03,-0.0478125,0.000335625
-9.3200e-03,-0.0489062,1.34375e-05
-9.3100e-03,-0.046875,-0.000525313
-9.3000e-03,-0.0476562,-0.000295313
-9.2900e-03,-0.0504687,8.59375e-05
-9.2800e-03,-0.0515625,-0.000168438
-9.2700e-03,-0.0603125,0.000143438
-9.2600e-03,-0.043125,0.00010125
-9.2500e-03,-0.0440625,-0.00088375
-9.2400e-03,-0.0521875,-1.1875e-05
-9.2300e-03,-0.056875,-0.000314063
-9.2200e-03,-0.0435938,-0.000627188
-9.2100e-03,-0.063125,0.000256563
-9.2000e-03,-0.0467188,-0.0002125
-9.1900e-03,-0.0503125,-0.000143438
-9.1800e-03,-0.051875,-0.000409375
-9.1700e-03,-0.0434375,-8.875e-05
-9.1600e-03,-0.0529687,-0.000220938
-9.1500e-03,-0.0534375,-0.000199375
-9.1400e-03,-0.055,-0.000165313
-9.1300e-03,-0.0557813,-0.000122188
-9.1200e-03,-0.0504687,-8.90625e-05
-9.1100e-03,-0.0510938,-0.000455625
-9.1000e-03,-0.055,-0.00054625
-9.0900e-03,-0.0625,-0.000424063
-9.0800e-03,-0.0525,-0.00036875
-9.0700e-03,-0.0571875,0.000168125
-9.0600e-03,-0.06,1.25e-06
-9.0500e-03,-0.0495312,0.000225313
-9.0400e-03,-0.0528125,9.8125e-05
-9.0300e-03,-0.05,-0.000210313
-9.0200e-03,-0.0515625,-9.6875e-05
-9.0100e-03,-0.05375,-0.000170313
-9.0000e-03,-0.04625,-4.0625e-06
-8.9900e-03,-0.048125,-5.71875e-05
-8.9800e-03,-0.0595313,0.000300313
-8.9700e-03,-0.0571875,0.000503125
-8.9600e-03,-0.058125,-5.4375e-05
-8.9500e-03,-0.0446875,-0.000362813
-8.9400e-03,-0.0509375,-0.000184063
-8.9300e-03,-0.0445313,-0.000338438
-8.9200e-03,-0.0523437,-0.000274063
-8.9100e-03,-0.049375,-0.000250313
-8.9000e-03,-0.0598438,2.125e-05
-8.8900e-03,-0.0489062,0.000643125
-8.8800e-03,-0.0582813,-4.625e-05
-8.8700e-03,-0.0517188,-0.000111875
-8.8600e-03,-0.0520313,3.53125e-05
-8.8500e-03,-0.0617188,-0.000147813
-8.8400e-03,-0.054375,0.000389375
-8.8300e-03,-0.0540625,5.90625e-05
-8.8200e-03,-0.0498438,0.000443438
-8.8100e-03,-0.0579687,-0.000404375
-8.8000e-03,-0.0557813,-0.000464063
-8.7900e-03,-0.0573437,0.000555
-8.7800e-03,-0.0429688,-0.000273125
-8.7700e-03,-0.0557813,-0.000598125
-8.7600e-03,-0.055,-0.000109063
-8.7500e-03,-0.0620312,-0.000368125
-8.7400e-03,-0.0489062,-0.000231875
-8.7300e-03,-0.0590625,-0.000525
-8.7200e-03,-0.0589063,-0.000178438
-8.7100e-03,-0.0471875,-0.000237188
-8.7000e-03,-0.0525,9.8125e-05
-8.6900e-03,-0.0548437,3.75e-06
-8.6800e-03,-0.0484375,-0.000448125
-8.6700e-03,-0.0496875,4.8125e-05
-8.6600e-03,-0.0525,-0.000575625
-8.6500e-03,-0.055625,-0.00108094
-8.6400e-03,-0.0553125,-0.000135625
-8.6300e-03,-0.0507812,-0.000728125
-8.6200e-03,-0.0439063,-0.000293438
-8.6100e-03,-0.0567187,0.000394688
-8.6000e-03,-0.0573437,0.000830625
-8.5900e-03,-0.0521875,-0.00032875
-8.5800e-03,-0.05625,0.000179688
-8.5700e-03,-0.05,0.0002375
-8.5600e-03,-0.060625,-5.0625e-05
-8.5500e-03,-0.0459375,-0.000272188
-8.5400e-03,-0.0410937,0.000196563
-8.5300e-03,-0.0646875,0.000254375
-8.5200e-03,-0.0432813,-0.000339063
-8.5100e-03,-0.0509375,9.46875e-05
-8.5000e-03,-0.0509375,-0.000410938
-8.4900e-03,-0.0565625,-0.000255938
-8.4800e-03,-0.0604688,-0.000120313
-8.4700e-03,-0.0485938,-0.000225938
-8.4600e-03,-0.0523437,-0.000316875
-8.4500e-03,-0.0503125,-0.000424375
-8.4400e-03,-0.0604688,-4.0625e-06
-8.4300e-03,-0.06,-0.000349375
-8.4200e-03,-0.0498438,2.9375e-05
-8.4100e-03,-0.0510938,5.46875e-05
-8.4000e-03,-0.0475,0.000190938
-8.3900e-03,-0.0565625,0.000262187
-8.3800e-03,-0.04625,2.1875e-06
-8.3700e-03,-0.04875,0.00013
-8.3600e-03,-0.0498438,0.00029125
-8.3500e-03,-0.0610938,0.00041375
-8.3400e-03,-0.056875,-0.000154375
-8.3300e-03,-0.053125,-0.000210625
-8.3200e-03,-0.0546875,-0.000705313
-8.3100e-03,-0.0520313,-0.000458438
-8.3000e-03,-0.0584375,-0.000285938
-8.2900e-03,-0.0545313,-0.00048625
-8.2800e-03,-0.05125,-0.0006075
-8.2700e-03,-0.0576563,-0.000736875
-8.2600e-03,-0.0651562,-0.000528125
-8.2500e-03,-0.0557813,0.000235313
-8.2400e-03,-0.059375,0.000335
-8.2300e-03,-0.0585938,0.000117188
-8.2200e-03,-0.0498438,0.000223125
-8.2100e-03,-0.0535937,-1.125e-05
-8.2000e-03,-0.0609375,-0.000245
-8.1900e-03,-0.0504687,-3.78125e-05
-8.1800e-03,-0.0482812,0.000325938
-8.1700e-03,-0.045,-0.000179063
-8.1600e-03,-0.0621875,0.0004275
-8.1500e-03,-0.0540625,-0.000235938
-8.1400e-03,-0.0429688,-3.40625e-05
-8.1300e-03,-0.0601562,0.000262813
-8.1200e-03,-0.0528125,-0.000368125
-8.1100e-03,-0.048125,5.8125e-05
-8.1000e-03,-0.0601562,-0.000486875
-8.0900e-03,-0.0579687,-0.000252188
-8.0800e-03,-0.0354688,-0.001085
-8.0700e-03,-0.0614062,-0.00104625
-8.0600e-03,-0.0678125,-0.000633125
-8.0500e-03,-0.0379688,-0.000107813
-8.0400e-03,-0.046875,-0.000331563
-8.0300e-03,-0.061875,-0.00045875
-8.0200e-03,-0.05125,-0.000925
-8.0100e-03,-0.0440625,-0.000379375
-8.0000e-03,-0.054375,9.96875e-05
-7.9900e-03,-0.05625,0.000452188
-7.9800e-03,-0.056875,-0.00024375
-7.9700e-03,-0.0565625,5.9375e-06
-7.9600e-03,-0.051875,-1.21875e-05
-7.9500e-03,-0.0610938,4.1875e-05
-7.9400e-03,-0.0475,-7.71875e-05
-7.9300e-03,-0.0540625,0.000145313
-7.9200e-03,-0.0423437,0.000514688
-7.9100e-03,-0.0495312,1.9375e-05
-7.9000e-03,-0.048125,-8.3125e-05
-7.8900e-03,-0.0417187,-0.000111875
-7.8800e-03,-0.063125,0.000500625
-7.8700e-03,-0.0596875,0.000536563
-7.8600e-03,-0.05,0.000498125
-7.8500e-03,-0.0534375,1.5625e-05
-7.8400e-03,-0.0575,-0.000391875
-7.8300e-03,-0.05375,-0.000394375
-7.8200e-03,-0.0535937,-0.0001325
-7.8100e-03,-0.05,0.000350938
-7.8000e-03,-0.0615625,0.000442813
-7.7900e-03,-0.0609375,0.000188125
-7.7800e-03,-0.0565625,-5.25e-05
-7.7700e-03,-0.056875,-0.000204688
-7.7600e-03,-0.0523437,-0.000130938
-7.7500e-03,-0.0590625,-0.000785313
-7.7400e-03,-0.0539063,-0.000584063
-7.7300e-03,-0.051875,0.000263437
-7.7200e-03,-0.0484375,0.00014625
-7.7100e-03,-0.0471875,-0.00035875
-7.7000e-03,-0.0542187,0.000436875
-7.6900e-03,-0.0560937,8.96875e-05
-7.6800e-03,-0.053125,1e-05
-7.6700e-03,-0.0623438,0.000104688
-7.6600e-03,-0.05125,-0.000365938
-7.6500e-03,-0.0485938,-0.000456563
-7.6400e-03,-0.0592188,0.000192813
-7.6300e-03,-0.0482812,-0.000394063
-7.6200e-03,-0.04875,-0.000144688
-7.6100e-03,-0.0395313,3e-05
-7.6000e-03,-0.0554687,-0.000760313
-7.5900e-03,-0.0609375,-0.000600625
-7.5800e-03,-0.06125,-0.000162188
-7.5700e-03,-0.0654688,2.21875e-05
-7.5600e-03,-0.0576563,6.6875e-05
-7.5500e-03,-0.0648438,-1.90625e-05
-7.5400e-03,-0.049375,0.000218125
-7.5300e-03,-0.060625,-0.000440625
-7.5200e-03,-0.0603125,-3.75e-06
-7.5100e-03,-0.0446875,-0.000750938
-7.5000e-03,-0.051875,-0.000147188
-7.4900e-03,-0.053125,0.000268125
-7.4800e-03,-0.0476562,-0.000177188
-7.4700e-03,-0.0448438,-0.000115
-7.4600e-03,-0.0428125,-0.000748125
-7.4500e-03,-0.0489062,-0.000151563
-7.4400e-03,-0.0379688,-0.000738125
-7.4300e-03,-0.0573437,-0.000126563
-7.4200e-03,-0.051875,0.000147813
-7.4100e-03,-0.05375,0.000106875
-7.4000e-03,-0.0529687,-8.96875e-05
-7.3900e-03,-0.0490625,-0.000837813
-7.3800e-03,-0.0542187,-0.00081
-7.3700e-03,-0.0610938,-0.0005425
-7.3600e-03,-0.0503125,-0.000221563
-7.3500e-03,-0.0515625,0.000230938
-7.3400e-03,-0.05625,0.000505625
-7.3300e-03,-0.0464062,0.000128125
-7.3200e-03,-0.0610938,-0.000244375
-7.3100e-03,-0.0585938,-0.000253438
-7.3000e-03,-0.054375,-0.0006075
-7.2900e-03,-0.0501562,-0.00073
-7.2800e-03,-0.0535937,-0.000326875
-7.2700e-03,-0.0557813,-0.000251562
-7.2600e-03,-0.0532813,0.00012
-7.2500e-03,-0.0453125,0.000250938
-7.2400e-03,-0.0501562,-0.00033625
-7.2300e-03,-0.0514063,-0.0003125
-7.2200e-03,-0.0617188,-0.00059
-7.2100e-03,-0.04125,-0.000348438
-7.2000e-03,-0.0598438,-0.000357188
-7.1900e-03,-0.045,0.000107813
-7.1800e-03,-0.0573437,-0.000285
-7.1700e-03,-0.0525,0.000122813
-7.1600e-03,-0.0596875,-0.000394375
-7.1500e-03,-0.0478125,-1.40625e-05
-7.1400e-03,-0.0528125,0.000409063
-7.1300e-03,-0.0471875,0.000167188
-7.1200e-03,-0.048125,0.000709063
-7.1100e-03,-0.0440625,0.00038
-7.1000e-03,-0.0514063,0.000192813
-7.0900e-03,-0.0534375,0.0006175
-7.0800e-03,-0.0514063,0.000428125
-7.0700e-03,-0.0457813,0.000484688
-7.0600e-03,-0.0482812,-4.90625e-05
-7.0500e-03,-0.0567187,0.000148125
-7.0400e-03,-0.05625,0.000295313
-7.0300e-03,-0.0475,-0.000325625
-7.0200e-03,-0.0596875,-0.000235
-7.0100e-03,-0.0657812,-0.00018375
-7.0000e-03,-0.045625,-0.00020375
-6.9900e-03,-0.06375,-0.000398438
-6.9800e-03,-0.0526563,-0.000481875
-6.9700e-03,-0.0354688,-0.0001875
-6.9600e-03,-0.0460938,-0.000474375
-6.9500e-03,-0.0553125,-0.000608125
-6.9400e-03,-0.0573437,-0.00034625
-6.9300e-03,-0.0629688,-0.000514063
-6.9200e-03,-0.0473438,8.28125e-05
-6.9100e-03,-0.0554687,-0.000156875
-6.9000e-03,-0.0471875,-6.25e-07
-6.8900e-03,-0.051875,0.000306563
-6.8800e-03,-0.0473438,-0.000140313
-6.8700e-03,-0.0551563,-0.00042875
-6.8600e-03,-0.055625,-4.3125e-05
-6.8500e-03,-0.06625,-0.000519375
-6.8400e-03,-0.0573437,0.000491563
-6.8300e-03,-0.0473438,0.0001675
-6.8200e-03,-0.0514063,-0.000290938
-6.8100e-03,-0.051875,-0.000358125
-6.8000e-03,-0.0529687,-0.000333125
-6.7900e-03,-0.0610938,5.9375e-05
-6.7800e-03,-0.0554687,-0.000335
-6.7700e-03,-0.0673438,-0.000437188
-6.7600e-03,-0.0560937,-0.000260625
-6.7500e-03,-0.035,0.00036
-6.7400e-03,-0.0590625,-0.00017125
-6.7300e-03,-0.055,-0.000145
-6.7200e-03,-0.0596875,0.000424688
-6.7100e-03,-0.0582813,-2.1875e-05
-6.7000e-03,-0.0507812,-6.25e-06
-6.6900e-03,-0.0614062,-0.000594063
-6.6800e-03,-0.0609375,-0.0003875
-6.6700e-03,-0.0529687,-0.000595313
-6.6600e-03,-0.0585938,-0.00023125
-6.6500e-03,-0.05,5.9375e-06
-6.6400e-03,-0.0392187,0
-6.6300e-03,-0.0485938,0.000283125
-6.6200e-03,-0.0534375,-1.25e-06
-6.6100e-03,-0.0576563,0.000128125
-6.6000e-03,-0.0610938,0.000259375
-6.5900e-03,-0.0425,-0.000394688
-6.5800e-03,-0.05625,0.0003925
-6.5700e-03,-0.055625,-0.000343125
-6.5600e-03,-0.0510938,0.000629063
-6.5500e-03,-0.0520313,0.000277813
-6.5400e-03,-0.0534375,0.000112813
-6.5300e-03,-0.0548437,-7.5e-05
-6.5200e-03,-0.0560937,-9.6875e-06
-6.5100e-03,-0.0589063,-0.000504688
-6.5000e-03,-0.0560937,-0.000605
-6.4900e-03,-0.0553125,-0.000145313
-6.4800e-03,-0.0415625,7.59375e-05
-6.4700e-03,-0.0578125,5.75e-05
-6.4600e-03,-0.0485938,-0.0001725
-6.4500e-03,-0.0589063,0.000115938
-6.4400e-03,-0.056875,-0.000328125
-6.4300e-03,-0.0498438,7.40625e-05
-6.4200e-03,-0.0610938,0.000118125
-6.4100e-03,-0.0607812,0.00027125
-6.4000e-03,-0.0607812,-0.000295313
-6.3900e-03,-0.0501562,-0.00015375
-6.3800e-03,-0.0546875,0.000266875
-6.3700e-03,-0.0546875,8.9375e-05
-6.3600e-03,-0.054375,-0.000167188
-6.3500e-03,-0.0601562,-7.21875e-05
-6.3400e-03,-0.0570313,-0.000360625
-6.3300e-03,-0.0610938,-0.000394375
-6.3200e-03,-0.0557813,0.000283437
-6.3100e-03,-0.0540625,-0.000320625
-6.3000e-03,-0.0535937,-0.0003325
-6.2900e-03,-0.051875,-0.000786563
-6.2800e-03,-0.053125,-0.000311875
-6.2700e-03,-0.05125,-0.000473438
-6.2600e-03,-0.0514063,-0.000332188
-6.2500e-03,-0.0582813,0.00045
-6.2400e-03,-0.049375,0.00033875
-6.2300e-03,-0.0557813,-0.000144375
-6.2200e-03,-0.0567187,0.000382813
-6.2100e-03,-0.04625,6e-05
-6.2000e-03,-0.0464062,-0.0003025
-6.1900e-03,-0.0545313,7.625e-05
-6.1800e-03,-0.0457813,1.8125e-05
-6.1700e-03,-0.0596875,0.000273438
-6.1600e-03,-0.0570313,-0.0003125
-6.1500e-03,-0.0625,-0.00027375
-6.1400e-03,-0.051875,4.03125e-05
-6.1300e-03,-0.0601562,-0.000331563
-6.1200e-03,-0.0546875,-0.000213125
-6.1100e-03,-0.044375,-4.625e-05
-6.1000e-03,-0.0471875,-3.125e-05
-6.0900e-03,-0.05375,-0.0001225
-6.0800e-03,-0.0532813,0.000611563
-6.0700e-03,-0.05625,3.5625e-05
-6.0600e-03,-0.0410937,-0.000266875
-6.0500e-03,-0.0534375,-0.000430938
-6.0400e-03,-0.0429688,-0.0004075
-6.0300e-03,-0.0595313,-4.375e-05
-6.0200e-03,-0.0515625,0.000310625
-6.0100e-03,-0.0592188,0.000247188
-6.0000e-03,-0.0509375,-0.000275313
-5.9900e-03,-0.0465625,0.000177188
-5.9800e-03,-0.04,0.000268125
-5.9700e-03,-0.0478125,-9.96875e-05
-5.9600e-03,-0.0545313,-0.000132813
-5.9500e-03,-0.0560937,-0.0004125
-5.9400e-03,-0.0642188,-0.000151875
-5.9300e-03,-0.0557813,-0.000320938
-5.9200e-03,-0.0660938,0.00017875
-5.9100e-03,-0.0529687,-0.000277188
-5.9000e-03,-0.0620312,-6.25e-07
-5.8900e-03,-0.0621875,-0.000192813
-5.8800e-03,-0.0689063,0.000368125
-5.8700e-03,-0.0420312,-4.5625e-05
-5.8600e-03,-0.0459375,0.000218438
-5.8500e-03,-0.0504687,1.03125e-05
-5.8400e-03,-0.06,0.000475
-5.8300e-03,-0.0425,1.9375e-05
-5.8200e-03,-0.0534375,0.0006225
-5.8100e-03,-0.0571875,0.0001275
-5.8000e-03,-0.0453125,-0.000285625
-5.7900e-03,-0.0514063,-6e-05
-5.7800e-03,-0.0520313,0.000262813
-5.7700e-03,-0.054375,0.000237813
-5.7600e-03,-0.045,-6.5625e-06
-5.7500e-03,-0.0615625,-0.000415
-5.7400e-03,-0.0545313,7.53125e-05
-5.7300e-03,-0.0576563,9.8125e-05
-5.7200e-03,-0.05125,-0.000345313
-5.7100e-03,-0.0617188,0.00044875
-5.7000e-03,-0.0609375,-0.000556563
-5.6900e-03,-0.0485938,-0.000279063
-5.6800e-03,-0.04625,-0.00027
-5.6700e-03,-0.0596875,-0.000129375
-5.6600e-03,-0.0560937,-0.000506563
-5.6500e-03,-0.0478125,-7.34375e-05
-5.6400e-03,-0.055,-0.000208125
-5.6300e-03,-0.0521875,-0.00024
-5.6200e-03,-0.0489062,-0.000150313
-5.6100e-03,-0.0578125,0.000801563
-5.6000e-03,-0.0628125,0.000302188
-5.5900e-03,-0.0529687,-0.000663125
-5.5800e-03,-0.0564063,0.0003475
-5.5700e-03,-0.0520313,-3.78125e-05
-5.5600e-03,-0.0623438,9.78125e-05
-5.5500e-03,-0.058125,3.5e-05
-5.5400e-03,-0.0551563,0.0001175
-5.5300e-03,-0.0390625,0.0001225
-5.5200e-03,-0.0504687,0.000174688
-5.5100e-03,-0.0590625,0.000310938
-5.5000e-03,-0.05625,0.00035875
-5.4900e-03,-0.0539063,0.00040375
-5.4800e-03,-0.0482812,0.000102813
-5.4700e-03,-0.0492188,0.000240938
-5.4600e-03,-0.0617188,0.000484063
-5.4500e-03,-0.0628125,-0.000134688
-5.4400e-03,-0.0523437,-0.000167813
-5.4300e-03,-0.0634375,0.00019875
-5.4200e-03,-0.055625,-0.00039125
-5.4100e-03,-0.0639062,-0.000294688
-5.4000e-03,-0.0384375,0.000389688
-5.3900e-03,-0.0482812,0.000110313
-5.3800e-03,-0.05125,0.00022875
-5.3700e-03,-0.0634375,-0.000445
-5.3600e-03,-0.051875,-0.000401563
-5.3500e-03,-0.0517188,-0.000444688
-5.3400e-03,-0.0484375,-0.000161875
-5.3300e-03,-0.055,-0.000340313
-5.3200e-03,-0.050625,-0.000276563
-5.3100e-03,-0.0576563,0.00014625
-5.3000e-03,-0.0584375,0.000291563
-5.2900e-03,-0.0557813,5.125e-05
-5.2800e-03,-0.0546875,0.000462188
-5.2700e-03,-0.0596875,2.59375e-05
-5.2600e-03,-0.06125,-0.000778438
-5.2500e-03,-0.055,0.000252188
-5.2400e-03,-0.0489062,0.000179375
-5.2300e-03,-0.050625,-4.375e-05
-5.2200e-03,-0.0467188,-0.000373125
-5.2100e-03,-0.055,8.625e-05
-5.2000e-03,-0.0504687,-9.65625e-05
-5.1900e-03,-0.0629688,-0.000310938
-5.1800e-03,-0.0598438,3.09375e-05
-5.1700e-03,-0.0528125,9.375e-07
-5.1600e-03,-0.0485938,-2.4375e-05
-5.1500e-03,-0.0465625,-0.000667188
-5.1400e-03,-0.0467188,-0.000189375
-5.1300e-03,-0.0539063,-0.000395313
-5.1200e-03,-0.0514063,0.000228438
-5.1100e-03,-0.0540625,0.000540625
-5.1000e-03,-0.0592188,0.000310313
-5.0900e-03,-0.0576563,-0.000575625
-5.0800e-03,-0.0521875,-0.000164063
-5.0700e-03,-0.0514063,-0.0001
-5.0600e-03,-0.0710937,-0.000410313
-5.0500e-03,-0.054375,-0.00050625
-5.0400e-03,-0.050625,-3.53125e-05
-5.0300e-03,-0.0525,0.0001975
-5.0200e-03,-0.0510938,-0.000349375
-5.0100e-03,-0.044375,0.000283437
-5.0000e-03,-0.0478125,0.000616875
-4.9900e-03,-0.0589063,-0.00023625
-4.9800e-03,-0.045625,0.000237813
-4.9700e-03,-0.0585938,0.000184375
-4.9600e-03,-0.0526563,0.000398125
-4.9500e-03,-0.051875,-0.00020875
-4.9400e-03,-0.0504687,-0.000217188
-4.9300e-03,-0.0535937,5.625e-06
-4.9200e-03,-0.056875,2.1875e-05
-4.9100e-03,-0.0459375,0.00042625
-4.9000e-03,-0.0571875,0.000408125
-4.8900e-03,-0.0570313,-0.000668125
-4.8800e-03,-0.05125,0.000165938
-4.8700e-03,-0.0584375,0.000152188
-4.8600e-03,-0.056875,0.000186875
-4.8500e-03,-0.055,-0.000376875
-4.8400e-03,-0.0525,4.4375e-05
-4.8300e-03,-0.0520313,0.000235938
-4.8200e-03,-0.0567187,-0.00011875
-4.8100e-03,-0.0601562,-0.000688438
-4.8000e-03,-0.05125,-0.00066125
-4.7900e-03,-0.061875,0.000495313
-4.7800e-03,-0.0609375,0.000525
-4.7700e-03,-0.0495312,-0.000232813
-4.7600e-03,-0.055,7.15625e-05
-4.7500e-03,-0.04875,0.00035
-4.7400e-03,-0.0542187,0.000301563
-4.7300e-03,-0.0548437,0.000214375
-4.7200e-03,-0.059375,-0.000838438
-4.7100e-03,-0.0553125,6.5625e-05
-4.7000e-03,-0.0571875,-0.000251562
-4.6900e-03,-0.0596875,8.375e-05
-4.6800e-03,-0.0546875,2.84375e-05
-4.6700e-03,-0.06,-0.000232813
-4.6600e-03,-0.06,-8.75e-06
-4.6500e-03,-0.0510938,0.000484688
-4.6400e-03,-0.045625,0.00030875
-4.6300e-03,-0.0535937,0.000260313
-4.6200e-03,-0.0609375,0.00041875
-4.6100e-03,-0.0514063,-0.000399375
-4.6000e-03,-0.0523437,1.875e-06
-4.5900e-03,-0.0589063,0.000526875
-4.5800e-03,-0.0589063,-0.000135313
-4.5700e-03,-0.0628125,-0.000108438
-4.5600e-03,-0.0521875,0.00054625
-4.5500e-03,-0.0459375,-6.8125e-05
-4.5400e-03,-0.055,-0.000405313
-4.5300e-03,-0.0534375,-7.75e-05
-4.5200e-03,-0.0534375,-0.000362188
