nmr/data/tek0040.csv

Model,MDO4054-3
Firmware Version,2.20

Waveform Type,ANALOG,,
Point Format,Y,,
Horizontal Units,s,,
Horizontal Scale,0.01,,
Horizontal Delay,0.05012,,
Sample Interval,1e-06,,
Record Length,100000,,
Gating,0.0% to 100.0%,,
Probe Attenuation,1,,
Vertical Units,V,,
Vertical Offset,0,,
Vertical Scale,1,,
Vertical Position,0.02,,
,,,
,,,
,,,
Label,,,
TIME,CH1,CH2,CH3
1.200000e-04,-0.0579687,-0.00122344,4.90271
1.210000e-04,-0.0507812,-0.0012675,4.91084
1.220000e-04,-0.0353125,-0.00106688,4.89428
1.230000e-04,-0.060625,-0.000929688,4.90584
1.240000e-04,-0.0559375,-0.000794063,4.93115
1.250000e-04,-0.056875,-0.00102781,4.88584
1.260000e-04,-0.053125,-0.00120156,4.93396
1.270000e-04,-0.0617188,-0.00118344,4.8999
1.280000e-04,-0.0548437,-0.0010875,4.88584
1.290000e-04,-0.0520313,-0.001085,4.91365
1.300000e-04,-0.0596875,-0.00122656,4.93146
1.310000e-04,-0.0534375,-0.00125969,4.89959
1.320000e-04,-0.0651562,-0.00081625,4.9049
1.330000e-04,-0.0571875,-0.00120281,4.92896
1.340000e-04,-0.0542187,-0.00109906,4.91865
1.350000e-04,-0.0529687,-0.00123781,4.92084
1.360000e-04,-0.05,-0.00120375,4.92427
1.370000e-04,-0.0585938,-0.00109531,4.90396
1.380000e-04,-0.0603125,-0.00120563,4.91521
1.390000e-04,-0.0526563,-0.00122188,4.90584
1.400000e-04,-0.04625,-0.00130219,4.88927
1.410000e-04,-0.0521875,-0.000925625,4.91302
1.420000e-04,-0.055625,-0.00109344,4.91209
1.430000e-04,-0.0596875,-0.00109438,4.91178
1.440000e-04,-0.0485938,-0.00101875,4.89428
1.450000e-04,-0.045625,-0.00104,4.93115
1.460000e-04,-0.0551563,-0.00125188,4.89927
1.470000e-04,-0.0454688,-0.00111031,4.92615
1.480000e-04,-0.0485938,-0.00130125,4.8924
1.490000e-04,-0.0454688,-0.0010125,4.89084
1.500000e-04,-0.04875,-0.00105938,4.90396
1.510000e-04,-0.0654688,-0.00115188,4.89459
1.520000e-04,-0.0504687,-0.00118219,4.88678
1.530000e-04,-0.0503125,-0.00119375,4.92553
1.540000e-04,-0.049375,-0.00104625,4.91803
1.550000e-04,-0.0585938,-0.000912813,4.91584
1.560000e-04,-0.0525,-0.0009325,4.91615
1.570000e-04,-0.0565625,-0.00118094,4.9049
1.580000e-04,-0.0526563,-0.001245,4.91084
1.590000e-04,-0.0570313,-0.00125,4.90803
1.600000e-04,-0.0504687,-0.00087375,4.91896
1.610000e-04,-0.05375,-0.00102125,4.90803
1.620000e-04,-0.0610938,-0.00102531,4.88834
1.630000e-04,-0.05375,-0.00133125,4.91677
1.640000e-04,-0.06125,-0.00116344,4.90834
1.650000e-04,-0.058125,-0.00088375,4.89959
1.660000e-04,-0.0570313,-0.00141625,4.9099
1.670000e-04,-0.0542187,-0.00111031,4.90584
1.680000e-04,-0.0464062,-0.00113094,4.89677
1.690000e-04,-0.06125,-0.00132938,4.91709
1.700000e-04,-0.0540625,-0.000840625,4.9249
1.710000e-04,-0.0629688,-0.001365,4.89584
1.720000e-04,-0.0496875,-0.00123625,4.9099
1.730000e-04,-0.0595313,-0.00102063,4.89865
1.740000e-04,-0.0560937,-0.00122656,4.89865
1.750000e-04,-0.0571875,-0.000959688,4.90803
1.760000e-04,-0.0651562,-0.0011475,4.89396
1.770000e-04,-0.0539063,-0.00135719,4.91427
1.780000e-04,-0.045,-0.00067125,4.89521
1.790000e-04,-0.0496875,-0.00127969,4.89771
1.800000e-04,-0.054375,-0.00105719,4.91146
1.810000e-04,-0.049375,-0.00104594,4.91709
1.820000e-04,-0.0553125,-0.000956875,4.90865
1.830000e-04,-0.0521875,-0.000660938,4.89365
1.840000e-04,-0.05625,-0.00129594,4.88584
1.850000e-04,-0.055,-0.00113906,4.92209
1.860000e-04,-0.049375,-0.0013775,4.91928
1.870000e-04,-0.0575,-0.00119219,4.92677
1.880000e-04,-0.0521875,-0.00107563,4.92584
1.890000e-04,-0.0426562,-0.000809063,4.90615
1.900000e-04,-0.0554687,-0.00133375,4.94177
1.910000e-04,-0.0603125,-0.00104313,4.93021
1.920000e-04,-0.0403125,-0.001045,4.90302
1.930000e-04,-0.0525,-0.000949688,4.89334
1.940000e-04,-0.0617188,-0.000714688,4.91959
1.950000e-04,-0.049375,-0.0012725,4.93021
1.960000e-04,-0.0509375,-0.00114844,4.92959
1.970000e-04,-0.046875,-0.001125,4.95177
1.980000e-04,-0.0554687,-0.00104969,4.9024
1.990000e-04,-0.044375,-0.00106156,4.91302
2.000000e-04,-0.053125,-0.00129813,4.92365
2.010000e-04,-0.05,-0.00118938,4.93209
2.020000e-04,-0.0578125,-0.000787188,4.90834
2.030000e-04,-0.0490625,-0.00111719,4.97709
2.040000e-04,-0.0535937,-0.00131375,4.88771
2.050000e-04,-0.0604688,-0.00100594,4.92646
2.060000e-04,-0.0485938,-0.000928125,4.91271
2.070000e-04,-0.048125,-0.00101563,4.90334
2.080000e-04,-0.0548437,-0.00106875,4.9224
2.090000e-04,-0.0514063,-0.00142063,4.89677
2.100000e-04,-0.0475,-0.00100844,4.89771
2.110000e-04,-0.0501562,-0.0010525,4.91865
2.120000e-04,-0.0498438,-0.00119469,4.91271
2.130000e-04,-0.0571875,-0.000982188,4.8849
2.140000e-04,-0.0520313,-0.00138469,4.89803
2.150000e-04,-0.0507812,-0.000935625,4.90615
2.160000e-04,-0.0653125,-0.00109063,4.90459
2.170000e-04,-0.0532813,-0.001185,4.91865
2.180000e-04,-0.0521875,-0.000862813,4.92209
2.190000e-04,-0.0503125,-0.00134594,4.91178
2.200000e-04,-0.0484375,-0.00108156,4.89896
2.210000e-04,-0.055,-0.00102844,4.91803
2.220000e-04,-0.0453125,-0.00113219,4.90803
2.230000e-04,-0.0425,-0.00123063,4.89521
2.240000e-04,-0.0514063,-0.00148531,4.92365
2.250000e-04,-0.0545313,-0.00116281,4.9099
2.260000e-04,-0.0578125,-0.00111188,4.90771
2.270000e-04,-0.0575,-0.00124469,4.9374
2.280000e-04,-0.0598438,-0.00101438,4.89428
2.290000e-04,-0.0514063,-0.00143094,4.89865
2.300000e-04,-0.04375,-0.00119938,4.92084
2.310000e-04,-0.041875,-0.001085,4.87459
2.320000e-04,-0.0629688,-0.00149406,4.90302
2.330000e-04,-0.0421875,-0.00124969,4.89084
2.340000e-04,-0.0504687,-0.00144313,4.88834
2.350000e-04,-0.068125,-0.000954688,4.91052
2.360000e-04,-0.0517188,-0.00121594,4.91178
2.370000e-04,-0.05625,-0.00113188,4.89771
2.380000e-04,-0.0467188,-0.00106688,4.89178
2.390000e-04,-0.0495312,-0.00136813,4.9174
2.400000e-04,-0.0507812,-0.00124438,4.8999
2.410000e-04,-0.0628125,-0.0013,4.92084
2.420000e-04,-0.0546875,-0.00120438,4.90521
2.430000e-04,-0.0675,-0.00124063,4.94177
2.440000e-04,-0.045,-0.00118031,4.90803
2.450000e-04,-0.04625,-0.000853125,4.91771
2.460000e-04,-0.0609375,-0.00115156,4.92553
2.470000e-04,-0.0559375,-0.00114938,4.9099
2.480000e-04,-0.0579687,-0.00128406,4.91677
2.490000e-04,-0.0507812,-0.00116969,4.91427
2.500000e-04,-0.06375,-0.00119125,4.92052
2.510000e-04,-0.05125,-0.00131344,4.90334
2.520000e-04,-0.0576563,-0.00111969,4.89865
2.530000e-04,-0.0503125,-0.00114031,4.92146
2.540000e-04,-0.0573437,-0.00125281,4.9224
2.550000e-04,-0.0520313,-0.0013525,4.9199
2.560000e-04,-0.055625,-0.00144375,4.91646
2.570000e-04,-0.056875,-0.0011925,4.89865
2.580000e-04,-0.0523437,-0.00123813,4.9024
2.590000e-04,-0.0571875,-0.00121375,4.8999
2.600000e-04,-0.0532813,-0.00107063,4.90334
2.610000e-04,-0.0473438,-0.00142313,4.91709
2.620000e-04,-0.05,-0.00097375,4.8799
2.630000e-04,-0.0567187,-0.00112781,4.93959
2.640000e-04,-0.0525,-0.000885938,4.91709
2.650000e-04,-0.0545313,-0.00094125,4.89709
2.660000e-04,-0.0539063,-0.00140438,4.91553
2.670000e-04,-0.066875,-0.00107688,4.91209
2.680000e-04,-0.0589063,-0.00104281,4.91771
2.690000e-04,-0.0559375,-0.00106906,4.90646
2.700000e-04,-0.0409375,-0.00105031,4.89959
2.710000e-04,-0.0585938,-0.00106406,4.90709
2.720000e-04,-0.048125,-0.00110938,4.90302
2.730000e-04,-0.05375,-0.00100813,4.91427
2.740000e-04,-0.0615625,-0.0009375,4.91209
2.750000e-04,-0.0578125,-0.00123125,4.91959
2.760000e-04,-0.0615625,-0.00132375,4.92396
2.770000e-04,-0.051875,-0.00127188,4.91084
2.780000e-04,-0.0514063,-0.000876875,4.89428
2.790000e-04,-0.0546875,-0.001335,4.88959
2.800000e-04,-0.0532813,-0.00118781,4.8874
2.810000e-04,-0.0548437,-0.00096875,4.89396
2.820000e-04,-0.0520313,-0.00133094,4.92178
2.830000e-04,-0.0573437,-0.00107,4.89302
2.840000e-04,-0.0553125,-0.00150844,4.91709
2.850000e-04,-0.0503125,-0.00118719,4.89428
2.860000e-04,-0.050625,-0.00121531,4.92115
2.870000e-04,-0.0523437,-0.00127875,4.91178
2.880000e-04,-0.060625,-0.00114844,4.93427
2.890000e-04,-0.048125,-0.00144313,4.9074
2.900000e-04,-0.048125,-0.000924375,4.90178
2.910000e-04,-0.0540625,-0.00130531,4.90834
2.920000e-04,-0.0592188,-0.000966875,4.89959
2.930000e-04,-0.0484375,-0.000974688,4.91365
2.940000e-04,-0.0523437,-0.00117063,4.90178
2.950000e-04,-0.055,-0.00124625,4.90396
2.960000e-04,-0.05625,-0.00102875,4.89896
2.970000e-04,-0.051875,-0.00119938,4.89021
2.980000e-04,-0.0592188,-0.00118438,4.89771
2.990000e-04,-0.0520313,-0.00115375,4.90928
3.000000e-04,-0.0695313,-0.00129406,4.92146
3.010000e-04,-0.04875,-0.00096,4.90115
3.020000e-04,-0.0651562,-0.00116531,4.9249
3.030000e-04,-0.0498438,-0.00120719,4.90646
3.040000e-04,-0.0448438,-0.00110906,4.90271
3.050000e-04,-0.0470312,-0.00124188,4.91365
3.060000e-04,-0.0601562,-0.00106813,4.88896
3.070000e-04,-0.061875,-0.00122438,4.90365
3.080000e-04,-0.0420312,-0.00100219,4.91834
3.090000e-04,-0.0476562,-0.00115469,4.9049
3.100000e-04,-0.0517188,-0.00148125,4.91896
3.110000e-04,-0.049375,-0.00113875,4.91146
3.120000e-04,-0.0451563,-0.00128313,4.90459
3.130000e-04,-0.0426562,-0.00121813,4.92584
3.140000e-04,-0.0609375,-0.00134219,4.92115
3.150000e-04,-0.06125,-0.00128219,4.8874
3.160000e-04,-0.0625,-0.000801563,4.92271
3.170000e-04,-0.0571875,-0.00118438,4.9274
3.180000e-04,-0.0442188,-0.00133031,4.8824
3.190000e-04,-0.0448438,-0.00107219,4.90428
3.200000e-04,-0.0454688,-0.00163,4.87396
3.210000e-04,-0.0565625,-0.000905313,4.88896
3.220000e-04,-0.0535937,-0.00118094,4.90053
3.230000e-04,-0.050625,-0.00144781,4.92115
3.240000e-04,-0.055,-0.00136344,4.89834
3.250000e-04,-0.0601562,-0.00139906,4.90959
3.260000e-04,-0.0504687,-0.00117156,4.90896
3.270000e-04,-0.0554687,-0.00132469,4.90521
3.280000e-04,-0.0532813,-0.00105781,4.90896
3.290000e-04,-0.0528125,-0.00124344,4.9074
3.300000e-04,-0.055,-0.00119281,4.9024
3.310000e-04,-0.0584375,-0.001165,4.89959
3.320000e-04,-0.0546875,-0.00134344,4.9174
3.330000e-04,-0.05625,-0.00139531,4.90021
3.340000e-04,-0.0575,-0.00123969,4.9374
3.350000e-04,-0.0376563,-0.00100031,4.90677
3.360000e-04,-0.0575,-0.0009625,4.91209
3.370000e-04,-0.0470312,-0.0012875,4.91677
3.380000e-04,-0.050625,-0.00130594,4.9424
3.390000e-04,-0.0495312,-0.000974375,4.93084
3.400000e-04,-0.06,-0.00111031,4.9099
3.410000e-04,-0.0467188,-0.00101219,4.92178
3.420000e-04,-0.045625,-0.00129063,4.88771
3.430000e-04,-0.0539063,-0.00132125,4.89834
3.440000e-04,-0.05375,-0.00111906,4.90553
3.450000e-04,-0.0346875,-0.00129781,4.89646
3.460000e-04,-0.0510938,-0.00089625,4.9024
3.470000e-04,-0.0603125,-0.00110094,4.89552
3.480000e-04,-0.048125,-0.00130969,4.90334
3.490000e-04,-0.0515625,-0.00100938,4.90646
3.500000e-04,-0.049375,-0.0012375,4.90709
3.510000e-04,-0.0551563,-0.00115313,4.91896
3.520000e-04,-0.0517188,-0.00115813,4.89834
3.530000e-04,-0.061875,-0.0011625,4.9199
3.540000e-04,-0.0596875,-0.00116438,4.89178
3.550000e-04,-0.0484375,-0.000894063,4.94209
3.560000e-04,-0.0514063,-0.000969063,4.90084
3.570000e-04,-0.0484375,-0.00123719,4.93303
3.580000e-04,-0.0573437,-0.00111031,4.89709
3.590000e-04,-0.0514063,-0.00102031,4.92521
3.600000e-04,-0.058125,-0.00111594,4.91459
3.610000e-04,-0.0528125,-0.00124406,4.90084
3.620000e-04,-0.0559375,-0.0011275,4.92271
3.630000e-04,-0.0584375,-0.000960938,4.88615
3.640000e-04,-0.0532813,-0.000877188,4.91803
3.650000e-04,-0.0448438,-0.00121906,4.90084
3.660000e-04,-0.0596875,-0.00144719,4.91865
3.670000e-04,-0.0478125,-0.00109531,4.89302
3.680000e-04,-0.0545313,-0.00112,4.8849
3.690000e-04,-0.0448438,-0.000929688,4.91396
3.700000e-04,-0.0546875,-0.00119688,4.90677
3.710000e-04,-0.0528125,-0.001175,4.93303
3.720000e-04,-0.0501562,-0.000847188,4.90271
3.730000e-04,-0.0645312,-0.00107063,4.90834
3.740000e-04,-0.0535937,-0.00086625,4.9274
3.750000e-04,-0.0573437,-0.00107969,4.90428
3.760000e-04,-0.0529687,-0.00103281,4.88865
3.770000e-04,-0.0498438,-0.00115,4.90302
3.780000e-04,-0.05875,-0.0011125,4.90021
3.790000e-04,-0.0576563,-0.00126188,4.91709
3.800000e-04,-0.0548437,-0.00130094,4.91709
3.810000e-04,-0.0617188,-0.00134969,4.90553
3.820000e-04,-0.051875,-0.00138406,4.8999
3.830000e-04,-0.065625,-0.00113625,4.91178
3.840000e-04,-0.0484375,-0.00127906,4.90771
3.850000e-04,-0.060625,-0.00161906,4.90428
3.860000e-04,-0.0507812,-0.000975625,4.93052
3.870000e-04,-0.0528125,-0.00104813,4.90084
3.880000e-04,-0.0520313,-0.00114125,4.91459
3.890000e-04,-0.054375,-0.000966875,4.91959
3.900000e-04,-0.0473438,-0.00129,4.91615
3.910000e-04,-0.0553125,-0.000910625,4.8949
3.920000e-04,-0.053125,-0.00134125,4.88678
3.930000e-04,-0.0442188,-0.00099375,4.89677
3.940000e-04,-0.065,-0.00124906,4.90928
3.950000e-04,-0.048125,-0.00123875,4.89584
3.960000e-04,-0.0585938,-0.00102375,4.89584
3.970000e-04,-0.050625,-0.00120469,4.89302
3.980000e-04,-0.0573437,-0.000786875,4.88615
3.990000e-04,-0.05625,-0.00108844,4.89959
4.000000e-04,-0.0614062,-0.00126,4.88927
4.010000e-04,-0.0620312,-0.00133,4.8724
4.020000e-04,-0.0590625,-0.00111625,4.89584
4.030000e-04,-0.0589063,-0.00135219,4.88428
4.040000e-04,-0.046875,-0.00084625,4.89521
4.050000e-04,-0.0560937,-0.00128281,4.87615
4.060000e-04,-0.0610938,-0.00114156,4.89646
4.070000e-04,-0.0539063,-0.00117031,4.89053
4.080000e-04,-0.0498438,-0.00134094,4.89209
4.090000e-04,-0.055,-0.00101094,4.91334
4.100000e-04,-0.0553125,-0.00118219,4.9199
4.110000e-04,-0.0584375,-0.00115969,4.90646
4.120000e-04,-0.0545313,-0.00100344,4.88552
4.130000e-04,-0.0539063,-0.0011075,4.89459
4.140000e-04,-0.0425,-0.00130656,4.8974
4.150000e-04,-0.0529687,-0.00108344,4.88115
4.160000e-04,-0.0571875,-0.00117969,4.90334
4.170000e-04,-0.0554687,-0.000979688,4.93396
4.180000e-04,-0.055625,-0.00114188,4.88709
4.190000e-04,-0.0514063,-0.00107969,4.88584
4.200000e-04,-0.0514063,-0.00093,4.90834
4.210000e-04,-0.056875,-0.00105094,4.90803
4.220000e-04,-0.055625,-0.00115469,4.90084
4.230000e-04,-0.0509375,-0.00103594,4.89959
4.240000e-04,-0.0521875,-0.00104156,4.90053
4.250000e-04,-0.0475,-0.00123844,4.92115
4.260000e-04,-0.0565625,-0.00118375,4.89927
4.270000e-04,-0.0560937,-0.00119156,4.91115
4.280000e-04,-0.0614062,-0.00126438,4.8749
4.290000e-04,-0.0542187,-0.000748125,4.87896
4.300000e-04,-0.0576563,-0.00110188,4.89396
4.310000e-04,-0.06125,-0.00104094,4.9199
4.320000e-04,-0.0565625,-0.00127875,4.90896
4.330000e-04,-0.0684375,-0.00127813,4.89615
4.340000e-04,-0.0548437,-0.00103531,4.9074
4.350000e-04,-0.0539063,-0.00115906,4.89677
4.360000e-04,-0.0507812,-0.000935938,4.88584
4.370000e-04,-0.056875,-0.00113406,4.91677
4.380000e-04,-0.0459375,-0.00128938,4.90271
4.390000e-04,-0.06375,-0.00129531,4.9099
4.400000e-04,-0.0539063,-0.00094875,4.89428
4.410000e-04,-0.0464062,-0.00108,4.88771
4.420000e-04,-0.0584375,-0.000999375,4.87146
4.430000e-04,-0.0484375,-0.00106313,4.90115
4.440000e-04,-0.0659375,-0.00126063,4.90021
4.450000e-04,-0.0590625,-0.00124781,4.91334
4.460000e-04,-0.0545313,-0.00130938,4.90428
4.470000e-04,-0.0559375,-0.00104188,4.91146
4.480000e-04,-0.0551563,-0.00130625,4.90334
4.490000e-04,-0.0521875,-0.001175,4.91052
4.500000e-04,-0.0425,-0.00108875,4.90803
4.510000e-04,-0.0523437,-0.000861563,4.90584
4.520000e-04,-0.0626562,-0.00116438,4.89053
4.530000e-04,-0.0509375,-0.00112375,4.86928
4.540000e-04,-0.0490625,-0.0011825,4.88521
4.550000e-04,-0.0565625,-0.000988438,4.91021
4.560000e-04,-0.0546875,-0.00124844,4.9174
4.570000e-04,-0.041875,-0.0010125,4.91115
4.580000e-04,-0.0495312,-0.00119938,4.89021
4.590000e-04,-0.045625,-0.000955,4.92646
4.600000e-04,-0.05,-0.00124156,4.88646
4.610000e-04,-0.0548437,-0.00123531,4.89334
4.620000e-04,-0.0432813,-0.00103969,4.90521
4.630000e-04,-0.051875,-0.00136344,4.93052
4.640000e-04,-0.0509375,-0.00106813,4.87021
4.650000e-04,-0.0553125,-0.00110594,4.93084
4.660000e-04,-0.0471875,-0.000993125,4.92584
4.670000e-04,-0.055625,-0.000928438,4.90271
4.680000e-04,-0.050625,-0.00116,4.88834
4.690000e-04,-0.0620312,-0.00107281,4.88678
4.700000e-04,-0.0453125,-0.00115219,4.89927
4.710000e-04,-0.0526563,-0.00115969,4.91209
4.720000e-04,-0.043125,-0.000969375,4.89459
4.730000e-04,-0.06125,-0.000995313,4.88615
4.740000e-04,-0.051875,-0.00101344,4.91615
4.750000e-04,-0.06,-0.00127281,4.89428
4.760000e-04,-0.0321875,0.00294531,4.8774
4.770000e-04,0.409687,0.00764656,4.87803
4.780000e-04,-0.854531,-0.00887063,4.90865
4.790000e-04,0.352812,-0.0126013,4.9149
4.800000e-04,-0.223125,-0.0126013,4.91271
4.810000e-04,0.0660937,-0.0126013,4.8774
4.820000e-04,-0.290313,-0.0126013,4.89834
4.830000e-04,0.210156,-0.0126013,4.90959
4.840000e-04,-0.502031,-0.0126013,4.91396
4.850000e-04,0.32375,-0.0126013,4.90334
4.860000e-04,-0.634844,-0.0126013,4.8849
4.870000e-04,0.479375,-0.0126013,4.90053
4.880000e-04,-0.793906,-0.0126013,4.88709
4.890000e-04,0.802969,-0.0126013,4.89365
4.900000e-04,-1.10125,-0.0126013,4.88959
4.910000e-04,1.1775,-0.0125853,4.88709
4.920000e-04,-1.4575,-0.0125172,4.90803
4.930000e-04,1.35125,-0.0123859,4.86896
4.940000e-04,-1.57016,-0.0122653,4.90021
4.950000e-04,1.40656,-0.0122063,4.88834
4.960000e-04,-1.5175,-0.0120559,4.91928
4.970000e-04,0.61875,-0.0123997,4.91052
4.980000e-04,-0.0367188,-0.0120091,4.89709
4.990000e-04,-0.00546875,-0.0119703,4.88552
5.000000e-04,0.0153125,-0.01197,4.93052
5.010000e-04,0.0539063,-0.0119703,4.90709
5.020000e-04,0.0398437,-0.01197,4.8999
5.030000e-04,0.0596875,-0.01197,4.89584
5.040000e-04,0.0757812,-0.01197,4.89428
5.050000e-04,0.0920312,-0.0120647,4.91803
5.060000e-04,0.0875,-0.01197,4.89709
5.070000e-04,0.0873437,-0.0119703,4.90959
5.080000e-04,0.101875,-0.01197,4.8974
5.090000e-04,0.081875,-0.0118797,4.89334
5.100000e-04,0.104531,-0.0117772,4.89584
5.110000e-04,0.0984375,-0.0107869,4.90646
5.120000e-04,0.107812,-0.0114531,4.90459
5.130000e-04,0.104531,-0.0119356,4.89834
5.140000e-04,0.101875,-0.0119575,4.92146
5.150000e-04,0.0978125,-0.01197,4.88709
5.160000e-04,0.102969,-0.0119609,4.89084
5.170000e-04,0.0982813,-0.0119375,4.92146
5.180000e-04,0.102188,-0.0117225,4.90803
5.190000e-04,0.0904688,-0.0114859,4.89178
5.200000e-04,0.0985937,-0.0108416,4.8774
5.210000e-04,0.0998437,-0.00924625,4.90271
5.220000e-04,0.0798438,-0.00728625,4.91365
5.230000e-04,0.0878125,-0.00563906,4.89615
5.240000e-04,0.081875,-0.00300813,4.89584
5.250000e-04,0.0857813,-0.00044,4.91427
5.260000e-04,0.0759375,0.00255125,4.92209
5.270000e-04,0.0714063,0.00455,4.91052
5.280000e-04,0.0617188,0.00581687,4.89302
5.290000e-04,0.0609375,0.00707156,4.89584
5.300000e-04,0.0748438,0.00750219,4.92584
5.310000e-04,0.0807812,0.00764938,4.90146
5.320000e-04,0.0870313,0.00766469,4.88584
5.330000e-04,0.0801562,0.00767125,4.91646
5.340000e-04,0.0729687,0.00767969,4.89396
5.350000e-04,0.0560937,0.00768312,4.87459
5.360000e-04,0.0717187,0.00769313,4.89209
5.370000e-04,0.0751562,0.00769563,4.91615
5.380000e-04,0.060625,0.00769719,4.91584
5.390000e-04,0.0653125,0.00769687,4.90615
5.400000e-04,0.0584375,0.0077,4.91865
5.410000e-04,0.06,0.00770531,4.90115
5.420000e-04,0.0629688,0.00770094,4.89552
5.430000e-04,0.0726562,0.00770156,4.90365
5.440000e-04,0.064375,0.00769594,4.90146
5.450000e-04,0.075625,0.00769375,4.90865
5.460000e-04,0.0726562,0.00769344,4.89115
5.470000e-04,0.0553125,0.00768469,4.88428
5.480000e-04,0.06875,0.00768063,4.91146
5.490000e-04,0.071875,0.007675,4.88302
5.500000e-04,0.0729687,0.007665,4.91521
5.510000e-04,0.0734375,0.00747656,4.92365
5.520000e-04,0.0578125,0.00594969,4.89521
5.530000e-04,0.0710937,0.00301625,4.92021
5.540000e-04,0.0579687,0.000350937,4.8999
5.550000e-04,0.0610938,-0.002525,4.89334
5.560000e-04,0.061875,-0.0055,4.8899
5.570000e-04,0.0515625,-0.0081225,4.8924
5.580000e-04,0.0564062,-0.0111013,4.87959
5.590000e-04,0.0671875,-0.0120281,4.90459
5.600000e-04,0.0564062,-0.0120638,4.91646
5.610000e-04,0.0632812,-0.0120606,4.88678
5.620000e-04,0.0525,-0.0120744,4.9049
5.630000e-04,0.0521875,-0.0120894,4.85678
5.640000e-04,0.0632812,-0.0120941,4.91803
5.650000e-04,0.0557813,-0.0121128,4.89927
5.660000e-04,0.0620312,-0.0121137,4.90615
5.670000e-04,0.0476562,-0.0121188,4.91865
5.680000e-04,0.0439062,-0.0121416,4.91709
5.690000e-04,0.0548437,-0.0121306,4.89459
5.700000e-04,0.0495312,-0.0121428,4.91646
5.710000e-04,0.05875,-0.0121422,4.92021
5.720000e-04,0.0545313,-0.0121519,4.93459
5.730000e-04,0.045,-0.0121603,4.90053
5.740000e-04,0.0617188,-0.0121513,4.90396
5.750000e-04,0.05125,-0.01216,4.91302
5.760000e-04,0.0465625,-0.0121662,4.88459
5.770000e-04,0.041875,-0.0121775,4.90834
5.780000e-04,0.0545313,-0.0121747,4.89896
