nmr/data/tek0041.csv

Model,MDO4054-3
Firmware Version,2.20

Waveform Type,ANALOG,,
Point Format,Y,,
Horizontal Units,s,,
Horizontal Scale,0.01,,
Horizontal Delay,0.05012,,
Sample Interval,1e-06,,
Record Length,100000,,
Gating,0.0% to 100.0%,,
Probe Attenuation,1,,
Vertical Units,V,,
Vertical Offset,0,,
Vertical Scale,1,,
Vertical Position,0.02,,
,,,
,,,
,,,
Label,,,
TIME,CH1,CH2,CH3
1.200000e-04,-0.0551563,-0.001155,4.91396
1.210000e-04,-0.055625,-0.00157156,4.87709
1.220000e-04,-0.0610938,-0.00108938,4.90428
1.230000e-04,-0.0534375,-0.00149188,4.88521
1.240000e-04,-0.0657812,-0.000851563,4.91709
1.250000e-04,-0.0573437,-0.00114094,4.88646
1.260000e-04,-0.05625,-0.00141313,4.89709
1.270000e-04,-0.0520313,-0.00118,4.90178
1.280000e-04,-0.0517188,-0.00137625,4.92959
1.290000e-04,-0.0603125,-0.00093625,4.93709
1.300000e-04,-0.0546875,-0.00109438,4.91834
1.310000e-04,-0.055,-0.00128844,4.92021
1.320000e-04,-0.051875,-0.00094875,4.90115
1.330000e-04,-0.0448438,-0.000819375,4.9124
1.340000e-04,-0.0553125,-0.00120719,4.92584
1.350000e-04,-0.0535937,-0.00119688,4.8974
1.360000e-04,-0.0573437,-0.00115563,4.9474
1.370000e-04,-0.051875,-0.00100281,4.91646
1.380000e-04,-0.0632812,-0.000967188,4.89709
1.390000e-04,-0.0615625,-0.00118281,4.92427
1.400000e-04,-0.0585938,-0.00121375,4.92021
1.410000e-04,-0.0539063,-0.000819375,4.9324
1.420000e-04,-0.0653125,-0.000895625,4.92677
1.430000e-04,-0.0496875,-0.00107688,4.88771
1.440000e-04,-0.0625,-0.00147375,4.93178
1.450000e-04,-0.0614062,-0.00104594,4.90834
1.460000e-04,-0.0532813,-0.001225,4.90709
1.470000e-04,-0.0571875,-0.000962813,4.92178
1.480000e-04,-0.0546875,-0.00105375,4.88771
1.490000e-04,-0.0534375,-0.00130781,4.93052
1.500000e-04,-0.049375,-0.000946563,4.9224
1.510000e-04,-0.0520313,-0.00135188,4.91803
1.520000e-04,-0.0604688,-0.00111469,4.90146
1.530000e-04,-0.059375,-0.00123656,4.91396
1.540000e-04,-0.0595313,-0.000986875,4.9174
1.550000e-04,-0.0510938,-0.000917813,4.88615
1.560000e-04,-0.0573437,-0.00106406,4.90865
1.570000e-04,-0.0546875,-0.00104938,4.91052
1.580000e-04,-0.0553125,-0.00117063,4.92209
1.590000e-04,-0.0517188,-0.000963438,4.89959
1.600000e-04,-0.0659375,-0.000877188,4.86865
1.610000e-04,-0.0492188,-0.001135,4.89365
1.620000e-04,-0.0557813,-0.00119688,4.90677
1.630000e-04,-0.0589063,-0.00127813,4.90428
1.640000e-04,-0.0704687,-0.000953438,4.91052
1.650000e-04,-0.056875,-0.00105313,4.90365
1.660000e-04,-0.061875,-0.000986563,4.9074
1.670000e-04,-0.055625,-0.00158563,4.89365
1.680000e-04,-0.0573437,-0.000921563,4.90521
1.690000e-04,-0.0470312,-0.000892188,4.90302
1.700000e-04,-0.0571875,-0.0010225,4.90771
1.710000e-04,-0.0603125,-0.00106594,4.9074
1.720000e-04,-0.0503125,-0.00124688,4.89084
1.730000e-04,-0.0560937,-0.000729063,4.90396
1.740000e-04,-0.0529687,-0.000855625,4.88552
1.750000e-04,-0.0621875,-0.00100563,4.90365
1.760000e-04,-0.0507812,-0.000987188,4.90928
1.770000e-04,-0.0601562,-0.000927813,4.90053
1.780000e-04,-0.05875,-0.00109781,4.92646
1.790000e-04,-0.0473438,-0.00122469,4.91928
1.800000e-04,-0.0551563,-0.00157,4.91178
1.810000e-04,-0.054375,-0.00109563,4.89771
1.820000e-04,-0.0614062,-0.00115031,4.89709
1.830000e-04,-0.0667188,-0.00147219,4.92178
1.840000e-04,-0.0525,-0.000985938,4.91396
1.850000e-04,-0.050625,-0.00100656,4.90677
1.860000e-04,-0.0604688,-0.00127,4.91334
1.870000e-04,-0.059375,-0.000989063,4.90834
1.880000e-04,-0.0475,-0.0010475,4.91365
1.890000e-04,-0.0498438,-0.00118281,4.90959
1.900000e-04,-0.0439063,-0.00113063,4.91115
1.910000e-04,-0.0465625,-0.00111875,4.91459
1.920000e-04,-0.04875,-0.00115781,4.91209
1.930000e-04,-0.0595313,-0.00143375,4.9099
1.940000e-04,-0.0503125,-0.00103656,4.91396
1.950000e-04,-0.0620312,-0.00108469,4.90709
1.960000e-04,-0.0554687,-0.00119625,4.90365
1.970000e-04,-0.0632812,-0.00108875,4.90896
1.980000e-04,-0.0514063,-0.0013875,4.8999
1.990000e-04,-0.0609375,-0.00117969,4.9174
2.000000e-04,-0.0551563,-0.0012,4.89709
2.010000e-04,-0.0576563,-0.00121031,4.90896
2.020000e-04,-0.0584375,-0.000965625,4.91302
2.030000e-04,-0.0584375,-0.00129906,4.8824
2.040000e-04,-0.0620312,-0.00085625,4.91646
2.050000e-04,-0.0567187,-0.00100094,4.92052
2.060000e-04,-0.0548437,-0.00142781,4.92802
2.070000e-04,-0.0551563,-0.00112375,4.90553
2.080000e-04,-0.0542187,-0.000880313,4.90053
2.090000e-04,-0.0457813,-0.00105625,4.92584
2.100000e-04,-0.0478125,-0.000938438,4.93365
2.110000e-04,-0.0596875,-0.00129594,4.9374
2.120000e-04,-0.0617188,-0.00114906,4.91896
2.130000e-04,-0.060625,-0.000865,4.92771
2.140000e-04,-0.0607812,-0.00131938,4.91115
2.150000e-04,-0.0564063,-0.00108281,4.94865
2.160000e-04,-0.0640625,-0.000864688,4.91521
2.170000e-04,-0.0584375,-0.000855625,4.90896
2.180000e-04,-0.0514063,-0.00107375,4.90428
2.190000e-04,-0.0503125,-0.00121719,4.93459
2.200000e-04,-0.0620312,-0.0009525,4.90834
2.210000e-04,-0.0445313,-0.00118813,4.93021
2.220000e-04,-0.0567187,-0.00127281,4.90428
2.230000e-04,-0.0710937,-0.00090625,4.92271
2.240000e-04,-0.0632812,-0.00117625,4.91959
2.250000e-04,-0.061875,-0.000997188,4.92427
2.260000e-04,-0.065,-0.00117406,4.89365
2.270000e-04,-0.0582813,-0.00104594,4.92834
2.280000e-04,-0.0539063,-0.00120344,4.92896
2.290000e-04,-0.0498438,-0.000979688,4.92365
2.300000e-04,-0.051875,-0.00111594,4.9049
2.310000e-04,-0.0609375,-0.00150125,4.93084
2.320000e-04,-0.060625,-0.00108063,4.90865
2.330000e-04,-0.06,-0.00114188,4.89584
2.340000e-04,-0.0615625,-0.00135531,4.89552
2.350000e-04,-0.0509375,-0.00111594,4.8849
2.360000e-04,-0.0428125,-0.00116063,4.92303
2.370000e-04,-0.0528125,-0.00076625,4.87459
2.380000e-04,-0.0617188,-0.0009625,4.90615
2.390000e-04,-0.060625,-0.0010725,4.89646
2.400000e-04,-0.0475,-0.00126,4.90584
2.410000e-04,-0.0573437,-0.00125281,4.87271
2.420000e-04,-0.0557813,-0.00103875,4.89053
2.430000e-04,-0.0525,-0.000896875,4.89959
2.440000e-04,-0.0526563,-0.00125219,4.89334
2.450000e-04,-0.0460938,-0.00119125,4.90521
2.460000e-04,-0.0585938,-0.00137156,4.89771
2.470000e-04,-0.0551563,-0.000973438,4.89834
2.480000e-04,-0.0598438,-0.0009775,4.90334
2.490000e-04,-0.05625,-0.001315,4.89552
2.500000e-04,-0.0495312,-0.00124938,4.90521
2.510000e-04,-0.0573437,-0.00118406,4.88709
2.520000e-04,-0.0546875,-0.00048625,4.91865
2.530000e-04,-0.0654688,-0.000855625,4.91334
2.540000e-04,-0.0560937,-0.00124656,4.89646
2.550000e-04,-0.0532813,-0.00121094,4.92271
2.560000e-04,-0.0517188,-0.00118,4.91021
2.570000e-04,-0.0582813,-0.0009275,4.91052
2.580000e-04,-0.0589063,-0.00113219,4.90521
2.590000e-04,-0.0625,-0.000853125,4.90178
2.600000e-04,-0.0573437,-0.000903125,4.92209
2.610000e-04,-0.048125,-0.00114094,4.91302
2.620000e-04,-0.0625,-0.00095125,4.91146
2.630000e-04,-0.055625,-0.00129875,4.91021
2.640000e-04,-0.0548437,-0.00118156,4.89677
2.650000e-04,-0.0584375,-0.0013475,4.89615
2.660000e-04,-0.0615625,-0.00125438,4.90115
2.670000e-04,-0.05375,-0.00103281,4.91584
2.680000e-04,-0.0642188,-0.00122375,4.8924
2.690000e-04,-0.0525,-0.0008425,4.90553
2.700000e-04,-0.0509375,-0.00102094,4.90709
2.710000e-04,-0.0548437,-0.001245,4.90677
2.720000e-04,-0.0634375,-0.00124688,4.91584
2.730000e-04,-0.05875,-0.00119063,4.88584
2.740000e-04,-0.0632812,-0.00107156,4.9324
2.750000e-04,-0.0521875,-0.00113219,4.89178
2.760000e-04,-0.0425,-0.00143031,4.93646
2.770000e-04,-0.0473438,-0.00138344,4.91928
2.780000e-04,-0.0573437,-0.00113813,4.90928
2.790000e-04,-0.06125,-0.000765313,4.91959
2.800000e-04,-0.0546875,-0.00112438,4.92459
2.810000e-04,-0.0623438,-0.00128688,4.92677
2.820000e-04,-0.0546875,-0.000952188,4.90896
2.830000e-04,-0.0576563,-0.000927188,4.90302
2.840000e-04,-0.06,-0.0008275,4.94646
2.850000e-04,-0.0457813,-0.00121219,4.9124
2.860000e-04,-0.0623438,-0.00147031,4.90896
2.870000e-04,-0.04625,-0.000773438,4.91928
2.880000e-04,-0.0557813,-0.00107,4.91584
2.890000e-04,-0.0623438,-0.00109219,4.91521
2.900000e-04,-0.05125,-0.00151625,4.94053
2.910000e-04,-0.054375,-0.00124813,4.89552
2.920000e-04,-0.054375,-0.000814688,4.91677
2.930000e-04,-0.0717187,-0.00114,4.91896
2.940000e-04,-0.0517188,-0.00135375,4.90146
2.950000e-04,-0.0579687,-0.00132438,4.90615
2.960000e-04,-0.045625,-0.00119906,4.91115
2.970000e-04,-0.0628125,-0.0009275,4.91271
2.980000e-04,-0.0504687,-0.00109375,4.91646
2.990000e-04,-0.0501562,-0.00135438,4.90053
3.000000e-04,-0.0542187,-0.00108938,4.91834
3.010000e-04,-0.0578125,-0.00105,4.90396
3.020000e-04,-0.0559375,-0.00118344,4.92959
3.030000e-04,-0.06,-0.00103406,4.87615
3.040000e-04,-0.0510938,-0.00149938,4.90084
3.050000e-04,-0.0604688,-0.000929375,4.91271
3.060000e-04,-0.0726563,-0.00097625,4.90053
3.070000e-04,-0.061875,-0.001255,4.87365
3.080000e-04,-0.0659375,-0.000876875,4.90053
3.090000e-04,-0.0554687,-0.00143438,4.8824
3.100000e-04,-0.0559375,-0.000875938,4.88209
3.110000e-04,-0.0642188,-0.00127938,4.8849
3.120000e-04,-0.0415625,-0.00115219,4.90709
3.130000e-04,-0.055,-0.00112563,4.87646
3.140000e-04,-0.0654688,-0.00109906,4.90928
3.150000e-04,-0.0503125,-0.00102188,4.89365
3.160000e-04,-0.0351562,-0.00141844,4.90771
3.170000e-04,-0.0557813,-0.000922813,4.88177
3.180000e-04,-0.0535937,-0.000885,4.89428
3.190000e-04,-0.0464062,-0.0008675,4.91646
3.200000e-04,-0.0545313,-0.00134656,4.89927
3.210000e-04,-0.0671875,-0.00131031,4.89365
3.220000e-04,-0.0640625,-0.00106688,4.90459
3.230000e-04,-0.0509375,-0.000870313,4.88678
3.240000e-04,-0.0521875,-0.00109219,4.91771
3.250000e-04,-0.06125,-0.00114531,4.89365
3.260000e-04,-0.0284375,-0.0011475,4.89209
3.270000e-04,-0.0539063,-0.00130406,4.90021
3.280000e-04,-0.0596875,-0.000875938,4.90334
3.290000e-04,-0.0546875,-0.00125094,4.87896
3.300000e-04,-0.059375,-0.00119625,4.92084
3.310000e-04,-0.0609375,-0.001095,4.8924
3.320000e-04,-0.0523437,-0.00118531,4.92771
3.330000e-04,-0.0601562,-0.000976875,4.88803
3.340000e-04,-0.055,-0.00105219,4.89552
3.350000e-04,-0.055,-0.00108906,4.92365
3.360000e-04,-0.0532813,-0.00116531,4.88834
3.370000e-04,-0.0598438,-0.00112563,4.89771
3.380000e-04,-0.0653125,-0.00134969,4.92084
3.390000e-04,-0.0489062,-0.00117906,4.93178
3.400000e-04,-0.0571875,-0.0010525,4.91584
3.410000e-04,-0.0451563,-0.000961875,4.90928
3.420000e-04,-0.0621875,-0.00143906,4.88521
3.430000e-04,-0.0498438,-0.00159594,4.89209
3.440000e-04,-0.0465625,-0.0008725,4.90021
3.450000e-04,-0.0521875,-0.00118563,4.90928
3.460000e-04,-0.06375,-0.000711875,4.89084
3.470000e-04,-0.05875,-0.00106688,4.92084
3.480000e-04,-0.0478125,-0.0012875,4.94459
3.490000e-04,-0.0503125,-0.000851875,4.92553
3.500000e-04,-0.0514063,-0.00105656,4.92615
3.510000e-04,-0.060625,-0.000933125,4.91646
3.520000e-04,-0.0390625,-0.00132156,4.91834
3.530000e-04,-0.0684375,-0.00123375,4.9324
3.540000e-04,-0.0639062,-0.0011275,4.91521
3.550000e-04,-0.05875,-0.000940938,4.90677
3.560000e-04,-0.0645312,-0.00106594,4.90271
3.570000e-04,-0.049375,-0.00121719,4.90771
3.580000e-04,-0.0648438,-0.00102875,4.91584
3.590000e-04,-0.0479688,-0.00103313,4.92834
3.600000e-04,-0.0528125,-0.00114844,4.92677
3.610000e-04,-0.0514063,-0.00128625,4.92459
3.620000e-04,-0.0640625,-0.000892813,4.89584
3.630000e-04,-0.045,-0.00118031,4.90146
3.640000e-04,-0.0489062,-0.00107938,4.92052
3.650000e-04,-0.0657812,-0.00108219,4.9149
3.660000e-04,-0.0573437,-0.00151469,4.92709
3.670000e-04,-0.0526563,-0.0007075,4.91365
3.680000e-04,-0.0567187,-0.00106344,4.93303
3.690000e-04,-0.0615625,-0.001115,4.91084
3.700000e-04,-0.055,-0.00115844,4.93365
3.710000e-04,-0.0576563,-0.00125375,4.88459
3.720000e-04,-0.0640625,-0.000763438,4.89209
3.730000e-04,-0.058125,-0.00126469,4.9174
3.740000e-04,-0.066875,-0.00130063,4.92802
3.750000e-04,-0.0501562,-0.00122938,4.90428
3.760000e-04,-0.0598438,-0.000863438,4.89834
3.770000e-04,-0.055625,-0.00092375,4.92677
3.780000e-04,-0.05375,-0.00138219,4.89865
3.790000e-04,-0.0571875,-0.0012725,4.88927
3.800000e-04,-0.0603125,-0.00100938,4.87521
3.810000e-04,-0.0651562,-0.00106375,4.93271
3.820000e-04,-0.0571875,-0.00104469,4.90146
3.830000e-04,-0.0498438,-0.00119031,4.90302
3.840000e-04,-0.0604688,-0.000872188,4.87552
3.850000e-04,-0.0615625,-0.000565,4.91928
3.860000e-04,-0.05875,-0.000909375,4.9199
3.870000e-04,-0.0570313,-0.00122563,4.91021
3.880000e-04,-0.0626562,-0.00117656,4.91459
3.890000e-04,-0.05,-0.000879688,4.87959
3.900000e-04,-0.053125,-0.00094,4.89959
3.910000e-04,-0.0507812,-0.000841563,4.9099
3.920000e-04,-0.056875,-0.00083125,4.88177
3.930000e-04,-0.0451563,-0.00111875,4.88365
3.940000e-04,-0.0485938,-0.000753125,4.89865
3.950000e-04,-0.0604688,-0.00121063,4.89396
3.960000e-04,-0.0620312,-0.00127781,4.92709
3.970000e-04,-0.0489062,-0.00103281,4.92021
3.980000e-04,-0.0528125,-0.00132906,4.89834
3.990000e-04,-0.0501562,-0.00103063,4.91146
4.000000e-04,-0.05875,-0.00105531,4.90459
4.010000e-04,-0.050625,-0.00127094,4.8974
4.020000e-04,-0.056875,-0.00094875,4.92771
4.030000e-04,-0.048125,-0.000799375,4.90896
4.040000e-04,-0.0601562,-0.00113031,4.91646
4.050000e-04,-0.0575,-0.000795313,4.8974
4.060000e-04,-0.0590625,-0.000963438,4.8849
4.070000e-04,-0.0545313,-0.00107938,4.89834
4.080000e-04,-0.0564063,-0.000995938,4.87927
4.090000e-04,-0.0675,-0.00147688,4.91084
4.100000e-04,-0.0607812,-0.000920938,4.92334
4.110000e-04,-0.06875,-0.000948125,4.92834
4.120000e-04,-0.0626562,-0.000758125,4.88896
4.130000e-04,-0.0540625,-0.00116469,4.88615
4.140000e-04,-0.0642188,-0.00115844,4.89084
4.150000e-04,-0.0567187,-0.00110531,4.90365
4.160000e-04,-0.0457813,-0.000832813,4.90084
4.170000e-04,-0.066875,-0.000736875,4.89302
4.180000e-04,-0.0525,-0.00138281,4.89521
4.190000e-04,-0.0603125,-0.000945625,4.9024
4.200000e-04,-0.054375,-0.000985938,4.88584
4.210000e-04,-0.0704687,-0.000735,4.92865
4.220000e-04,-0.0439063,-0.000999688,4.89615
4.230000e-04,-0.0585938,-0.000862188,4.89459
4.240000e-04,-0.0585938,-0.000787188,4.92146
4.250000e-04,-0.0551563,-0.000886875,4.90428
4.260000e-04,-0.05625,-0.000774063,4.90021
4.270000e-04,-0.0564063,-0.001045,4.89334
4.280000e-04,-0.065625,-0.000985313,4.89334
4.290000e-04,-0.0734375,-0.00105469,4.90834
4.300000e-04,-0.043125,-0.00102344,4.92115
4.310000e-04,-0.0604688,-0.00117,4.8974
4.320000e-04,-0.0485938,-0.0010475,4.90053
4.330000e-04,-0.0635938,-0.00105156,4.89896
4.340000e-04,-0.0571875,-0.000950313,4.90928
4.350000e-04,-0.0525,-0.000919375,4.91396
4.360000e-04,-0.0721875,-0.00105688,4.91709
4.370000e-04,-0.0509375,-0.000750938,4.90553
4.380000e-04,-0.0571875,-0.00103156,4.8999
4.390000e-04,-0.0582813,-0.00071625,4.90396
4.400000e-04,-0.058125,-0.00125938,4.93646
4.410000e-04,-0.0520313,-0.000953125,4.89615
4.420000e-04,-0.061875,-0.00096875,4.89615
4.430000e-04,-0.0660938,-0.00104,4.90084
4.440000e-04,-0.0635938,-0.00087125,4.89021
4.450000e-04,-0.054375,-0.00128688,4.88771
4.460000e-04,-0.0639062,-0.00106,4.92146
4.470000e-04,-0.0459375,-0.0007675,4.89146
4.480000e-04,-0.060625,-0.000939375,4.91021
4.490000e-04,-0.0535937,-0.00086875,4.91365
4.500000e-04,-0.0540625,-0.00128656,4.93709
4.510000e-04,-0.0590625,-0.000907813,4.92553
4.520000e-04,-0.0521875,-0.00111688,4.90209
4.530000e-04,-0.05625,-0.00112625,4.87709
4.540000e-04,-0.053125,-0.000935625,4.89115
4.550000e-04,-0.0598438,-0.000905313,4.89459
4.560000e-04,-0.0551563,-0.000915,4.91052
4.570000e-04,-0.0576563,-0.00109813,4.9099
4.580000e-04,-0.0535937,-0.000992188,4.90771
4.590000e-04,-0.0484375,-0.000939375,4.9074
4.600000e-04,-0.0564063,-0.000798125,4.92646
4.610000e-04,-0.0503125,-0.00106406,4.90896
4.620000e-04,-0.0576563,-0.001225,4.90834
4.630000e-04,-0.0521875,-0.00130125,4.88771
4.640000e-04,-0.0510938,-0.000883125,4.88428
4.650000e-04,-0.0628125,-0.000672813,4.88615
4.660000e-04,-0.0515625,-0.0010975,4.89552
4.670000e-04,-0.054375,-0.00116094,4.9024
4.680000e-04,-0.055625,-0.00113656,4.89053
4.690000e-04,-0.055625,-0.000739688,4.88521
4.700000e-04,-0.0551563,-0.000944063,4.87865
4.710000e-04,-0.0528125,-0.00104844,4.88552
4.720000e-04,-0.0610938,-0.000939688,4.90896
4.730000e-04,-0.0645312,-0.000925313,4.88428
4.740000e-04,-0.0482812,-0.000845625,4.90334
4.750000e-04,-0.0546875,-0.00103938,4.88271
4.760000e-04,0.340781,0.00221906,4.90302
4.770000e-04,-0.662344,0.00713813,4.88584
4.780000e-04,0.942969,-0.0085525,4.90771
4.790000e-04,-1.60094,-0.0126013,4.89959
4.800000e-04,1.11688,-0.0126013,4.89178
4.810000e-04,-0.927344,-0.0126013,4.88021
4.820000e-04,0.86875,-0.0126013,4.91365
4.830000e-04,-1.16234,-0.0126013,4.89396
4.840000e-04,1.27281,-0.0126013,4.88521
4.850000e-04,-1.50672,-0.0126013,4.92021
4.860000e-04,1.61969,-0.0126013,4.91178
4.870000e-04,-1.75109,-0.0126013,4.90459
4.880000e-04,1.63859,-0.0126013,4.91052
4.890000e-04,-1.7075,-0.0126013,4.89834
4.900000e-04,1.58594,-0.0126013,4.88302
4.910000e-04,-1.68344,-0.0126013,4.88084
4.920000e-04,1.54797,-0.0126013,4.88271
4.930000e-04,-1.54313,-0.0126013,4.91709
4.940000e-04,1.41797,-0.0125844,4.88865
4.950000e-04,-1.455,-0.0125559,4.90209
4.960000e-04,1.31297,-0.0124513,4.87959
4.970000e-04,-0.736563,-0.0125822,4.90865
4.980000e-04,0.0298437,-0.0117572,4.91834
4.990000e-04,-0.0217188,-0.0115622,4.92209
5.000000e-04,0.00984375,-0.0115784,4.90271
5.010000e-04,0.0310937,-0.0115803,4.88365
5.020000e-04,0.0423437,-0.0115909,4.90178
5.030000e-04,0.0614062,-0.0115994,4.88865
5.040000e-04,0.0628125,-0.0116538,4.9074
5.050000e-04,0.0703125,-0.0123606,4.92928
5.060000e-04,0.0815625,-0.01158,4.92303
5.070000e-04,0.083125,-0.0115247,4.90834
5.080000e-04,0.091875,-0.0111947,4.9349
5.090000e-04,0.0829687,-0.011195,4.90553
5.100000e-04,0.103281,-0.0041825,4.94271
5.110000e-04,0.0885937,0.00358,4.92396
5.120000e-04,0.0884375,-0.00612031,4.91896
5.130000e-04,0.0873437,-0.0121506,4.92303
5.140000e-04,0.0984375,-0.0115244,4.90803
5.150000e-04,0.0871875,-0.0114691,4.92178
5.160000e-04,0.08125,-0.0113703,4.93021
5.170000e-04,0.0671875,-0.0113706,4.94834
5.180000e-04,0.081875,-0.0113709,4.92334
5.190000e-04,0.0820312,-0.0114078,4.89834
5.200000e-04,0.0728125,-0.0114169,4.9124
5.210000e-04,0.0854687,-0.0114109,4.92771
5.220000e-04,0.0742188,-0.0114128,4.89271
5.230000e-04,0.0742188,-0.0113997,4.9174
5.240000e-04,0.0895312,-0.0114088,4.90084
5.250000e-04,0.0820312,-0.0114069,4.91928
5.260000e-04,0.0676563,-0.0107838,4.89896
5.270000e-04,0.0878125,-0.00889281,4.87646
5.280000e-04,0.0845313,-0.005745,4.9099
5.290000e-04,0.0664062,-0.00298844,4.91271
5.300000e-04,0.069375,-0.00013,4.90584
5.310000e-04,0.0746875,0.0022925,4.9124
5.320000e-04,0.06875,0.00432969,4.90521
5.330000e-04,0.0689063,0.00504156,4.91677
5.340000e-04,0.0764062,0.00556063,4.91959
5.350000e-04,0.0670313,0.00587062,4.88021
5.360000e-04,0.0842187,0.00623063,4.89271
5.370000e-04,0.063125,0.00642562,4.89803
5.380000e-04,0.0690625,0.00666969,4.89927
5.390000e-04,0.0651562,0.00688531,4.89896
5.400000e-04,0.0714063,0.00695906,4.89959
5.410000e-04,0.0614062,0.00708156,4.92146
5.420000e-04,0.0620312,0.00710469,4.89396
5.430000e-04,0.058125,0.00716469,4.8974
5.440000e-04,0.0529687,0.0070475,4.87896
5.450000e-04,0.0715625,0.00697531,4.87396
5.460000e-04,0.059375,0.00686375,4.88615
5.470000e-04,0.0607812,0.00660188,4.89334
5.480000e-04,0.0678125,0.00633375,4.90021
5.490000e-04,0.0679687,0.00563812,4.87709
5.500000e-04,0.0548437,0.00319906,4.90271
5.510000e-04,0.0517187,0.00110781,4.91584
5.520000e-04,0.0517187,-0.00113781,4.91084
5.530000e-04,0.0521875,-0.00360906,4.90302
5.540000e-04,0.0676563,-0.00640844,4.92115
5.550000e-04,0.0492187,-0.0086325,4.91459
5.560000e-04,0.0459375,-0.0106225,4.88334
5.570000e-04,0.0485937,-0.0115553,4.90521
5.580000e-04,0.0520313,-0.0116019,4.89865
5.590000e-04,0.046875,-0.0116166,4.90115
5.600000e-04,0.0476562,-0.0116434,4.9074
5.610000e-04,0.0589062,-0.0116778,4.90865
5.620000e-04,0.0478125,-0.0116894,4.88584
5.630000e-04,0.0526563,-0.0116941,4.90396
5.640000e-04,0.0426562,-0.0117309,4.89178
5.650000e-04,0.0490625,-0.0117338,4.89271
5.660000e-04,0.0485937,-0.0117594,4.88428
5.670000e-04,0.05,-0.011755,4.93678
5.680000e-04,0.0457812,-0.0117581,4.88927
5.690000e-04,0.0585938,-0.0117853,4.88927
5.700000e-04,0.0440625,-0.0117859,4.91178
5.710000e-04,0.04625,-0.0118156,4.91021
5.720000e-04,0.0365625,-0.0117775,4.89834
5.730000e-04,0.0485937,-0.0117988,4.9024
5.740000e-04,0.0309375,-0.0117981,4.89271
5.750000e-04,0.0475,-0.0118003,4.91615
5.760000e-04,0.0317188,-0.0118047,4.88959
