nmr/data/tek0035.csv

Model,MDO4054-3
Firmware Version,2.20

Waveform Type,ANALOG,,
Point Format,Y,,
Horizontal Units,s,,
Horizontal Scale,0.01,,
Horizontal Delay,0.05012,,
Sample Interval,1e-06,,
Record Length,100000,,
Gating,0.0% to 100.0%,,
Probe Attenuation,1,,
Vertical Units,V,,
Vertical Offset,0,,
Vertical Scale,1,,
Vertical Position,0.02,,
,,,
,,,
,,,
Label,,,
TIME,CH1,CH2,CH3
1.200000e-04,-0.055625,-0.00142219,4.95146
1.210000e-04,-0.0582813,-0.00175609,4.9624
1.220000e-04,-0.0528125,-0.001355,4.93427
1.230000e-04,-0.054375,-0.00165453,4.93052
1.240000e-04,-0.0517188,-0.00152063,4.94709
1.250000e-04,-0.0520313,-0.00163703,4.92334
1.260000e-04,-0.0554687,-0.00127563,4.90396
1.270000e-04,-0.0632812,-0.00163188,4.92334
1.280000e-04,-0.0546875,-0.00155062,4.91709
1.290000e-04,-0.0584375,-0.00182813,4.92802
1.300000e-04,-0.065625,-0.00141984,4.92021
1.310000e-04,-0.055,-0.00162391,4.95115
1.320000e-04,-0.0548437,-0.00121719,4.88896
1.330000e-04,-0.0579687,-0.00149625,4.92834
1.340000e-04,-0.0585938,-0.00154594,4.92146
1.350000e-04,-0.0610938,-0.00154125,4.90928
1.360000e-04,-0.055,-0.00144641,4.90646
1.370000e-04,-0.0525,-0.00158453,4.9324
1.380000e-04,-0.05125,-0.00172219,4.92928
1.390000e-04,-0.048125,-0.0020125,4.91396
1.400000e-04,-0.0446875,-0.00130063,4.91302
1.410000e-04,-0.0609375,-0.00172094,4.92459
1.420000e-04,-0.0526563,-0.00139672,4.91209
1.430000e-04,-0.0492188,-0.00161047,4.91334
1.440000e-04,-0.0595313,-0.00190469,4.91427
1.450000e-04,-0.0560937,-0.00149125,4.91771
1.460000e-04,-0.0573437,-0.00172156,4.91834
1.470000e-04,-0.0478125,-0.00139344,4.92396
1.480000e-04,-0.0645312,-0.00155734,4.92959
1.490000e-04,-0.058125,-0.00187266,4.92146
1.500000e-04,-0.0582813,-0.00161125,4.9149
1.510000e-04,-0.0546875,-0.00165406,4.91615
1.520000e-04,-0.0559375,-0.00148156,4.92396
1.530000e-04,-0.0610938,-0.00162672,4.93802
1.540000e-04,-0.07,-0.0016875,4.94584
1.550000e-04,-0.0557813,-0.00151719,4.94834
1.560000e-04,-0.0540625,-0.00154922,4.92615
1.570000e-04,-0.0515625,-0.00144891,4.92584
1.580000e-04,-0.0610938,-0.00180141,4.91115
1.590000e-04,-0.0621875,-0.00176078,4.91615
1.600000e-04,-0.0503125,-0.0015725,4.89552
1.610000e-04,-0.0464062,-0.00176297,4.93615
1.620000e-04,-0.0551563,-0.00127578,4.92615
1.630000e-04,-0.04625,-0.00146547,4.93865
1.640000e-04,-0.0526563,-0.00152438,4.90896
1.650000e-04,-0.05875,-0.00140969,4.93896
1.660000e-04,-0.05625,-0.00155219,4.9274
1.670000e-04,-0.0557813,-0.00150406,4.93896
1.680000e-04,-0.058125,-0.00149219,4.95365
1.690000e-04,-0.0584375,-0.00171016,4.93959
1.700000e-04,-0.0703125,-0.00150188,4.93896
1.710000e-04,-0.0559375,-0.00169281,4.95365
1.720000e-04,-0.0529687,-0.00173344,4.91146
1.730000e-04,-0.06,-0.00123922,4.94427
1.740000e-04,-0.0478125,-0.00173391,4.94177
1.750000e-04,-0.0584375,-0.00157422,4.90834
1.760000e-04,-0.04125,-0.00160578,4.9324
1.770000e-04,-0.051875,-0.00173406,4.9224
1.780000e-04,-0.0610938,-0.00129656,4.9224
1.790000e-04,-0.0540625,-0.00180547,4.8974
1.800000e-04,-0.0595313,-0.00152375,4.9349
1.810000e-04,-0.0421875,-0.00168031,4.92459
1.820000e-04,-0.0492188,-0.00174594,4.93427
1.830000e-04,-0.0565625,-0.00141062,4.9249
1.840000e-04,-0.0525,-0.00151203,4.92771
1.850000e-04,-0.0620312,-0.00155484,4.97552
1.860000e-04,-0.0517188,-0.00171531,4.93052
1.870000e-04,-0.0521875,-0.00138188,4.95334
1.880000e-04,-0.0532813,-0.00203187,4.9674
1.890000e-04,-0.0684375,-0.00121281,4.92115
1.900000e-04,-0.0585938,-0.00184344,4.95646
1.910000e-04,-0.0617188,-0.00153391,4.93178
1.920000e-04,-0.0576563,-0.00139656,4.94802
1.930000e-04,-0.0475,-0.00182641,4.95927
1.940000e-04,-0.0571875,-0.00152625,4.92146
1.950000e-04,-0.0589063,-0.00150594,4.94709
1.960000e-04,-0.0596875,-0.00171203,4.94459
1.970000e-04,-0.0614062,-0.0014025,4.95646
1.980000e-04,-0.055,-0.00147938,4.93553
1.990000e-04,-0.0553125,-0.00142703,4.93959
2.000000e-04,-0.0570313,-0.00118844,4.91771
2.010000e-04,-0.0595313,-0.00165078,4.92209
2.020000e-04,-0.061875,-0.00141891,4.91427
2.030000e-04,-0.0601562,-0.00158359,4.91834
2.040000e-04,-0.0485938,-0.00186406,4.94896
2.050000e-04,-0.0498438,-0.00125125,4.93084
2.060000e-04,-0.048125,-0.00161672,4.9324
2.070000e-04,-0.0571875,-0.00148547,4.94271
2.080000e-04,-0.0584375,-0.00167547,4.95021
2.090000e-04,-0.0604688,-0.00159578,4.93365
2.100000e-04,-0.0535937,-0.00154109,4.89646
2.110000e-04,-0.0601562,-0.00134859,4.91209
2.120000e-04,-0.050625,-0.00191656,4.93928
2.130000e-04,-0.0703125,-0.00155297,4.92709
2.140000e-04,-0.0578125,-0.00164781,4.93865
2.150000e-04,-0.0554687,-0.00164281,4.91146
2.160000e-04,-0.06,-0.00133813,4.95115
2.170000e-04,-0.0473438,-0.00153297,4.93802
2.180000e-04,-0.051875,-0.00169859,4.93146
2.190000e-04,-0.0548437,-0.00119359,4.94459
2.200000e-04,-0.0426562,-0.00169672,4.90334
2.210000e-04,-0.0553125,-0.00131188,4.94209
2.220000e-04,-0.0448438,-0.00161781,4.94177
2.230000e-04,-0.0540625,-0.00163188,4.91459
2.240000e-04,-0.0590625,-0.00147344,4.91959
2.250000e-04,-0.0651562,-0.00181141,4.93052
2.260000e-04,-0.0534375,-0.00150828,4.91334
2.270000e-04,-0.0475,-0.00171078,4.92709
2.280000e-04,-0.059375,-0.00154766,4.92959
2.290000e-04,-0.0484375,-0.00143703,4.89771
2.300000e-04,-0.0601562,-0.00169906,4.91302
2.310000e-04,-0.06625,-0.00159672,4.92084
2.320000e-04,-0.0657812,-0.00167422,4.92021
2.330000e-04,-0.0567187,-0.00149859,4.91896
2.340000e-04,-0.0490625,-0.00154672,4.91459
2.350000e-04,-0.0521875,-0.00164922,4.9524
2.360000e-04,-0.060625,-0.00142578,4.92928
2.370000e-04,-0.0604688,-0.0017,4.91834
2.380000e-04,-0.06125,-0.00136109,4.93209
2.390000e-04,-0.0634375,-0.00147406,4.95115
2.400000e-04,-0.0621875,-0.00178437,4.9224
2.410000e-04,-0.0617188,-0.00132422,4.92396
2.420000e-04,-0.0509375,-0.00159984,4.9474
2.430000e-04,-0.0451563,-0.0015675,4.94303
2.440000e-04,-0.05875,-0.00140703,4.93084
2.450000e-04,-0.0542187,-0.00190203,4.9149
2.460000e-04,-0.0521875,-0.00133234,4.93646
2.470000e-04,-0.0514063,-0.00160781,4.97521
2.480000e-04,-0.054375,-0.00134484,4.94084
2.490000e-04,-0.060625,-0.00159406,4.9474
2.500000e-04,-0.0565625,-0.00161953,4.91365
2.510000e-04,-0.0525,-0.00177063,4.92115
2.520000e-04,-0.0639062,-0.00141781,4.94271
2.530000e-04,-0.0571875,-0.00198266,4.93802
2.540000e-04,-0.0467188,-0.00159891,4.92021
2.550000e-04,-0.0653125,-0.00161437,4.91771
2.560000e-04,-0.0579687,-0.00157813,4.93584
2.570000e-04,-0.0475,-0.00138953,4.94303
2.580000e-04,-0.048125,-0.00167313,4.9549
2.590000e-04,-0.059375,-0.00157688,4.94771
2.600000e-04,-0.05625,-0.00181781,4.96865
2.610000e-04,-0.0589063,-0.00154797,4.92646
2.620000e-04,-0.0557813,-0.00156641,4.94396
2.630000e-04,-0.0573437,-0.0018925,4.9649
2.640000e-04,-0.045,-0.00142047,4.94584
2.650000e-04,-0.0634375,-0.00174859,4.9374
2.660000e-04,-0.0639062,-0.00151969,4.95084
2.670000e-04,-0.0514063,-0.00134891,4.93771
2.680000e-04,-0.06,-0.00184578,4.94896
2.690000e-04,-0.0575,-0.00151563,4.93553
2.700000e-04,-0.0609375,-0.00147938,4.92928
2.710000e-04,-0.0490625,-0.00207781,4.94552
2.720000e-04,-0.0548437,-0.00101656,4.9624
2.730000e-04,-0.056875,-0.00175094,4.93271
2.740000e-04,-0.0504687,-0.00162484,4.9249
2.750000e-04,-0.0576563,-0.00141047,4.95459
2.760000e-04,-0.055,-0.00181031,4.93959
2.770000e-04,-0.0692187,-0.00135688,4.93678
2.780000e-04,-0.0609375,-0.00138922,4.94678
2.790000e-04,-0.0601562,-0.001715,4.96177
2.800000e-04,-0.0529687,-0.00132844,4.93021
2.810000e-04,-0.038125,-0.00172109,4.93678
2.820000e-04,-0.054375,-0.00162828,4.95834
2.830000e-04,-0.050625,-0.00162328,4.9549
2.840000e-04,-0.045625,-0.00152641,4.9224
2.850000e-04,-0.0610938,-0.00179984,4.9624
2.860000e-04,-0.0554687,-0.00176578,4.91427
2.870000e-04,-0.0575,-0.00149109,4.9174
2.880000e-04,-0.0539063,-0.00171078,4.91334
2.890000e-04,-0.0623438,-0.00153156,4.92365
2.900000e-04,-0.0585938,-0.00163562,4.93115
2.910000e-04,-0.0601562,-0.00169203,4.89834
2.920000e-04,-0.0573437,-0.00149438,4.90146
2.930000e-04,-0.0634375,-0.00166,4.9249
2.940000e-04,-0.0528125,-0.00149422,4.92834
2.950000e-04,-0.0489062,-0.0018025,4.93209
2.960000e-04,-0.053125,-0.00162516,4.92802
2.970000e-04,-0.055,-0.00158203,4.90928
2.980000e-04,-0.05,-0.00187172,4.94115
2.990000e-04,-0.0553125,-0.00126625,4.92521
3.000000e-04,-0.061875,-0.00180531,4.94177
3.010000e-04,-0.0651562,-0.00140766,4.92178
3.020000e-04,-0.055625,-0.00162031,4.90178
3.030000e-04,-0.055625,-0.00146391,4.91834
3.040000e-04,-0.0426562,-0.00152141,4.95334
3.050000e-04,-0.0615625,-0.00171672,4.92209
3.060000e-04,-0.0659375,-0.00152375,4.93553
3.070000e-04,-0.0603125,-0.00161484,4.91615
3.080000e-04,-0.0520313,-0.00167328,4.92334
3.090000e-04,-0.06,-0.0012925,4.90677
3.100000e-04,-0.0578125,-0.00177391,4.94459
3.110000e-04,-0.0626562,-0.00145188,4.95584
3.120000e-04,-0.0570313,-0.001385,4.91959
3.130000e-04,-0.0554687,-0.0013125,4.92146
3.140000e-04,-0.0610938,-0.00151609,4.92865
3.150000e-04,-0.0535937,-0.00143828,4.92584
3.160000e-04,-0.055,-0.00205609,4.9049
3.170000e-04,-0.0560937,-0.00126891,4.90521
3.180000e-04,-0.0567187,-0.00159219,4.94802
3.190000e-04,-0.06,-0.00150656,4.93084
3.200000e-04,-0.0665625,-0.00136078,4.92427
3.210000e-04,-0.0589063,-0.00163437,4.93146
3.220000e-04,-0.056875,-0.00143422,4.90896
3.230000e-04,-0.0498438,-0.00148453,4.92553
3.240000e-04,-0.0526563,-0.00163969,4.95678
3.250000e-04,-0.0548437,-0.00154813,4.94459
3.260000e-04,-0.0626562,-0.00157016,4.90271
3.270000e-04,-0.0520313,-0.00135,4.92021
3.280000e-04,-0.0503125,-0.00148063,4.91271
3.290000e-04,-0.0517188,-0.00140313,4.94646
3.300000e-04,-0.05375,-0.00188063,4.94115
3.310000e-04,-0.0535937,-0.00140484,4.93052
3.320000e-04,-0.0490625,-0.00167656,4.95552
3.330000e-04,-0.0579687,-0.00159609,4.93084
3.340000e-04,-0.0473438,-0.00151781,4.93084
3.350000e-04,-0.0410937,-0.00177,4.93771
3.360000e-04,-0.055625,-0.00137797,4.93459
3.370000e-04,-0.03375,-0.00153578,4.96334
3.380000e-04,-0.0521875,-0.00145828,4.9724
3.390000e-04,-0.0628125,-0.00147437,4.94615
3.400000e-04,-0.050625,-0.00180078,4.95146
3.410000e-04,-0.0582813,-0.00127453,4.95334
3.420000e-04,-0.0554687,-0.00182484,4.92459
3.430000e-04,-0.0557813,-0.00136953,4.93959
3.440000e-04,-0.0576563,-0.00151844,4.95709
3.450000e-04,-0.065625,-0.00169937,4.9399
3.460000e-04,-0.0560937,-0.00147516,4.96053
3.470000e-04,-0.0567187,-0.00158172,4.95021
3.480000e-04,-0.0584375,-0.00162031,4.94584
3.490000e-04,-0.060625,-0.00144938,4.97271
3.500000e-04,-0.0539063,-0.00165156,4.93209
3.510000e-04,-0.0489062,-0.00135156,4.96646
3.520000e-04,-0.0501562,-0.00186141,4.94834
3.530000e-04,-0.0565625,-0.00161719,4.94646
3.540000e-04,-0.0545313,-0.00145469,4.9424
3.550000e-04,-0.0573437,-0.00171953,4.93334
3.560000e-04,-0.0529687,-0.00123922,4.91803
3.570000e-04,-0.0596875,-0.00186906,4.92178
3.580000e-04,-0.0571875,-0.00143406,4.91052
3.590000e-04,-0.05125,-0.00169078,4.93084
3.600000e-04,-0.0659375,-0.00154609,4.9349
3.610000e-04,-0.0576563,-0.00159516,4.93459
3.620000e-04,-0.0610938,-0.00151281,4.90646
3.630000e-04,-0.0685937,-0.00153891,4.93334
3.640000e-04,-0.0682813,-0.00162547,4.89365
3.650000e-04,-0.051875,-0.00145641,4.93709
3.660000e-04,-0.0510938,-0.00161703,4.90896
3.670000e-04,-0.0585938,-0.00156125,4.89927
3.680000e-04,-0.0539063,-0.00162656,4.92178
3.690000e-04,-0.0539063,-0.00162547,4.9249
3.700000e-04,-0.065625,-0.00116203,4.92584
3.710000e-04,-0.0490625,-0.0019625,4.90302
3.720000e-04,-0.0617188,-0.001245,4.91928
3.730000e-04,-0.0610938,-0.00146844,4.92521
3.740000e-04,-0.0592188,-0.00167406,4.9349
3.750000e-04,-0.056875,-0.00141281,4.90553
3.760000e-04,-0.0520313,-0.00154719,4.94396
3.770000e-04,-0.0507812,-0.00172969,4.93646
3.780000e-04,-0.060625,-0.00170656,4.92334
3.790000e-04,-0.0565625,-0.00155438,4.93709
3.800000e-04,-0.066875,-0.00167438,4.93115
3.810000e-04,-0.04625,-0.00188609,4.93427
3.820000e-04,-0.0478125,-0.00150547,4.93553
3.830000e-04,-0.05625,-0.00181391,4.94584
3.840000e-04,-0.0696875,-0.00130328,4.92521
3.850000e-04,-0.0542187,-0.00155781,4.94209
3.860000e-04,-0.05,-0.00160969,4.89834
3.870000e-04,-0.0592188,-0.00160859,4.90959
3.880000e-04,-0.0532813,-0.00164016,4.94427
3.890000e-04,-0.055,-0.00176859,4.9399
3.900000e-04,-0.0490625,-0.0014725,4.94552
3.910000e-04,-0.0576563,-0.00187219,4.91209
3.920000e-04,-0.0682813,-0.00145359,4.93427
3.930000e-04,-0.0526563,-0.00185234,4.93896
3.940000e-04,-0.0492188,-0.00186016,4.90959
3.950000e-04,-0.0640625,-0.00136766,4.9249
3.960000e-04,-0.0584375,-0.00189172,4.91709
3.970000e-04,-0.061875,-0.00154078,4.92115
3.980000e-04,-0.0590625,-0.00164969,4.93459
3.990000e-04,-0.060625,-0.00193797,4.9124
4.000000e-04,-0.0532813,-0.00139484,4.92896
4.010000e-04,-0.0495312,-0.00177156,4.94021
4.020000e-04,-0.0590625,-0.0013775,4.92021
4.030000e-04,-0.04125,-0.00165516,4.94021
4.040000e-04,-0.050625,-0.00151969,4.92396
4.050000e-04,-0.0528125,-0.0016875,4.93865
4.060000e-04,-0.0546875,-0.00162328,4.93802
4.070000e-04,-0.0428125,-0.00149766,4.94521
4.080000e-04,-0.055,-0.00152453,4.94584
4.090000e-04,-0.0557813,-0.00155422,4.93771
4.100000e-04,-0.0509375,-0.00154594,4.91834
4.110000e-04,-0.0490625,-0.00154578,4.94303
4.120000e-04,-0.0503125,-0.00152031,4.93303
4.130000e-04,-0.0579687,-0.00149938,4.92896
4.140000e-04,-0.051875,-0.00146594,4.93396
4.150000e-04,-0.0559375,-0.00138688,4.94615
4.160000e-04,-0.0540625,-0.00143344,4.93615
4.170000e-04,-0.048125,-0.00144875,4.93146
4.180000e-04,-0.0579687,-0.0015875,4.94021
4.190000e-04,-0.0528125,-0.00156422,4.95365
4.200000e-04,-0.066875,-0.00149266,4.91459
4.210000e-04,-0.0584375,-0.00156313,4.9549
4.220000e-04,-0.0485938,-0.00139031,4.95834
4.230000e-04,-0.0548437,-0.00146,4.93678
4.240000e-04,-0.0539063,-0.00155781,4.93021
4.250000e-04,-0.0548437,-0.00144531,4.93709
4.260000e-04,-0.05375,-0.00155813,4.94615
4.270000e-04,-0.0629688,-0.00156609,4.92677
4.280000e-04,-0.0510938,-0.00154234,4.93021
4.290000e-04,-0.0510938,-0.00161359,4.92834
4.300000e-04,-0.0560937,-0.00147516,4.97428
4.310000e-04,-0.064375,-0.00141375,4.91396
4.320000e-04,-0.043125,-0.00147172,4.92427
4.330000e-04,-0.0389063,-0.00140688,4.93427
4.340000e-04,-0.056875,-0.00150031,4.92802
4.350000e-04,-0.0575,-0.00147578,4.91084
4.360000e-04,-0.0435938,-0.00159266,4.91615
4.370000e-04,-0.0509375,-0.00155547,4.91865
4.380000e-04,-0.0498438,-0.00168328,4.93771
4.390000e-04,-0.0557813,-0.00164984,4.92553
4.400000e-04,-0.0475,-0.00158891,4.9274
4.410000e-04,-0.0610938,-0.00152219,4.91834
4.420000e-04,-0.06,-0.00147063,4.90834
4.430000e-04,-0.0559375,-0.00143047,4.89803
4.440000e-04,-0.0528125,-0.00147297,4.92146
4.450000e-04,-0.0525,-0.00146656,4.91865
4.460000e-04,-0.048125,-0.00147578,4.92209
4.470000e-04,-0.0523437,-0.00150391,4.9424
4.480000e-04,-0.06,-0.00156484,4.96396
4.490000e-04,-0.0679688,-0.00150125,4.94271
4.500000e-04,-0.0634375,-0.00162453,4.90959
4.510000e-04,-0.0540625,-0.00152266,4.95209
4.520000e-04,-0.0520313,-0.00153469,4.93553
4.530000e-04,-0.0528125,-0.00150594,4.9324
4.540000e-04,-0.051875,-0.00144656,4.91709
4.550000e-04,-0.0635938,-0.00145953,4.90803
4.560000e-04,-0.0565625,-0.00143891,4.90053
4.570000e-04,-0.04875,-0.00141969,4.90959
4.580000e-04,-0.0439063,-0.00146813,4.91896
4.590000e-04,-0.0559375,-0.0015725,4.92865
4.600000e-04,-0.0596875,-0.00145047,4.91834
4.610000e-04,-0.0520313,-0.00158906,4.91677
4.620000e-04,-0.0510938,-0.00151828,4.91209
4.630000e-04,-0.051875,-0.00156062,4.8999
4.640000e-04,-0.0521875,-0.00147641,4.92896
4.650000e-04,-0.0551563,-0.00154266,4.91521
4.660000e-04,-0.0492188,-0.00156781,4.89053
4.670000e-04,-0.0482812,-0.00146906,4.8849
4.680000e-04,-0.0573437,-0.00152969,4.93146
4.690000e-04,-0.0603125,-0.00153875,4.89396
4.700000e-04,-0.0504687,-0.00142016,4.91427
4.710000e-04,-0.053125,-0.00148828,4.92021
4.720000e-04,-0.0617188,-0.00150578,4.91803
4.730000e-04,-0.0507812,-0.00147156,4.91365
4.740000e-04,-0.0576563,-0.00156938,4.94396
4.750000e-04,-0.0626562,-0.00155609,4.92677
4.760000e-04,0.58,-0.000619219,4.93928
4.770000e-04,-2.04766,0.00400156,4.91896
4.780000e-04,1.52531,-0.00438438,4.92178
4.790000e-04,-1.80656,-0.00600062,4.9374
4.800000e-04,2.00469,-0.00600062,4.92709
4.810000e-04,-2.27953,-0.00600062,4.94521
4.820000e-04,2.11313,-0.00600062,4.9299
4.830000e-04,-2.03484,-0.00600062,4.92115
4.840000e-04,1.77891,-0.00600062,4.94271
4.850000e-04,-1.66234,-0.00600062,4.91615
4.860000e-04,1.50703,-0.00600062,4.91709
4.870000e-04,-1.42234,-0.00600062,4.95146
4.880000e-04,1.10406,-0.00600062,4.93178
4.890000e-04,-1.09047,-0.00600062,4.94771
4.900000e-04,0.944531,-0.00600062,4.94303
4.910000e-04,-1.00609,-0.00600062,4.93396
4.920000e-04,0.925312,-0.00600062,4.94396
4.930000e-04,-0.930625,-0.00600062,4.93178
4.940000e-04,0.897031,-0.00600062,4.91959
4.950000e-04,-0.951094,-0.00600062,4.95021
4.960000e-04,0.880469,-0.00599703,4.9674
4.970000e-04,-1.23484,-0.00600062,4.9424
4.980000e-04,0.131563,-0.00563234,4.96584
4.990000e-04,-0.0110937,-0.00548625,4.95209
5.000000e-04,0.0190625,-0.00548484,4.91396
5.010000e-04,0.033125,-0.00548187,4.94053
5.020000e-04,0.0420313,-0.00547875,4.92959
5.030000e-04,0.0473438,-0.00547937,4.94021
5.040000e-04,0.065625,-0.00548797,4.91209
5.050000e-04,0.073125,-0.00558203,4.93646
5.060000e-04,0.081875,-0.00534719,4.94928
5.070000e-04,0.0979687,-0.00529766,4.93084
5.080000e-04,0.0851563,-0.00529781,4.93928
5.090000e-04,0.0698437,-0.00529766,4.91896
5.100000e-04,0.0946875,-0.0052975,4.91803
5.110000e-04,0.0940625,-0.00581422,4.93084
5.120000e-04,0.0851563,-0.00600062,4.93178
5.130000e-04,0.093125,-0.00554609,4.94959
5.140000e-04,0.0979687,-0.00529766,4.9199
5.150000e-04,0.098125,-0.00529734,4.93209
5.160000e-04,0.0895312,-0.00529766,4.9199
5.170000e-04,0.0901562,-0.00529781,4.92303
5.180000e-04,0.0779688,-0.00529781,4.94053
5.190000e-04,0.0875,-0.0052975,4.91021
5.200000e-04,0.11375,-0.0052975,4.91928
5.210000e-04,0.0885937,-0.00529766,4.93427
5.220000e-04,0.0746875,-0.0052975,4.94834
5.230000e-04,0.0732812,-0.00529766,4.9149
5.240000e-04,0.0779688,-0.00529797,4.93865
5.250000e-04,0.080625,-0.00529766,4.93834
5.260000e-04,0.0734375,-0.00529734,4.95678
5.270000e-04,0.079375,-0.0052975,4.92521
5.280000e-04,0.088125,-0.0052975,4.92365
5.290000e-04,0.0820312,-0.0052975,4.92959
5.300000e-04,0.0803125,-0.00529766,4.9174
5.310000e-04,0.08625,-0.00529766,4.91959
5.320000e-04,0.0753125,-0.0052975,4.90709
5.330000e-04,0.0739062,-0.00529734,4.93178
5.340000e-04,0.0895312,-0.0052975,4.96396
5.350000e-04,0.0657812,-0.00529766,4.93334
5.360000e-04,0.0746875,-0.0052975,4.91553
5.370000e-04,0.0740625,-0.00529766,4.91209
5.380000e-04,0.068125,-0.00529734,4.91584
5.390000e-04,0.0610938,-0.00529766,4.90865
5.400000e-04,0.0604688,-0.00529766,4.95271
5.410000e-04,0.0667187,-0.00529781,4.92052
5.420000e-04,0.0654687,-0.0052975,4.93427
5.430000e-04,0.0667187,-0.0052975,4.91959
5.440000e-04,0.0690625,-0.00529781,4.91115
5.450000e-04,0.071875,-0.00529781,4.8999
5.460000e-04,0.0540625,-0.00529781,4.92584
5.470000e-04,0.0689063,-0.00529719,4.92959
5.480000e-04,0.0521875,-0.0052975,4.93396
5.490000e-04,0.0690625,-0.00529766,4.91677
5.500000e-04,0.0676563,-0.00529766,4.89428
5.510000e-04,0.0609375,-0.00529766,4.93959
5.520000e-04,0.0423437,-0.0052975,4.97115
5.530000e-04,0.0475,-0.0052975,4.94552
5.540000e-04,0.055,-0.0052975,4.9299
5.550000e-04,0.0576562,-0.00529766,4.93802
5.560000e-04,0.0595312,-0.00529766,4.94084
5.570000e-04,0.0625,-0.00529766,4.93521
5.580000e-04,0.0565625,-0.0052975,4.93427
5.590000e-04,0.06125,-0.0052975,4.93459
5.600000e-04,0.0364063,-0.00529766,4.92459
5.610000e-04,0.0528125,-0.0052975,4.95084
5.620000e-04,0.0642187,-0.00529781,4.96053
5.630000e-04,0.0489062,-0.00529766,4.94209
5.640000e-04,0.0582812,-0.00529766,4.91209
5.650000e-04,0.0548437,-0.0052975,4.94209
5.660000e-04,0.051875,-0.0052975,4.95084
5.670000e-04,0.0492187,-0.00529781,4.92709
5.680000e-04,0.04625,-0.00529766,4.9599
5.690000e-04,0.0529687,-0.00529766,4.9449
5.700000e-04,0.0582812,-0.0052975,4.93771
5.710000e-04,0.0464062,-0.0052975,4.94365
5.720000e-04,0.0464062,-0.00529766,4.93553
5.730000e-04,0.040625,-0.0052975,4.92303
5.740000e-04,0.0348438,-0.0052975,4.93646
5.750000e-04,0.0342188,-0.0052975,4.91115
5.760000e-04,0.0279688,-0.00529781,4.96209
