nmr/data/tek0015.csv

Model,MDO4054-3
Firmware Version,2.20

Waveform Type,ANALOG,
Point Format,Y,
Horizontal Units,s,
Horizontal Scale,0.01,
Horizontal Delay,0.03977,
Sample Interval,1e-05,
Record Length,10000,
Gating,0.0% to 100.0%,
Probe Attenuation,1,
Vertical Units,V,
Vertical Offset,0,
Vertical Scale,1,
Vertical Position,0.02,
,,
,,
,,
Label,,
TIME,CH1,CH2
-1.0230e-02,-0.0434375,0.000370938
-1.0220e-02,-0.05125,4.5e-05
-1.0210e-02,-0.0532813,0.000395313
-1.0200e-02,-0.0584375,0.000681563
-1.0190e-02,-0.046875,-0.0003925
-1.0180e-02,-0.0560937,9.15625e-05
-1.0170e-02,-0.0528125,9.90625e-05
-1.0160e-02,-0.0635938,-0.000325938
-1.0150e-02,-0.0542187,-0.00051125
-1.0140e-02,-0.05125,-0.000202188
-1.0130e-02,-0.0626562,-0.000175938
-1.0120e-02,-0.0378125,-0.000401563
-1.0110e-02,-0.0492188,-0.000542188
-1.0100e-02,-0.0435938,0.000185938
-1.0090e-02,-0.056875,-0.000359375
-1.0080e-02,-0.055,0.000236875
-1.0070e-02,-0.0520313,0.00039125
-1.0060e-02,-0.0534375,0.0003625
-1.0050e-02,-0.0498438,-0.00047125
-1.0040e-02,-0.0535937,-0.00046
-1.0030e-02,-0.0596875,0.000254375
-1.0020e-02,-0.0390625,-0.000294375
-1.0010e-02,-0.0571875,-2.5e-05
-1.0000e-02,-0.0490625,3.65625e-05
-9.9900e-03,-0.0540625,-0.000304687
-9.9800e-03,-0.0564063,-0.00023625
-9.9700e-03,-0.0465625,-0.000174375
-9.9600e-03,-0.06625,-0.000527813
-9.9500e-03,-0.0517188,-0.000175313
-9.9400e-03,-0.0657812,-0.000195938
-9.9300e-03,-0.0540625,1.125e-05
-9.9200e-03,-0.0498438,-0.000326563
-9.9100e-03,-0.0479688,-0.00028875
-9.9000e-03,-0.0520313,-0.000544063
-9.8900e-03,-0.0551563,5.3125e-06
-9.8800e-03,-0.0501562,-1.53125e-05
-9.8700e-03,-0.059375,0.000325
-9.8600e-03,-0.0567187,0.000447813
-9.8500e-03,-0.0620312,8.59375e-05
-9.8400e-03,-0.0564063,-0.00013625
-9.8300e-03,-0.0539063,0.000124688
-9.8200e-03,-0.0615625,0.000179375
-9.8100e-03,-0.04875,-6.9375e-05
-9.8000e-03,-0.0520313,-0.000105313
-9.7900e-03,-0.0565625,-0.000257188
-9.7800e-03,-0.06,-0.000444375
-9.7700e-03,-0.0517188,-7.5e-06
-9.7600e-03,-0.0492188,0.000217188
-9.7500e-03,-0.0515625,7.71875e-05
-9.7400e-03,-0.055,0.000614687
-9.7300e-03,-0.04625,-0.000265
-9.7200e-03,-0.0610938,-6e-05
-9.7100e-03,-0.0585938,0.0003725
-9.7000e-03,-0.05875,0.0002075
-9.6900e-03,-0.059375,-6.25e-06
-9.6800e-03,-0.0610938,0.000223125
-9.6700e-03,-0.0392187,-0.000277188
-9.6600e-03,-0.0576563,-0.000519375
-9.6500e-03,-0.0585938,-0.0002975
-9.6400e-03,-0.048125,-4.375e-06
-9.6300e-03,-0.0514063,-8.21875e-05
-9.6200e-03,-0.0521875,-6.84375e-05
-9.6100e-03,-0.0554687,-0.000509375
-9.6000e-03,-0.0535937,-3e-05
-9.5900e-03,-0.0492188,-0.000310313
-9.5800e-03,-0.0446875,-0.00047875
-9.5700e-03,-0.0657812,-0.000118125
-9.5600e-03,-0.0514063,0.000482813
-9.5500e-03,-0.0567187,0.000143125
-9.5400e-03,-0.0446875,0.0002825
-9.5300e-03,-0.0560937,-2.40625e-05
-9.5200e-03,-0.053125,-0.000159375
-9.5100e-03,-0.0628125,-0.000255625
-9.5000e-03,-0.0579687,-0.000215313
-9.4900e-03,-0.0626562,-8.71875e-05
-9.4800e-03,-0.0534375,-0.0001325
-9.4700e-03,-0.058125,0.000105313
-9.4600e-03,-0.058125,-9.46875e-05
-9.4500e-03,-0.0535937,-4.09375e-05
-9.4400e-03,-0.045625,-9.28125e-05
-9.4300e-03,-0.0609375,-0.000475938
-9.4200e-03,-0.048125,-0.000184688
-9.4100e-03,-0.06,0.000265625
-9.4000e-03,-0.0557813,-0.000387188
-9.3900e-03,-0.0520313,-0.000709688
-9.3800e-03,-0.0440625,-0.00033125
-9.3700e-03,-0.0634375,0.000604375
-9.3600e-03,-0.0492188,0.0002675
-9.3500e-03,-0.0529687,4.1875e-05
-9.3400e-03,-0.0540625,0.000315938
-9.3300e-03,-0.0685937,9.375e-06
-9.3200e-03,-0.0342187,-2.1875e-06
-9.3100e-03,-0.0553125,0.000574375
-9.3000e-03,-0.0615625,0.000325938
-9.2900e-03,-0.0640625,-6.34375e-05
-9.2800e-03,-0.0573437,-6.65625e-05
-9.2700e-03,-0.0503125,-0.000223125
-9.2600e-03,-0.0635938,-9.375e-05
-9.2500e-03,-0.0517188,-0.000234688
-9.2400e-03,-0.05625,-0.00013625
-9.2300e-03,-0.0525,0.000215625
-9.2200e-03,-0.0590625,0.000372813
-9.2100e-03,-0.0590625,-0.00077875
-9.2000e-03,-0.0479688,0.000109688
-9.1900e-03,-0.0435938,-4.6875e-06
-9.1800e-03,-0.0504687,0.000106875
-9.1700e-03,-0.0660938,-0.00046875
-9.1600e-03,-0.0560937,-8.84375e-05
-9.1500e-03,-0.0610938,-0.000275625
-9.1400e-03,-0.0621875,-0.0001875
-9.1300e-03,-0.0596875,-0.0006075
-9.1200e-03,-0.0457813,-0.00020125
-9.1100e-03,-0.0503125,-0.000319688
-9.1000e-03,-0.0467188,-0.000440625
-9.0900e-03,-0.0523437,0.00042125
-9.0800e-03,-0.040625,-0.000212188
-9.0700e-03,-0.0657812,2e-05
-9.0600e-03,-0.055625,2.96875e-05
-9.0500e-03,-0.0592188,6.5e-05
-9.0400e-03,-0.0629688,-0.00016625
-9.0300e-03,-0.0478125,0.000310625
-9.0200e-03,-0.0496875,0.000564688
-9.0100e-03,-0.0517188,-0.000334375
-9.0000e-03,-0.04125,-0.000187813
-8.9900e-03,-0.0628125,0.00021875
-8.9800e-03,-0.0607812,-6.4375e-05
-8.9700e-03,-0.0657812,-0.000501875
-8.9600e-03,-0.0551563,0.00013125
-8.9500e-03,-0.0567187,0.000610625
-8.9400e-03,-0.0573437,-4.4375e-05
-8.9300e-03,-0.0645312,-9.5e-05
-8.9200e-03,-0.0598438,0.000314375
-8.9100e-03,-0.0576563,-0.000376563
-8.9000e-03,-0.0682813,0.000158438
-8.8900e-03,-0.048125,-4.125e-05
-8.8800e-03,-0.0470312,-0.000340938
-8.8700e-03,-0.0528125,-0.000135313
-8.8600e-03,-0.05,0.0003525
-8.8500e-03,-0.0564063,0.000173125
-8.8400e-03,-0.0539063,0.000180625
-8.8300e-03,-0.0784375,-0.000424063
-8.8200e-03,-0.0554687,-9.4375e-05
-8.8100e-03,-0.0540625,0.000277813
-8.8000e-03,-0.0570313,4.25e-05
-8.7900e-03,-0.0575,-0.000260313
-8.7800e-03,-0.0478125,-0.000605625
-8.7700e-03,-0.0495312,-0.000131563
-8.7600e-03,-0.05625,9.0625e-06
-8.7500e-03,-0.045625,0.000310625
-8.7400e-03,-0.0503125,-9.40625e-05
-8.7300e-03,-0.0528125,-0.000515
-8.7200e-03,-0.0440625,9.78125e-05
-8.7100e-03,-0.0370313,-0.000393438
-8.7000e-03,-0.0673438,-0.000284375
-8.6900e-03,-0.0567187,0.000107813
-8.6800e-03,-0.0576563,-0.000139688
-8.6700e-03,-0.066875,0.000124688
-8.6600e-03,-0.0589063,0.00012
-8.6500e-03,-0.05625,-0.000269063
-8.6400e-03,-0.0604688,0.000203438
-8.6300e-03,-0.0495312,-0.00032875
-8.6200e-03,-0.0435938,0.000141875
-8.6100e-03,-0.0584375,0.000631563
-8.6000e-03,-0.0567187,-5.15625e-05
-8.5900e-03,-0.06375,-6e-05
-8.5800e-03,-0.045,-0.000171563
-8.5700e-03,-0.0464062,-0.000415313
-8.5600e-03,-0.050625,-0.000179063
-8.5500e-03,-0.0503125,-0.0002075
-8.5400e-03,-0.0496875,-1.25e-06
-8.5300e-03,-0.0460938,-0.000330313
-8.5200e-03,-0.050625,-0.000715
-8.5100e-03,-0.0615625,-0.000370938
-8.5000e-03,-0.0610938,-2.8125e-06
-8.4900e-03,-0.0526563,-9.03125e-05
-8.4800e-03,-0.0470312,0.00029625
-8.4700e-03,-0.0507812,-0.000104063
-8.4600e-03,-0.045625,-0.000625
-8.4500e-03,-0.0598438,0.000213125
-8.4400e-03,-0.05625,-0.000558125
-8.4300e-03,-0.0573437,-1e-05
-8.4200e-03,-0.0470312,-0.00030125
-8.4100e-03,-0.049375,-0.000543438
-8.4000e-03,-0.0501562,-6.46875e-05
-8.3900e-03,-0.050625,-0.000374375
-8.3800e-03,-0.0614062,-0.000138438
-8.3700e-03,-0.0453125,-0.000424688
-8.3600e-03,-0.0464062,-0.000457188
-8.3500e-03,-0.071875,-0.0004925
-8.3400e-03,-0.05375,1.125e-05
-8.3300e-03,-0.0598438,0.000144063
-8.3200e-03,-0.0571875,0.000113125
-8.3100e-03,-0.0526563,0.000502188
-8.3000e-03,-0.0489062,-0.00018
-8.2900e-03,-0.05,-5.4375e-05
-8.2800e-03,-0.049375,0.000202188
-8.2700e-03,-0.0642188,0.000313438
-8.2600e-03,-0.0546875,0.00043625
-8.2500e-03,-0.051875,0.000506875
-8.2400e-03,-0.0604688,-4.59375e-05
-8.2300e-03,-0.0520313,1.25e-06
-8.2200e-03,-0.0592188,-0.000270625
-8.2100e-03,-0.0546875,-0.000119063
-8.2000e-03,-0.05875,8.90625e-05
-8.1900e-03,-0.053125,-0.000176563
-8.1800e-03,-0.0639062,-0.0002
-8.1700e-03,-0.0485938,-3e-05
-8.1600e-03,-0.0417187,-9.15625e-05
-8.1500e-03,-0.0539063,-0.000498125
-8.1400e-03,-0.0570313,-0.000335625
-8.1300e-03,-0.05,-8.375e-05
-8.1200e-03,-0.0570313,-0.000545625
-8.1100e-03,-0.0425,-0.000461875
-8.1000e-03,-0.0532813,-0.000501875
-8.0900e-03,-0.0595313,-0.00035125
-8.0800e-03,-0.0504687,-0.000541563
-8.0700e-03,-0.053125,-0.000102813
-8.0600e-03,-0.0509375,-0.000191563
-8.0500e-03,-0.0564063,0.00010625
-8.0400e-03,-0.0582813,-0.00029625
-8.0300e-03,-0.0614062,-0.000404688
-8.0200e-03,-0.051875,-0.000240938
-8.0100e-03,-0.0403125,-0.000326563
-8.0000e-03,-0.04875,-0.000272812
-7.9900e-03,-0.0429688,-0.000345625
-7.9800e-03,-0.0607812,0.00013125
-7.9700e-03,-0.0601562,-6.59375e-05
-7.9600e-03,-0.0504687,-6.9375e-05
-7.9500e-03,-0.0509375,-0.000309375
-7.9400e-03,-0.0496875,-0.000113438
-7.9300e-03,-0.0528125,-0.0002475
-7.9200e-03,-0.0567187,0.000287813
-7.9100e-03,-0.0415625,-4.40625e-05
-7.9000e-03,-0.05125,-0.000132813
-7.8900e-03,-0.0607812,0.0005825
-7.8800e-03,-0.0578125,0.00011125
-7.8700e-03,-0.0565625,0.000236875
-7.8600e-03,-0.0551563,-0.000490313
-7.8500e-03,-0.0595313,-0.0001475
-7.8400e-03,-0.0553125,7.75e-05
-7.8300e-03,-0.0554687,0.000147813
-7.8200e-03,-0.0595313,-0.000566563
-7.8100e-03,-0.0570313,-0.000308438
-7.8000e-03,-0.0476562,0.00012125
-7.7900e-03,-0.051875,0.000102813
-7.7800e-03,-0.0629688,-0.00025875
-7.7700e-03,-0.0590625,-8.96875e-05
-7.7600e-03,-0.0559375,-0.000425
-7.7500e-03,-0.0673438,0.000244375
-7.7400e-03,-0.0560937,-8.84375e-05
-7.7300e-03,-0.051875,0.000137188
-7.7200e-03,-0.0473438,-0.000570625
-7.7100e-03,-0.0542187,-0.000498125
-7.7000e-03,-0.0460938,0.000151875
-7.6900e-03,-0.0578125,-2.59375e-05
-7.6800e-03,-0.0490625,-0.000440313
-7.6700e-03,-0.058125,0.000360313
-7.6600e-03,-0.0590625,0.00011125
-7.6500e-03,-0.0560937,-0.00018
-7.6400e-03,-0.0642188,0.0004
-7.6300e-03,-0.0639062,-0.000108125
-7.6200e-03,-0.0573437,-0.00024375
-7.6100e-03,-0.0521875,-0.000180313
-7.6000e-03,-0.0514063,-5.46875e-05
-7.5900e-03,-0.0542187,-0.000139375
-7.5800e-03,-0.0578125,-0.000415313
-7.5700e-03,-0.0495312,-0.000361563
-7.5600e-03,-0.0603125,-3.96875e-05
-7.5500e-03,-0.0576563,-0.000380625
-7.5400e-03,-0.0515625,-0.000257813
-7.5300e-03,-0.0542187,0.0001025
-7.5200e-03,-0.0559375,0.000257813
-7.5100e-03,-0.0410937,-0.000138125
-7.5000e-03,-0.054375,-8.40625e-05
-7.4900e-03,-0.059375,-0.000609063
-7.4800e-03,-0.0645312,-0.000260313
-7.4700e-03,-0.0579687,0.000109063
-7.4600e-03,-0.0498438,-0.000198438
-7.4500e-03,-0.0473438,-0.00061875
-7.4400e-03,-0.0567187,3.4375e-05
-7.4300e-03,-0.0551563,-0.00017875
-7.4200e-03,-0.0451563,5.9375e-05
-7.4100e-03,-0.0509375,-6.4375e-05
-7.4000e-03,-0.059375,-0.000263437
-7.3900e-03,-0.0482812,-0.000290313
-7.3800e-03,-0.05125,-0.000360313
-7.3700e-03,-0.0595313,-0.000878125
-7.3600e-03,-0.0582813,-0.000402188
-7.3500e-03,-0.0692187,-0.000248125
-7.3400e-03,-0.0460938,-0.000665938
-7.3300e-03,-0.0529687,5.65625e-05
-7.3200e-03,-0.0503125,-0.000383438
-7.3100e-03,-0.05875,-0.000871563
-7.3000e-03,-0.065,-7.40625e-05
-7.2900e-03,-0.0578125,-0.000229375
-7.2800e-03,-0.04375,-0.000226563
-7.2700e-03,-0.053125,0.000104375
-7.2600e-03,-0.0621875,0.000170938
-7.2500e-03,-0.0570313,9e-05
-7.2400e-03,-0.0470312,0.00014625
-7.2300e-03,-0.06,-0.000465313
-7.2200e-03,-0.0573437,-0.000395313
-7.2100e-03,-0.051875,-0.00040625
-7.2000e-03,-0.0598438,-0.000404375
-7.1900e-03,-0.0507812,3.5e-05
-7.1800e-03,-0.0514063,-0.000217813
-7.1700e-03,-0.0546875,3.125e-07
-7.1600e-03,-0.06,-0.0001625
-7.1500e-03,-0.0520313,-0.000303438
-7.1400e-03,-0.0528125,0.000426563
-7.1300e-03,-0.0621875,0.000162813
-7.1200e-03,-0.0654688,3.5e-05
-7.1100e-03,-0.0482812,-7.5e-06
-7.1000e-03,-0.0532813,-0.00017
-7.0900e-03,-0.0517188,-1.25e-05
-7.0800e-03,-0.0514063,-3.75e-06
-7.0700e-03,-0.04625,-0.000184063
-7.0600e-03,-0.0378125,-0.000478125
-7.0500e-03,-0.0507812,-0.000249688
-7.0400e-03,-0.0521875,-0.000464063
-7.0300e-03,-0.0489062,-0.000899063
-7.0200e-03,-0.0540625,-0.00018625
-7.0100e-03,-0.053125,-0.00085
-7.0000e-03,-0.0551563,-0.00109313
-6.9900e-03,-0.0528125,6e-05
-6.9800e-03,-0.0582813,0.000124375
-6.9700e-03,-0.0510938,-0.000235313
-6.9600e-03,-0.049375,-0.000100938
-6.9500e-03,-0.0520313,-0.000396563
-6.9400e-03,-0.0525,-0.000218125
-6.9300e-03,-0.0521875,-0.00083375
-6.9200e-03,-0.0429688,2.375e-05
-6.9100e-03,-0.0695313,6.625e-05
-6.9000e-03,-0.0596875,-0.000121563
-6.8900e-03,-0.0589063,4.6875e-05
-6.8800e-03,-0.0473438,-0.000110313
-6.8700e-03,-0.0665625,0.000103438
-6.8600e-03,-0.0484375,-1.34375e-05
-6.8500e-03,-0.0485938,-0.000193125
-6.8400e-03,-0.0660938,0.000371875
-6.8300e-03,-0.0596875,-0.000644688
-6.8200e-03,-0.0525,-0.000395
-6.8100e-03,-0.0645312,-0.00071875
-6.8000e-03,-0.0509375,-0.00030875
-6.7900e-03,-0.05375,-0.000248438
-6.7800e-03,-0.0529687,0.000122188
-6.7700e-03,-0.0540625,8.1875e-05
-6.7600e-03,-0.0523437,0.000207188
-6.7500e-03,-0.0621875,0.000210938
-6.7400e-03,-0.0504687,-0.0003875
-6.7300e-03,-0.0623438,7.90625e-05
-6.7200e-03,-0.0489062,4.1875e-05
-6.7100e-03,-0.04375,-0.000837188
-6.7000e-03,-0.0495312,-0.000218438
-6.6900e-03,-0.0585938,-0.000173438
-6.6800e-03,-0.0578125,0.00015375
-6.6700e-03,-0.0509375,-3.40625e-05
-6.6600e-03,-0.0529687,-0.000479063
-6.6500e-03,-0.0514063,-0.000185938
-6.6400e-03,-0.0551563,-0.000156563
-6.6300e-03,-0.0560937,-5.90625e-05
-6.6200e-03,-0.0535937,-0.000461875
-6.6100e-03,-0.0539063,-0.000614687
-6.6000e-03,-0.0603125,-0.00058
-6.5900e-03,-0.0646875,-0.0002175
-6.5800e-03,-0.0510938,-0.0005375
-6.5700e-03,-0.0540625,-0.000294688
-6.5600e-03,-0.0642188,-0.000320313
-6.5500e-03,-0.0520313,0.000146875
-6.5400e-03,-0.0373438,0.000151875
-6.5300e-03,-0.06625,-0.000470625
-6.5200e-03,-0.06,0.000137188
-6.5100e-03,-0.0546875,6.15625e-05
-6.5000e-03,-0.0435938,-0.000281563
-6.4900e-03,-0.0448438,-5.40625e-05
-6.4800e-03,-0.045,-0.000276563
-6.4700e-03,-0.0557813,-0.000255
-6.4600e-03,-0.0501562,0.000119688
-6.4500e-03,-0.05,-7.375e-05
-6.4400e-03,-0.0553125,6.78125e-05
-6.4300e-03,-0.0654688,0.000141563
-6.4200e-03,-0.0534375,3.59375e-05
-6.4100e-03,-0.0553125,0.000335625
-6.4000e-03,-0.05875,-0.000412813
-6.3900e-03,-0.0515625,-0.000677813
-6.3800e-03,-0.05875,0.000135
-6.3700e-03,-0.055,-0.000186875
-6.3600e-03,-0.0570313,0.000155625
-6.3500e-03,-0.0479688,-0.000519375
-6.3400e-03,-0.0582813,-0.000495625
-6.3300e-03,-0.0551563,1.875e-06
-6.3200e-03,-0.0554687,-3.96875e-05
-6.3100e-03,-0.044375,-0.000384375
-6.3000e-03,-0.06,3e-05
-6.2900e-03,-0.0584375,7.4375e-05
-6.2800e-03,-0.0567187,-0.000485313
-6.2700e-03,-0.0645312,-0.00038375
-6.2600e-03,-0.0564063,-0.000134375
-6.2500e-03,-0.0582813,-9.5e-05
-6.2400e-03,-0.0609375,-0.000585
-6.2300e-03,-0.0534375,0.0001275
-6.2200e-03,-0.049375,0.000417813
-6.2100e-03,-0.0553125,4.96875e-05
-6.2000e-03,-0.053125,0.00047125
-6.1900e-03,-0.0584375,0.0001625
-6.1800e-03,-0.0503125,-0.000182813
-6.1700e-03,-0.050625,-0.000446875
-6.1600e-03,-0.0515625,-0.00013125
-6.1500e-03,-0.05375,0.000150313
-6.1400e-03,-0.049375,-0.000674688
-6.1300e-03,-0.0520313,0.000109688
-6.1200e-03,-0.0503125,-5.9375e-05
-6.1100e-03,-0.0573437,0.00012875
-6.1000e-03,-0.0634375,-0.00046125
-6.0900e-03,-0.05875,-0.000170625
-6.0800e-03,-0.0610938,5.3125e-05
-6.0700e-03,-0.0614062,4.0625e-06
-6.0600e-03,-0.0609375,-0.000164063
-6.0500e-03,-0.0579687,0.000181875
-6.0400e-03,-0.0478125,0.000433125
-6.0300e-03,-0.0535937,0.0005525
-6.0200e-03,-0.0609375,8.75e-06
-6.0100e-03,-0.0620312,-0.000100938
-6.0000e-03,-0.0492188,0.000347813
-5.9900e-03,-0.0470312,-0.000167813
-5.9800e-03,-0.0476562,-0.000279688
-5.9700e-03,-0.0604688,-0.000395313
-5.9600e-03,-0.0603125,0.000210625
-5.9500e-03,-0.0440625,-0.000265313
-5.9400e-03,-0.0573437,-7.34375e-05
-5.9300e-03,-0.0520313,0.000125
-5.9200e-03,-0.0520313,-9.875e-05
-5.9100e-03,-0.0510938,-0.000405625
-5.9000e-03,-0.0582813,-6.78125e-05
-5.8900e-03,-0.0626562,-0.000496875
-5.8800e-03,-0.0542187,-0.000246563
-5.8700e-03,-0.0540625,-0.000374375
-5.8600e-03,-0.04375,0.000154063
-5.8500e-03,-0.0704687,-0.000270938
-5.8400e-03,-0.046875,-1.6875e-05
-5.8300e-03,-0.0509375,-0.000358125
-5.8200e-03,-0.0570313,-0.000245625
-5.8100e-03,-0.0470312,-0.000428125
-5.8000e-03,-0.06375,-0.000285938
-5.7900e-03,-0.0520313,-0.0002575
-5.7800e-03,-0.0510938,-0.000591875
-5.7700e-03,-0.059375,-0.000132188
-5.7600e-03,-0.0476562,-0.000382188
-5.7500e-03,-0.0548437,-8.40625e-05
-5.7400e-03,-0.054375,0.000176875
-5.7300e-03,-0.0564063,-9.40625e-05
-5.7200e-03,-0.0582813,-5.3125e-05
-5.7100e-03,-0.05625,-0.000202188
-5.7000e-03,-0.0565625,-0.000314688
-5.6900e-03,-0.0507812,0.000278125
-5.6800e-03,-0.0446875,0.000165
-5.6700e-03,-0.0635938,-5.625e-06
-5.6600e-03,-0.043125,-0.000297813
-5.6500e-03,-0.0603125,0.000157188
-5.6400e-03,-0.068125,-0.000298125
-5.6300e-03,-0.0564063,-0.000125938
-5.6200e-03,-0.05,-0.000338438
-5.6100e-03,-0.0603125,0.000392813
-5.6000e-03,-0.053125,0.000257188
-5.5900e-03,-0.0532813,-0.00025625
-5.5800e-03,-0.0546875,1.125e-05
-5.5700e-03,-0.0407813,0.000317188
-5.5600e-03,-0.041875,-0.000262187
-5.5500e-03,-0.0554687,0.00023625
-5.5400e-03,-0.045,-0.000602813
-5.5300e-03,-0.0575,-0.00073125
-5.5200e-03,-0.0659375,-0.000185313
-5.5100e-03,-0.063125,0.0002075
-5.5000e-03,-0.0498438,-9.59375e-05
-5.4900e-03,-0.0501562,-0.000335938
-5.4800e-03,-0.0564063,9.40625e-05
-5.4700e-03,-0.0507812,0
-5.4600e-03,-0.046875,-0.000339375
-5.4500e-03,-0.059375,-0.00042
-5.4400e-03,-0.0546875,-0.000193438
-5.4300e-03,-0.053125,-0.000223125
-5.4200e-03,-0.0478125,-3.15625e-05
-5.4100e-03,-0.0582813,-0.000247188
-5.4000e-03,-0.0639062,-0.000332188
-5.3900e-03,-0.0467188,0.00012875
-5.3800e-03,-0.0592188,0.000377813
-5.3700e-03,-0.0528125,0.000185
-5.3600e-03,-0.0610938,6.5e-05
-5.3500e-03,-0.0509375,-0.000337188
-5.3400e-03,-0.0560937,0.000410938
-5.3300e-03,-0.0460938,0.000181563
-5.3200e-03,-0.0504687,0.000159375
-5.3100e-03,-0.0526563,0.000183125
-5.3000e-03,-0.0575,0.00019125
-5.2900e-03,-0.0601562,0.000124688
-5.2800e-03,-0.056875,-0.000134375
-5.2700e-03,-0.0567187,-4.40625e-05
-5.2600e-03,-0.0551563,-0.000207188
-5.2500e-03,-0.0528125,0.000205625
-5.2400e-03,-0.0532813,-8.03125e-05
-5.2300e-03,-0.0503125,-0.00051625
-5.2200e-03,-0.0439063,-0.000435313
-5.2100e-03,-0.05625,-0.000129062
-5.2000e-03,-0.050625,-0.000484063
-5.1900e-03,-0.0546875,-0.000369375
-5.1800e-03,-0.0439063,-0.000594688
-5.1700e-03,-0.0567187,-0.000344375
-5.1600e-03,-0.05875,-0.000405
-5.1500e-03,-0.054375,-0.000854375
-5.1400e-03,-0.0603125,-0.000514063
-5.1300e-03,-0.0573437,-0.000151563
-5.1200e-03,-0.0604688,-0.00014875
-5.1100e-03,-0.0551563,-0.00033375
-5.1000e-03,-0.0578125,-0.000363125
-5.0900e-03,-0.04375,-0.000310625
-5.0800e-03,-0.0654688,4.6875e-06
-5.0700e-03,-0.0646875,1.6875e-05
-5.0600e-03,-0.059375,0.000140313
-5.0500e-03,-0.0617188,-4.8125e-05
-5.0400e-03,-0.0615625,-0.000372813
-5.0300e-03,-0.05875,-0.000407188
-5.0200e-03,-0.060625,-0.000324688
-5.0100e-03,-0.0517188,5.3125e-06
-5.0000e-03,-0.05,-0.00062125
-4.9900e-03,-0.0484375,-0.000609688
-4.9800e-03,-0.055625,-0.000605313
-4.9700e-03,-0.058125,-0.000387188
-4.9600e-03,-0.0485938,-0.000161563
-4.9500e-03,-0.0526563,-0.000192188
-4.9400e-03,-0.0520313,0.000335625
-4.9300e-03,-0.0654688,-0.000202188
-4.9200e-03,-0.0559375,0.000612188
-4.9100e-03,-0.0567187,0.000788438
-4.9000e-03,-0.0632812,0.000134375
-4.8900e-03,-0.0578125,-0.0005675
-4.8800e-03,-0.0529687,-0.000285938
-4.8700e-03,-0.0570313,-0.000213125
-4.8600e-03,-0.0570313,-0.00048375
-4.8500e-03,-0.0642188,9.59375e-05
-4.8400e-03,-0.0476562,-0.000455625
-4.8300e-03,-0.0514063,-0.000526563
-4.8200e-03,-0.06625,0.00025125
-4.8100e-03,-0.059375,-0.000199688
-4.8000e-03,-0.050625,-1.25e-05
-4.7900e-03,-0.0553125,0.00066375
-4.7800e-03,-0.059375,-0.000321563
-4.7700e-03,-0.0660938,-0.0002725
-4.7600e-03,-0.0495312,-0.000270625
-4.7500e-03,-0.0603125,0.000133125
-4.7400e-03,-0.0442188,-6.71875e-05
-4.7300e-03,-0.050625,-0.000226875
-4.7200e-03,-0.0567187,-4.875e-05
-4.7100e-03,-0.0529687,6.65625e-05
-4.7000e-03,-0.051875,-0.0002925
-4.6900e-03,-0.0546875,9.4375e-05
-4.6800e-03,-0.0509375,-0.00019125
-4.6700e-03,-0.0573437,0.000135625
-4.6600e-03,-0.0526563,0.000197188
-4.6500e-03,-0.0535937,-0.000490938
-4.6400e-03,-0.0542187,-0.000281875
-4.6300e-03,-0.0496875,0.0001075
-4.6200e-03,-0.0520313,0.000159375
-4.6100e-03,-0.0539063,-0.000504063
-4.6000e-03,-0.0501562,4.09375e-05
-4.5900e-03,-0.0446875,-0.00052875
-4.5800e-03,-0.0525,-0.000220313
-4.5700e-03,-0.0503125,0.000355625
-4.5600e-03,-0.0601562,0.00044
-4.5500e-03,-0.0571875,5.625e-06
